digraph familyTree
{
    bgcolor="transparent";
    center = true;
            
            subgraph Generation4
            {
            rank = same;
            
            /*  Create nodes for this level */
            wladyslaw [shape = box, URL = "http://genealogy.obdurodon.org/findPerson.php?person=wladyslaw", label = "Władysław Herman of Poland", color = "lavender", fillcolor = white, style = filled, target = _parent];
            judith2 [shape = box, URL = "http://genealogy.obdurodon.org/findPerson.php?person=judith2", label = "Judith daughter of Vratislav II of Bohemia", color = "darkslateblue", fillcolor = white, style = filled, target = _parent];
            judith [shape = box, URL = "http://genealogy.obdurodon.org/findPerson.php?person=judith", label = "Judith daughter of Henry III of the German Empire", color = "green", fillcolor = white, style = filled, target = _parent];
            

            /* Mark marriages between members of this generation */
            
                // Marriages concerning "wladyslaw"
                judith2 -> wladyslaw [dir = none, style = dashed];
                wladyslaw -> judith [dir = none, style = dashed];
                        

            /* EXPERIMENTATION */
                
            

            
            }       /* End of subgraph Generation4 */
            
                subgraph Generation4Sons
                {
                rank = same;
                
                }
                
            
            subgraph Generation3
            {
            rank = same;
            
            /*  Create nodes for this level */
            boleslaw3 [shape = box, URL = "http://genealogy.obdurodon.org/findPerson.php?person=boleslaw3", label = "Bolesław III of Poland", color = "lavender", fillcolor = white, style = filled, target = _parent];
            sbyslava [shape = box, URL = "http://genealogy.obdurodon.org/findPerson.php?person=sbyslava", label = "Sbyslava Sviatopolkovna", color = "red", fillcolor = white, style = filled, target = _parent];
            unknownwifeboleslaw3 [shape = box, URL = "http://genealogy.obdurodon.org/findPerson.php?person=unknown-wife-boleslaw3", label = "Salomea of the German Empire", color = "green", fillcolor = white, style = filled, target = _parent];
            

            /* Mark marriages between members of this generation */
            
                // Marriages concerning "boleslaw3"
                sbyslava -> boleslaw3 [dir = none, style = dashed];
                boleslaw3 -> unknownwifeboleslaw3 [dir = none, style = dashed];
                        

            /* EXPERIMENTATION */
                
            

            
            }       /* End of subgraph Generation3 */
            judith2 -> boleslaw3 [dir = none, weight = 50];
                        judith2 -> sbyslava [dir = none, style = invis];
                        judith2 -> unknownwifeboleslaw3 [dir = none, style = invis];
                        
                subgraph Generation3Sons
                {
                rank = same;
                wladyslaw2Son [shape = rect, width = 0, height = 0, fixedsize = true, label = ""];
                    unknowndaughterboleslaw3Son [shape = rect, width = 0, height = 0, fixedsize = true, label = ""];
                    boleslaw3ANDsbyslavaSon [shape = point, width = 0, height = 0];
                                        wladyslaw2Son -> boleslaw3ANDsbyslavaSon [dir = none];
                                        boleslaw3ANDsbyslavaSon -> unknowndaughterboleslaw3Son [dir = none];
                                    
                }
                sbyslava -> wladyslaw2Son [dir = none, style = invis];
                                sbyslava -> boleslaw3ANDsbyslavaSon [dir = none, weight = 50];
                                    sbyslava -> unknowndaughterboleslaw3Son [dir = none, style = invis];
                                
            
            subgraph Generation2
            {
            rank = same;
            
            /*  Create nodes for this level */
            wladyslaw2 [shape = box, URL = "http://genealogy.obdurodon.org/findPerson.php?person=wladyslaw2", label = "Władysław II of Poland", color = "lavender", fillcolor = white, style = filled, target = _parent];
            unknowndaughterboleslaw3 [shape = box, URL = "http://genealogy.obdurodon.org/findPerson.php?person=unknown-daughter-boleslaw3", label = "N.N. Daughter of Bolesław III of Poland", color = "lavender", fillcolor = white, style = filled, target = _parent];
            agnes [shape = box, URL = "http://genealogy.obdurodon.org/findPerson.php?person=agnes", label = "Agnes of the German Empire", color = "green", fillcolor = white, style = filled, target = _parent];
            unknownsonkoloman [shape = box, URL = "http://genealogy.obdurodon.org/findPerson.php?person=unknown-son-koloman", label = "N.N. Son of Koloman of Hungary", color = "orangered", fillcolor = white, style = filled, target = _parent];
            

            /* Mark marriages between members of this generation */
            
                // Marriages concerning "wladyslaw2"
                wladyslaw2ANDagnes [shape = point, width = 0, height = 0];
                            wladyslaw2 -> wladyslaw2ANDagnes [dir = none, style = dashed];
                            wladyslaw2ANDagnes -> agnes [dir = none, style = dashed];
                        
                // Marriages concerning "unknown-son-koloman"
                unknownsonkoloman -> unknowndaughterboleslaw3 [dir = none, style = dashed]
                        

            /* EXPERIMENTATION */
                agnes -> unknownsonkoloman [style = invis];
                
            

            
            }       /* End of subgraph Generation2 */
            wladyslaw2Son -> wladyslaw2 [dir = none, weight = 50];
                        wladyslaw2Son -> agnes [dir = none, style = invis];
                        unknowndaughterboleslaw3Son -> unknowndaughterboleslaw3 [dir = none, weight = 50];
                        unknowndaughterboleslaw3Son -> unknownsonkoloman [dir = none, style = invis];
                        
                subgraph Generation2Sons
                {
                rank = same;
                
                }
                
            
            subgraph Generation1
            {
            rank = same;
            
            /*  Create nodes for this level */
            boleslaw5 [shape = box, URL = "http://genealogy.obdurodon.org/findPerson.php?person=boleslaw5", label = "Bolesław “the Tall” of Poland", color = "lavender", fillcolor = white, style = filled, target = _parent];
            zvenislava [shape = box, URL = "http://genealogy.obdurodon.org/findPerson.php?person=zvenislava", label = "Zvenislava Vsevolodovna", color = "red", fillcolor = white, style = filled, target = _parent];
            

            /* Mark marriages between members of this generation */
            
                // Marriages concerning "boleslaw5"
                boleslaw5 -> zvenislava [dir = none, style = dashed]
                        

            /* EXPERIMENTATION */
                
            

            
            }       /* End of subgraph Generation1 */
            wladyslaw2ANDagnes -> boleslaw5 [dir = none, weight = 50];
                        wladyslaw2ANDagnes -> zvenislava [dir = none, style = invis];
                        
        }
    