<?xml version="1.0" encoding="UTF-8" standalone="no"?>
<!DOCTYPE svg PUBLIC "-//W3C//DTD SVG 1.1//EN"
 "http://www.w3.org/Graphics/SVG/1.1/DTD/svg11.dtd">
<!-- Generated by graphviz version 2.26.0 (20091210.2329)
 -->
<!-- Title: familyTree Pages: 1 -->
<svg width="288pt" height="44pt"
 viewBox="0.00 0.00 288.00 44.00" xmlns="http://www.w3.org/2000/svg" xmlns:xlink="http://www.w3.org/1999/xlink">
<g id="graph1" class="graph" transform="scale(1 1) rotate(0) translate(4 40)">
<title>familyTree</title>
<!-- geza2 -->
<g id="node2" class="node"><title>geza2</title>
<a xlink:href="http://genealogy.obdurodon.org/findPerson.php?person=geza2" xlink:title="Geza II of Hungary" target="_parent">
<polygon fill="white" stroke="blue" points="122,-36 4.9738e-14,-36 0,-1.77636e-14 122,-3.55271e-15 122,-36"/>
<text text-anchor="middle" x="61" y="-14.9" font-family="Times Roman,serif" font-size="14.00">Geza II of Hungary</text>
</a>
</g>
<!-- evfrosiniia -->
<g id="node3" class="node"><title>evfrosiniia</title>
<a xlink:href="http://genealogy.obdurodon.org/findPerson.php?person=evfrosiniia" xlink:title="Evfrosiniia Mstislavna" target="_parent">
<polygon fill="white" stroke="deeppink" points="280,-36 140,-36 140,-1.77636e-14 280,-3.55271e-15 280,-36"/>
<text text-anchor="middle" x="210" y="-14.9" font-family="Times Roman,serif" font-size="14.00">Evfrosiniia Mstislavna</text>
</a>
</g>
<!-- geza2&#45;&gt;evfrosiniia -->
<g id="edge3" class="edge"><title>geza2&#45;&gt;evfrosiniia</title>
<path fill="none" stroke="black" stroke-dasharray="5,2" d="M122.113,-18C128.064,-18 134.015,-18 139.965,-18"/>
</g>
</g>
</svg>
