<?xml version="1.0" encoding="UTF-8" standalone="no"?>
<!DOCTYPE svg PUBLIC "-//W3C//DTD SVG 1.1//EN"
 "http://www.w3.org/Graphics/SVG/1.1/DTD/svg11.dtd">
<!-- Generated by graphviz version 2.26.0 (20091210.2329)
 -->
<!-- Title: familyTree Pages: 1 -->
<svg width="3984pt" height="188pt"
 viewBox="0.00 0.00 3984.00 187.63" xmlns="http://www.w3.org/2000/svg" xmlns:xlink="http://www.w3.org/1999/xlink">
<g id="graph1" class="graph" transform="scale(1 1) rotate(0) translate(4 183.625)">
<title>familyTree</title>
<!-- vladimir1 -->
<g id="node2" class="node"><title>vladimir1</title>
<a xlink:href="http://genealogy.obdurodon.org/findPerson.php?person=vladimir1" xlink:title="Vladimir &#160;Sviatoslavich &#160;" target="_parent">
<polygon fill="white" stroke="blue" points="1767,-146 1613,-146 1613,-110 1767,-110 1767,-146"/>
<text text-anchor="middle" x="1690" y="-124.9" font-family="Times Roman,serif" font-size="14.00">Vladimir &#160;Sviatoslavich &#160;</text>
</a>
</g>
<!-- anna1 -->
<g id="node7" class="node"><title>anna1</title>
<a xlink:href="http://genealogy.obdurodon.org/findPerson.php?person=anna1" xlink:title="Anna “Porphyrogenita” &#160;&#160;of Byzantium" target="_parent">
<polygon fill="white" stroke="deeppink" points="2619,-146 2389,-146 2389,-110 2619,-110 2619,-146"/>
<text text-anchor="middle" x="2504" y="-124.9" font-family="Times Roman,serif" font-size="14.00">Anna “Porphyrogenita” &#160;&#160;of Byzantium</text>
</a>
</g>
<!-- vladimir1&#45;&gt;anna1 -->
<g id="edge19" class="edge"><title>vladimir1&#45;&gt;anna1</title>
<path fill="none" stroke="black" stroke-dasharray="5,2" d="M1728.37,-146.171C1745.32,-153.237 1765.74,-160.474 1785,-164 1913.09,-187.456 2241.91,-181.162 2371,-164 2397.56,-160.469 2426.33,-153.137 2450.31,-146.006"/>
</g>
<!-- vladimir1ANDczech1 -->
<g id="node9" class="node"><title>vladimir1ANDczech1</title>
<ellipse fill="black" stroke="black" cx="2151" cy="-128" rx="0.0108" ry="0.0108"/>
</g>
<!-- vladimir1&#45;&gt;vladimir1ANDczech1 -->
<g id="edge3" class="edge"><title>vladimir1&#45;&gt;vladimir1ANDczech1</title>
<path fill="none" stroke="black" stroke-dasharray="5,2" d="M1728.37,-146.171C1745.32,-153.237 1765.74,-160.474 1785,-164 1823.03,-170.965 2100.11,-184.328 2133,-164 2147.74,-154.889 2150.81,-129.645 2150.99,-128.077"/>
</g>
<!-- vladimir1ANDrogneda -->
<g id="node12" class="node"><title>vladimir1ANDrogneda</title>
<ellipse fill="black" stroke="black" cx="2039" cy="-128" rx="0.0108" ry="0.0108"/>
</g>
<!-- vladimir1&#45;&gt;vladimir1ANDrogneda -->
<g id="edge7" class="edge"><title>vladimir1&#45;&gt;vladimir1ANDrogneda</title>
<path fill="none" stroke="black" stroke-dasharray="5,2" d="M1728.37,-146.171C1745.32,-153.237 1765.74,-160.474 1785,-164 1836.59,-173.447 1976.39,-191.572 2021,-164 2035.74,-154.889 2038.81,-129.645 2038.99,-128.077"/>
</g>
<!-- vladimir1ANDczech2 -->
<g id="node15" class="node"><title>vladimir1ANDczech2</title>
<ellipse fill="black" stroke="black" cx="1785" cy="-128" rx="0.0108" ry="0.0108"/>
</g>
<!-- vladimir1&#45;&gt;vladimir1ANDczech2 -->
<g id="edge11" class="edge"><title>vladimir1&#45;&gt;vladimir1ANDczech2</title>
<path fill="none" stroke="black" stroke-dasharray="5,2" d="M1767.19,-128C1773.03,-128 1778.88,-128 1784.72,-128"/>
</g>
<!-- czech1 -->
<g id="node3" class="node"><title>czech1</title>
<a xlink:href="http://genealogy.obdurodon.org/findPerson.php?person=czech1" xlink:title="First Czech woman &#160;&#160;&#160;of Bohemia" target="_parent">
<polygon fill="white" stroke="deeppink" points="2371,-146 2169,-146 2169,-110 2371,-110 2371,-146"/>
<text text-anchor="middle" x="2270" y="-124.9" font-family="Times Roman,serif" font-size="14.00">First Czech woman &#160;&#160;&#160;of Bohemia</text>
</a>
</g>
<!-- rogneda -->
<g id="node4" class="node"><title>rogneda</title>
<a xlink:href="http://genealogy.obdurodon.org/findPerson.php?person=rogneda" xlink:title="Rogned′ &#160;&#160;&#160;" target="_parent">
<polygon fill="white" stroke="deeppink" points="2133,-146 2057,-146 2057,-110 2133,-110 2133,-146"/>
<text text-anchor="middle" x="2095" y="-124.9" font-family="Times Roman,serif" font-size="14.00">Rogned′ &#160;&#160;&#160;</text>
</a>
</g>
<!-- czech2 -->
<g id="node5" class="node"><title>czech2</title>
<a xlink:href="http://genealogy.obdurodon.org/findPerson.php?person=czech2" xlink:title="Second Czech woman &#160;&#160;&#160;of Bohemia" target="_parent">
<polygon fill="white" stroke="deeppink" points="2021,-146 1803,-146 1803,-110 2021,-110 2021,-146"/>
<text text-anchor="middle" x="1912" y="-124.9" font-family="Times Roman,serif" font-size="14.00">Second Czech woman &#160;&#160;&#160;of Bohemia</text>
</a>
</g>
<!-- bulgar -->
<g id="node6" class="node"><title>bulgar</title>
<a xlink:href="http://genealogy.obdurodon.org/findPerson.php?person=bulgar" xlink:title="Bulgar woman &#160;&#160;&#160;" target="_parent">
<polygon fill="white" stroke="deeppink" points="710,-146 598,-146 598,-110 710,-110 710,-146"/>
<text text-anchor="middle" x="654" y="-124.9" font-family="Times Roman,serif" font-size="14.00">Bulgar woman &#160;&#160;&#160;</text>
</a>
</g>
<!-- vladimir1ANDbulgar -->
<g id="node18" class="node"><title>vladimir1ANDbulgar</title>
<ellipse fill="black" stroke="black" cx="728" cy="-128" rx="0.0108" ry="0.0108"/>
</g>
<!-- bulgar&#45;&gt;vladimir1ANDbulgar -->
<g id="edge15" class="edge"><title>bulgar&#45;&gt;vladimir1ANDbulgar</title>
<path fill="none" stroke="black" stroke-dasharray="5,2" d="M710.078,-128C715.959,-128 721.839,-128 727.72,-128"/>
</g>
<!-- unknownwifevladimir1 -->
<g id="node8" class="node"><title>unknownwifevladimir1</title>
<a xlink:href="http://genealogy.obdurodon.org/findPerson.php?person=unknown-wife-vladimir1" xlink:title="unknown &#160;&#160;&#160;" target="_parent">
<polygon fill="white" stroke="deeppink" points="2904,-146 2822,-146 2822,-110 2904,-110 2904,-146"/>
<text text-anchor="middle" x="2863" y="-124.9" font-family="Times Roman,serif" font-size="14.00">unknown &#160;&#160;&#160;</text>
</a>
</g>
<!-- vladimir1ANDunknownwifevladimir1 -->
<g id="node22" class="node"><title>vladimir1ANDunknownwifevladimir1</title>
<ellipse fill="black" stroke="black" cx="3149" cy="-128" rx="0.0108" ry="0.0108"/>
</g>
<!-- unknownwifevladimir1&#45;&gt;vladimir1ANDunknownwifevladimir1 -->
<g id="edge21" class="edge"><title>unknownwifevladimir1&#45;&gt;vladimir1ANDunknownwifevladimir1</title>
<path fill="none" stroke="black" stroke-dasharray="5,2" d="M2904.06,-128C2985.54,-128 3067.03,-128 3148.52,-128"/>
</g>
<!-- vladimir1ANDczech1&#45;&gt;czech1 -->
<g id="edge5" class="edge"><title>vladimir1ANDczech1&#45;&gt;czech1</title>
<path fill="none" stroke="black" stroke-dasharray="5,2" d="M2151.46,-128C2157.18,-128 2162.89,-128 2168.6,-128"/>
</g>
<!-- vysheslav1 -->
<g id="node63" class="node"><title>vysheslav1</title>
<a xlink:href="http://genealogy.obdurodon.org/findPerson.php?person=vysheslav1" xlink:title="Vysheslav &#160;Vladimirich &#160;" target="_parent">
<polygon fill="white" stroke="green" points="2480,-36 2326,-36 2326,-1.77636e-14 2480,-3.55271e-15 2480,-36"/>
<text text-anchor="middle" x="2403" y="-14.9" font-family="Times Roman,serif" font-size="14.00">Vysheslav &#160;Vladimirich &#160;</text>
</a>
</g>
<!-- vladimir1ANDczech1&#45;&gt;vysheslav1 -->
<g id="edge77" class="edge"><title>vladimir1ANDczech1&#45;&gt;vysheslav1</title>
<path fill="none" stroke="black" d="M2151.03,-127.864C2151.31,-126.523 2153.78,-115.62 2160,-110 2187.2,-85.4344 2277.78,-54.9863 2340.32,-36.0218"/>
</g>
<!-- vladimir1ANDrogneda&#45;&gt;rogneda -->
<g id="edge9" class="edge"><title>vladimir1ANDrogneda&#45;&gt;rogneda</title>
<path fill="none" stroke="black" stroke-dasharray="5,2" d="M2039.44,-128C2045.23,-128 2051.01,-128 2056.8,-128"/>
</g>
<!-- vladimir1ANDrognedaSon -->
<g id="node43" class="node"><title>vladimir1ANDrognedaSon</title>
<ellipse fill="black" stroke="black" cx="1694" cy="-73" rx="0.0108" ry="0.0108"/>
</g>
<!-- vladimir1ANDrogneda&#45;&gt;vladimir1ANDrognedaSon -->
<g id="edge54" class="edge"><title>vladimir1ANDrogneda&#45;&gt;vladimir1ANDrognedaSon</title>
<path fill="none" stroke="black" d="M2038.98,-127.854C2038.77,-126.419 2036.88,-114.793 2030,-110 1999.42,-88.7003 1698.75,-73.2431 1694.06,-73.0028"/>
</g>
<!-- vladimir1ANDczech2&#45;&gt;czech2 -->
<g id="edge13" class="edge"><title>vladimir1ANDczech2&#45;&gt;czech2</title>
<path fill="none" stroke="black" stroke-dasharray="5,2" d="M1785.5,-128C1791.26,-128 1797.03,-128 1802.79,-128"/>
</g>
<!-- vladimir1ANDczech2Son -->
<g id="node48" class="node"><title>vladimir1ANDczech2Son</title>
<ellipse fill="black" stroke="black" cx="1604" cy="-73" rx="0.0108" ry="0.0108"/>
</g>
<!-- vladimir1ANDczech2&#45;&gt;vladimir1ANDczech2Son -->
<g id="edge56" class="edge"><title>vladimir1ANDczech2&#45;&gt;vladimir1ANDczech2Son</title>
<path fill="none" stroke="black" d="M1784.98,-127.858C1784.74,-126.463 1782.63,-115.138 1776,-110 1760.79,-98.2092 1608.86,-73.7788 1604.11,-73.0182"/>
</g>
<!-- vladimir1ANDbulgar&#45;&gt;vladimir1 -->
<g id="edge17" class="edge"><title>vladimir1ANDbulgar&#45;&gt;vladimir1</title>
<path fill="none" stroke="black" stroke-dasharray="5,2" d="M728.47,-128C1023.16,-128 1317.85,-128 1612.53,-128"/>
</g>
<!-- vladimir1ANDbulgarSon -->
<g id="node51" class="node"><title>vladimir1ANDbulgarSon</title>
<ellipse fill="black" stroke="black" cx="728" cy="-73" rx="0.0108" ry="0.0108"/>
</g>
<!-- vladimir1ANDbulgar&#45;&gt;vladimir1ANDbulgarSon -->
<g id="edge58" class="edge"><title>vladimir1ANDbulgar&#45;&gt;vladimir1ANDbulgarSon</title>
<path fill="none" stroke="black" d="M728,-127.842C728,-124.717 728,-76.1788 728,-73.1482"/>
</g>
<!-- vladimir1ANDunknownwifevladimir1&#45;&gt;vladimir1 -->
<g id="edge23" class="edge"><title>vladimir1ANDunknownwifevladimir1&#45;&gt;vladimir1</title>
<path fill="none" stroke="black" stroke-dasharray="5,2" d="M3148.9,-128.02C3144.78,-128.869 3012.05,-156.104 2904,-164 2780,-173.062 1907.3,-186.396 1785,-164 1765.74,-160.474 1745.32,-153.237 1728.37,-146.171"/>
</g>
<!-- pozvizdSon -->
<g id="node38" class="node"><title>pozvizdSon</title>
<polygon fill="none" stroke="black" points="3263,-73.5 3263,-73.5 3263,-72.5 3263,-72.5 3263,-73.5"/>
</g>
<!-- vladimir1ANDunknownwifevladimir1&#45;&gt;pozvizdSon -->
<g id="edge60" class="edge"><title>vladimir1ANDunknownwifevladimir1&#45;&gt;pozvizdSon</title>
<path fill="none" stroke="black" d="M3149.08,-127.96C3152.37,-126.373 3252.88,-77.8829 3262.29,-73.3405"/>
</g>
<!-- unknowndaughtervladimir1Son -->
<g id="node26" class="node"><title>unknowndaughtervladimir1Son</title>
<polygon fill="none" stroke="black" points="746,-73.5 746,-73.5 746,-72.5 746,-72.5 746,-73.5"/>
</g>
<!-- iaroslav1Son -->
<g id="node27" class="node"><title>iaroslav1Son</title>
<polygon fill="none" stroke="black" points="764,-73.5 764,-73.5 764,-72.5 764,-72.5 764,-73.5"/>
</g>
<!-- unknowndaughtervladimir1Son&#45;&gt;iaroslav1Son -->
<g id="edge26" class="edge"><title>unknowndaughtervladimir1Son&#45;&gt;iaroslav1Son</title>
<path fill="none" stroke="black" d="M746.562,-73C752.193,-73 757.824,-73 763.455,-73"/>
</g>
<!-- unknowndaughtervladimir1 -->
<g id="node64" class="node"><title>unknowndaughtervladimir1</title>
<a xlink:href="http://genealogy.obdurodon.org/findPerson.php?person=unknown-daughter-vladimir1" xlink:title="N.N. &#160;Vladimirovna &#160;" target="_parent">
<polygon fill="white" stroke="deeppink" points="358,-36 224,-36 224,-1.77636e-14 358,-3.55271e-15 358,-36"/>
<text text-anchor="middle" x="291" y="-14.9" font-family="Times Roman,serif" font-size="14.00">N.N. &#160;Vladimirovna &#160;</text>
</a>
</g>
<!-- unknowndaughtervladimir1Son&#45;&gt;unknowndaughtervladimir1 -->
<g id="edge79" class="edge"><title>unknowndaughtervladimir1Son&#45;&gt;unknowndaughtervladimir1</title>
<path fill="none" stroke="black" d="M745.157,-72.9024C743.564,-72.7189 740.002,-72.3128 737,-72 572.669,-54.8768 529.983,-63.1012 367,-36 364.057,-35.5107 361.059,-34.9725 358.037,-34.3976"/>
</g>
<!-- iziaslav1Son -->
<g id="node28" class="node"><title>iziaslav1Son</title>
<polygon fill="none" stroke="black" points="1233,-73.5 1233,-73.5 1233,-72.5 1233,-72.5 1233,-73.5"/>
</g>
<!-- iaroslav1Son&#45;&gt;iziaslav1Son -->
<g id="edge28" class="edge"><title>iaroslav1Son&#45;&gt;iziaslav1Son</title>
<path fill="none" stroke="black" d="M764.916,-73C920.639,-73 1076.36,-73 1232.09,-73"/>
</g>
<!-- iaroslav1 -->
<g id="node65" class="node"><title>iaroslav1</title>
<a xlink:href="http://genealogy.obdurodon.org/findPerson.php?person=iaroslav1" xlink:title="Iaroslav “Mudryi” Vladimirich Georgii " target="_parent">
<polygon fill="white" stroke="blue" points="712,-36 476,-36 476,-1.77636e-14 712,-3.55271e-15 712,-36"/>
<text text-anchor="middle" x="594" y="-14.9" font-family="Times Roman,serif" font-size="14.00">Iaroslav “Mudryi” Vladimirich Georgii </text>
</a>
</g>
<!-- iaroslav1Son&#45;&gt;iaroslav1 -->
<g id="edge81" class="edge"><title>iaroslav1Son&#45;&gt;iaroslav1</title>
<path fill="none" stroke="black" d="M763.242,-72.7548C755.865,-70.3679 696.118,-51.0382 649.679,-36.0138"/>
</g>
<!-- iziaslav1Son&#45;&gt;vladimir1ANDrognedaSon -->
<g id="edge30" class="edge"><title>iziaslav1Son&#45;&gt;vladimir1ANDrognedaSon</title>
<path fill="none" stroke="black" d="M1233.6,-73.0425C1245.83,-73.9132 1444.11,-87.9084 1604,-92 1635.99,-92.8186 1646.6,-104.644 1676,-92 1686.02,-87.691 1693.07,-74.7622 1693.92,-73.1629"/>
</g>
<!-- iziaslav1 -->
<g id="node66" class="node"><title>iziaslav1</title>
<a xlink:href="http://genealogy.obdurodon.org/findPerson.php?person=iziaslav1" xlink:title="Iziaslav &#160;Vladimirich &#160;" target="_parent">
<polygon fill="white" stroke="blue" points="1022,-36 882,-36 882,-1.77636e-14 1022,-3.55271e-15 1022,-36"/>
<text text-anchor="middle" x="952" y="-14.9" font-family="Times Roman,serif" font-size="14.00">Iziaslav &#160;Vladimirich &#160;</text>
</a>
</g>
<!-- iziaslav1Son&#45;&gt;iziaslav1 -->
<g id="edge83" class="edge"><title>iziaslav1Son&#45;&gt;iziaslav1</title>
<path fill="none" stroke="black" d="M1232.27,-72.8791C1222.5,-71.2535 1116.21,-53.5038 1031,-36 1028.11,-35.4056 1025.16,-34.7876 1022.18,-34.1539"/>
</g>
<!-- predslavaSon -->
<g id="node29" class="node"><title>predslavaSon</title>
<polygon fill="none" stroke="black" points="1622,-73.5 1622,-73.5 1622,-72.5 1622,-72.5 1622,-73.5"/>
</g>
<!-- vsevolod1Son -->
<g id="node30" class="node"><title>vsevolod1Son</title>
<polygon fill="none" stroke="black" points="1640,-73.5 1640,-73.5 1640,-72.5 1640,-72.5 1640,-73.5"/>
</g>
<!-- predslavaSon&#45;&gt;vsevolod1Son -->
<g id="edge34" class="edge"><title>predslavaSon&#45;&gt;vsevolod1Son</title>
<path fill="none" stroke="black" d="M1622.56,-73C1628.19,-73 1633.82,-73 1639.46,-73"/>
</g>
<!-- predslavaSon&#45;&gt;vladimir1ANDrognedaSon -->
<g id="edge32" class="edge"><title>predslavaSon&#45;&gt;vladimir1ANDrognedaSon</title>
<path fill="none" stroke="black" d="M1622.34,-73.6279C1623.88,-76.4477 1630.65,-87.9783 1640,-92 1654.7,-98.3221 1661.3,-98.3221 1676,-92 1686.02,-87.691 1693.07,-74.7622 1693.92,-73.1629"/>
</g>
<!-- predslava -->
<g id="node67" class="node"><title>predslava</title>
<a xlink:href="http://genealogy.obdurodon.org/findPerson.php?person=predslava" xlink:title="Predslava &#160;Vladimirovna &#160;" target="_parent">
<polygon fill="white" stroke="green" points="1300,-36 1140,-36 1140,-1.77636e-14 1300,-3.55271e-15 1300,-36"/>
<text text-anchor="middle" x="1220" y="-14.9" font-family="Times Roman,serif" font-size="14.00">Predslava &#160;Vladimirovna &#160;</text>
</a>
</g>
<!-- predslavaSon&#45;&gt;predslava -->
<g id="edge85" class="edge"><title>predslavaSon&#45;&gt;predslava</title>
<path fill="none" stroke="black" d="M1621.2,-72.9096C1604.84,-71.0585 1342.5,-41.3584 1309,-36 1306.2,-35.5518 1303.35,-35.0777 1300.48,-34.5834"/>
</g>
<!-- mstislav1Son -->
<g id="node31" class="node"><title>mstislav1Son</title>
<polygon fill="none" stroke="black" points="1658,-73.5 1658,-73.5 1658,-72.5 1658,-72.5 1658,-73.5"/>
</g>
<!-- vsevolod1Son&#45;&gt;mstislav1Son -->
<g id="edge36" class="edge"><title>vsevolod1Son&#45;&gt;mstislav1Son</title>
<path fill="none" stroke="black" d="M1640.56,-73C1646.19,-73 1651.82,-73 1657.46,-73"/>
</g>
<!-- vsevolod1 -->
<g id="node68" class="node"><title>vsevolod1</title>
<a xlink:href="http://genealogy.obdurodon.org/findPerson.php?person=vsevolod1" xlink:title="Vsevolod &#160;Vladimirich &#160;" target="_parent">
<polygon fill="white" stroke="green" points="1466,-36 1318,-36 1318,-1.77636e-14 1466,-3.55271e-15 1466,-36"/>
<text text-anchor="middle" x="1392" y="-14.9" font-family="Times Roman,serif" font-size="14.00">Vsevolod &#160;Vladimirich &#160;</text>
</a>
</g>
<!-- vsevolod1Son&#45;&gt;vsevolod1 -->
<g id="edge87" class="edge"><title>vsevolod1Son&#45;&gt;vsevolod1</title>
<path fill="none" stroke="black" d="M1639.29,-72.8422C1630.18,-70.8228 1535.58,-49.8419 1466.08,-34.4296"/>
</g>
<!-- mstislav1 -->
<g id="node69" class="node"><title>mstislav1</title>
<a xlink:href="http://genealogy.obdurodon.org/findPerson.php?person=mstislav1" xlink:title="Mstislav “Khrabryi” Vladimirich &#160;" target="_parent">
<polygon fill="white" stroke="blue" points="1690,-36 1484,-36 1484,-1.77636e-14 1690,-3.55271e-15 1690,-36"/>
<text text-anchor="middle" x="1587" y="-14.9" font-family="Times Roman,serif" font-size="14.00">Mstislav “Khrabryi” Vladimirich &#160;</text>
</a>
</g>
<!-- mstislav1Son&#45;&gt;mstislav1 -->
<g id="edge89" class="edge"><title>mstislav1Son&#45;&gt;mstislav1</title>
<path fill="none" stroke="black" d="M1657.2,-72.3823C1652.6,-68.8182 1629,-50.5382 1610.42,-36.1424"/>
</g>
<!-- sviatoslav2Son -->
<g id="node32" class="node"><title>sviatoslav2Son</title>
<polygon fill="none" stroke="black" points="1676,-73.5 1676,-73.5 1676,-72.5 1676,-72.5 1676,-73.5"/>
</g>
<!-- sviatoslav2Son&#45;&gt;vladimir1ANDczech2Son -->
<g id="edge38" class="edge"><title>sviatoslav2Son&#45;&gt;vladimir1ANDczech2Son</title>
<path fill="none" stroke="black" d="M1675.66,-73.6279C1674.12,-76.4477 1667.35,-87.9783 1658,-92 1643.3,-98.3221 1636.7,-98.3221 1622,-92 1611.98,-87.691 1604.93,-74.7622 1604.08,-73.1629"/>
</g>
<!-- sviatoslav2 -->
<g id="node70" class="node"><title>sviatoslav2</title>
<a xlink:href="http://genealogy.obdurodon.org/findPerson.php?person=sviatoslav2" xlink:title="Sviatoslav &#160;Vladimirich &#160;" target="_parent">
<polygon fill="white" stroke="green" points="1962,-36 1808,-36 1808,-1.77636e-14 1962,-3.55271e-15 1962,-36"/>
<text text-anchor="middle" x="1885" y="-14.9" font-family="Times Roman,serif" font-size="14.00">Sviatoslav &#160;Vladimirich &#160;</text>
</a>
</g>
<!-- sviatoslav2Son&#45;&gt;sviatoslav2 -->
<g id="edge91" class="edge"><title>sviatoslav2Son&#45;&gt;sviatoslav2</title>
<path fill="none" stroke="black" d="M1676.6,-72.8422C1684.01,-70.8921 1758.61,-51.2597 1816.47,-36.0352"/>
</g>
<!-- mstislavSon -->
<g id="node33" class="node"><title>mstislavSon</title>
<polygon fill="none" stroke="black" points="1853,-73.5 1853,-73.5 1853,-72.5 1853,-72.5 1853,-73.5"/>
</g>
<!-- mstislavSon&#45;&gt;vladimir1ANDczech2Son -->
<g id="edge40" class="edge"><title>mstislavSon&#45;&gt;vladimir1ANDczech2Son</title>
<path fill="none" stroke="black" d="M1852.12,-73.3771C1840.31,-78.3766 1712.19,-130.796 1622,-92 1611.98,-87.691 1604.93,-74.7622 1604.08,-73.1629"/>
</g>
<!-- mstislav -->
<g id="node71" class="node"><title>mstislav</title>
<a xlink:href="http://genealogy.obdurodon.org/findPerson.php?person=mstislav" xlink:title="Mstislav &#160;Vladimirich &#160;" target="_parent">
<polygon fill="white" stroke="green" points="2124,-36 1980,-36 1980,-1.77636e-14 2124,-3.55271e-15 2124,-36"/>
<text text-anchor="middle" x="2052" y="-14.9" font-family="Times Roman,serif" font-size="14.00">Mstislav &#160;Vladimirich &#160;</text>
</a>
</g>
<!-- mstislavSon&#45;&gt;mstislav -->
<g id="edge93" class="edge"><title>mstislavSon&#45;&gt;mstislav</title>
<path fill="none" stroke="black" d="M1853.57,-72.8422C1860.63,-70.8921 1931.66,-51.2597 1986.75,-36.0352"/>
</g>
<!-- boris1Son -->
<g id="node34" class="node"><title>boris1Son</title>
<polygon fill="none" stroke="black" points="2154,-73.5 2154,-73.5 2154,-72.5 2154,-72.5 2154,-73.5"/>
</g>
<!-- boris1Son&#45;&gt;vladimir1ANDbulgarSon -->
<g id="edge42" class="edge"><title>boris1Son&#45;&gt;vladimir1ANDbulgarSon</title>
<path fill="none" stroke="black" d="M2153.25,-73.0661C2141,-74.1382 1981.74,-87.9407 1853,-92 1791.53,-93.9381 802.495,-116.3 746,-92 735.982,-87.691 728.927,-74.7622 728.085,-73.1629"/>
</g>
<!-- boris1 -->
<g id="node72" class="node"><title>boris1</title>
<a xlink:href="http://genealogy.obdurodon.org/findPerson.php?person=boris1" xlink:title="Boris &#160;Vladimirich Roman " target="_parent">
<polygon fill="white" stroke="green" points="2308,-36 2142,-36 2142,-1.77636e-14 2308,-3.55271e-15 2308,-36"/>
<text text-anchor="middle" x="2225" y="-14.9" font-family="Times Roman,serif" font-size="14.00">Boris &#160;Vladimirich Roman </text>
</a>
</g>
<!-- boris1Son&#45;&gt;boris1 -->
<g id="edge95" class="edge"><title>boris1Son&#45;&gt;boris1</title>
<path fill="none" stroke="black" d="M2154.8,-72.3823C2159.4,-68.8182 2183,-50.5382 2201.58,-36.1424"/>
</g>
<!-- glebSon -->
<g id="node35" class="node"><title>glebSon</title>
<polygon fill="none" stroke="black" points="2504,-73.5 2504,-73.5 2504,-72.5 2504,-72.5 2504,-73.5"/>
</g>
<!-- glebSon&#45;&gt;vladimir1ANDbulgarSon -->
<g id="edge44" class="edge"><title>glebSon&#45;&gt;vladimir1ANDbulgarSon</title>
<path fill="none" stroke="black" d="M2503.44,-73.0425C2491.9,-73.9132 2304.86,-87.9082 2154,-92 2075.81,-94.1208 817.857,-122.908 746,-92 735.982,-87.691 728.927,-74.7622 728.085,-73.1629"/>
</g>
<!-- gleb -->
<g id="node73" class="node"><title>gleb</title>
<a xlink:href="http://genealogy.obdurodon.org/findPerson.php?person=gleb" xlink:title="Gleb &#160;Vladimirich Davyd " target="_parent">
<polygon fill="white" stroke="green" points="2658,-36 2498,-36 2498,-1.77636e-14 2658,-3.55271e-15 2658,-36"/>
<text text-anchor="middle" x="2578" y="-14.9" font-family="Times Roman,serif" font-size="14.00">Gleb &#160;Vladimirich Davyd </text>
</a>
</g>
<!-- glebSon&#45;&gt;gleb -->
<g id="edge97" class="edge"><title>glebSon&#45;&gt;gleb</title>
<path fill="none" stroke="black" d="M2504.83,-72.3823C2509.63,-68.8182 2534.22,-50.5382 2553.59,-36.1424"/>
</g>
<!-- dobronegamariaSon -->
<g id="node36" class="node"><title>dobronegamariaSon</title>
<polygon fill="none" stroke="black" points="3002,-73.5 3002,-73.5 3002,-72.5 3002,-72.5 3002,-73.5"/>
</g>
<!-- dobronegamariaSon&#45;&gt;pozvizdSon -->
<g id="edge46" class="edge"><title>dobronegamariaSon&#45;&gt;pozvizdSon</title>
<path fill="none" stroke="black" d="M3002.51,-73C3089.17,-73 3175.83,-73 3262.49,-73"/>
</g>
<!-- dobronegamaria -->
<g id="node74" class="node"><title>dobronegamaria</title>
<a xlink:href="http://genealogy.obdurodon.org/findPerson.php?person=dobronega-maria" xlink:title="Dobronega&#45;Maria &#160;Vladimirovna &#160;" target="_parent">
<polygon fill="white" stroke="deeppink" points="3104,-36 2900,-36 2900,-1.77636e-14 3104,-3.55271e-15 3104,-36"/>
<text text-anchor="middle" x="3002" y="-14.9" font-family="Times Roman,serif" font-size="14.00">Dobronega&#45;Maria &#160;Vladimirovna &#160;</text>
</a>
</g>
<!-- dobronegamariaSon&#45;&gt;dobronegamaria -->
<g id="edge99" class="edge"><title>dobronegamariaSon&#45;&gt;dobronegamaria</title>
<path fill="none" stroke="black" d="M3002,-72.3823C3002,-68.8182 3002,-50.5382 3002,-36.1424"/>
</g>
<!-- stanislav1Son -->
<g id="node37" class="node"><title>stanislav1Son</title>
<polygon fill="none" stroke="black" points="3353,-73.5 3353,-73.5 3353,-72.5 3353,-72.5 3353,-73.5"/>
</g>
<!-- stanislav1Son&#45;&gt;pozvizdSon -->
<g id="edge48" class="edge"><title>stanislav1Son&#45;&gt;pozvizdSon</title>
<path fill="none" stroke="black" d="M3352.3,-73C3322.77,-73 3293.24,-73 3263.7,-73"/>
</g>
<!-- stanislav1 -->
<g id="node75" class="node"><title>stanislav1</title>
<a xlink:href="http://genealogy.obdurodon.org/findPerson.php?person=stanislav1" xlink:title="Stanislav &#160;Vladimirich &#160;" target="_parent">
<polygon fill="white" stroke="green" points="3426,-36 3280,-36 3280,-1.77636e-14 3426,-3.55271e-15 3426,-36"/>
<text text-anchor="middle" x="3353" y="-14.9" font-family="Times Roman,serif" font-size="14.00">Stanislav &#160;Vladimirich &#160;</text>
</a>
</g>
<!-- stanislav1Son&#45;&gt;stanislav1 -->
<g id="edge101" class="edge"><title>stanislav1Son&#45;&gt;stanislav1</title>
<path fill="none" stroke="black" d="M3353,-72.3823C3353,-68.8182 3353,-50.5382 3353,-36.1424"/>
</g>
<!-- pozvizd -->
<g id="node76" class="node"><title>pozvizd</title>
<a xlink:href="http://genealogy.obdurodon.org/findPerson.php?person=pozvizd" xlink:title="Pozvizd &#160;Vladimirich &#160;" target="_parent">
<polygon fill="white" stroke="green" points="3262,-36 3122,-36 3122,-1.77636e-14 3262,-3.55271e-15 3262,-36"/>
<text text-anchor="middle" x="3192" y="-14.9" font-family="Times Roman,serif" font-size="14.00">Pozvizd &#160;Vladimirich &#160;</text>
</a>
</g>
<!-- pozvizdSon&#45;&gt;pozvizd -->
<g id="edge103" class="edge"><title>pozvizdSon&#45;&gt;pozvizd</title>
<path fill="none" stroke="black" d="M3262.2,-72.3823C3257.6,-68.8182 3234,-50.5382 3215.42,-36.1424"/>
</g>
<!-- sudislavSon -->
<g id="node39" class="node"><title>sudislavSon</title>
<polygon fill="none" stroke="black" points="3443,-73.5 3443,-73.5 3443,-72.5 3443,-72.5 3443,-73.5"/>
</g>
<!-- sudislavSon&#45;&gt;pozvizdSon -->
<g id="edge50" class="edge"><title>sudislavSon&#45;&gt;pozvizdSon</title>
<path fill="none" stroke="black" d="M3442.44,-73.2134C3436.89,-75.3008 3391.33,-92 3353,-92 3314.67,-92 3269.11,-75.3008 3263.56,-73.2134"/>
</g>
<!-- sudislav -->
<g id="node77" class="node"><title>sudislav</title>
<a xlink:href="http://genealogy.obdurodon.org/findPerson.php?person=sudislav" xlink:title="Sudislav &#160;Vladimirich &#160;" target="_parent">
<polygon fill="white" stroke="green" points="3588,-36 3444,-36 3444,-1.77636e-14 3588,-3.55271e-15 3588,-36"/>
<text text-anchor="middle" x="3516" y="-14.9" font-family="Times Roman,serif" font-size="14.00">Sudislav &#160;Vladimirich &#160;</text>
</a>
</g>
<!-- sudislavSon&#45;&gt;sudislav -->
<g id="edge105" class="edge"><title>sudislavSon&#45;&gt;sudislav</title>
<path fill="none" stroke="black" d="M3443.82,-72.3823C3448.55,-68.8182 3472.81,-50.5382 3491.92,-36.1424"/>
</g>
<!-- premislavaSon -->
<g id="node40" class="node"><title>premislavaSon</title>
<polygon fill="none" stroke="black" points="3703,-73.5 3703,-73.5 3703,-72.5 3703,-72.5 3703,-73.5"/>
</g>
<!-- premislavaSon&#45;&gt;pozvizdSon -->
<g id="edge52" class="edge"><title>premislavaSon&#45;&gt;pozvizdSon</title>
<path fill="none" stroke="black" d="M3702.44,-73.1004C3690.85,-75.1484 3503.1,-107.671 3353,-92 3314.88,-88.0202 3269.13,-74.8033 3263.56,-73.1667"/>
</g>
<!-- premislava -->
<g id="node78" class="node"><title>premislava</title>
<a xlink:href="http://genealogy.obdurodon.org/findPerson.php?person=premislava" xlink:title="N.N. “Premislava” Vladimirovna &#160;" target="_parent">
<polygon fill="white" stroke="deeppink" points="3976,-36 3770,-36 3770,-1.77636e-14 3976,-3.55271e-15 3976,-36"/>
<text text-anchor="middle" x="3873" y="-14.9" font-family="Times Roman,serif" font-size="14.00">N.N. “Premislava” Vladimirovna &#160;</text>
</a>
</g>
<!-- premislavaSon&#45;&gt;premislava -->
<g id="edge107" class="edge"><title>premislavaSon&#45;&gt;premislava</title>
<path fill="none" stroke="black" d="M3703.76,-72.7548C3711.14,-70.3679 3770.88,-51.0382 3817.32,-36.0138"/>
</g>
<!-- ingigerd -->
<g id="node81" class="node"><title>ingigerd</title>
<a xlink:href="http://genealogy.obdurodon.org/findPerson.php?person=ingigerd" xlink:title="Ingigerd &#160;&#160;&#160;of Sweden" target="_parent">
<polygon fill="white" stroke="deeppink" points="864,-36 730,-36 730,-1.77636e-14 864,-3.55271e-15 864,-36"/>
<text text-anchor="middle" x="797" y="-14.9" font-family="Times Roman,serif" font-size="14.00">Ingigerd &#160;&#160;&#160;of Sweden</text>
</a>
</g>
<!-- iaroslav1&#45;&gt;ingigerd -->
<g id="edge65" class="edge"><title>iaroslav1&#45;&gt;ingigerd</title>
<path fill="none" stroke="black" stroke-dasharray="5,2" d="M712.152,-18C718.008,-18 723.863,-18 729.718,-18"/>
</g>
<!-- unknownwifeiziaslav1 -->
<g id="node82" class="node"><title>unknownwifeiziaslav1</title>
<a xlink:href="http://genealogy.obdurodon.org/findPerson.php?person=unknown-wife-iziaslav1" xlink:title="unknown &#160;&#160;&#160;" target="_parent">
<polygon fill="white" stroke="deeppink" points="1122,-36 1040,-36 1040,-1.77636e-14 1122,-3.55271e-15 1122,-36"/>
<text text-anchor="middle" x="1081" y="-14.9" font-family="Times Roman,serif" font-size="14.00">unknown &#160;&#160;&#160;</text>
</a>
</g>
<!-- iziaslav1&#45;&gt;unknownwifeiziaslav1 -->
<g id="edge67" class="edge"><title>iziaslav1&#45;&gt;unknownwifeiziaslav1</title>
<path fill="none" stroke="black" stroke-dasharray="5,2" d="M1022.04,-18C1027.88,-18 1033.71,-18 1039.55,-18"/>
</g>
<!-- unknownwifemstislav1 -->
<g id="node83" class="node"><title>unknownwifemstislav1</title>
<a xlink:href="http://genealogy.obdurodon.org/findPerson.php?person=unknown-wife-mstislav1" xlink:title="unknown &#160;&#160;&#160;" target="_parent">
<polygon fill="white" stroke="deeppink" points="1790,-36 1708,-36 1708,-1.77636e-14 1790,-3.55271e-15 1790,-36"/>
<text text-anchor="middle" x="1749" y="-14.9" font-family="Times Roman,serif" font-size="14.00">unknown &#160;&#160;&#160;</text>
</a>
</g>
<!-- mstislav1&#45;&gt;unknownwifemstislav1 -->
<g id="edge69" class="edge"><title>mstislav1&#45;&gt;unknownwifemstislav1</title>
<path fill="none" stroke="black" stroke-dasharray="5,2" d="M1690.15,-18C1695.97,-18 1701.8,-18 1707.62,-18"/>
</g>
<!-- bernhard -->
<g id="node79" class="node"><title>bernhard</title>
<a xlink:href="http://genealogy.obdurodon.org/findPerson.php?person=bernhard" xlink:title="Bernhard &#160;&#160;&#160;of the German Empire" target="_parent">
<polygon fill="white" stroke="blue" points="206,-36 8.52651e-14,-36 0,-1.77636e-14 206,-3.55271e-15 206,-36"/>
<text text-anchor="middle" x="103" y="-14.9" font-family="Times Roman,serif" font-size="14.00">Bernhard &#160;&#160;&#160;of the German Empire</text>
</a>
</g>
<!-- bernhard&#45;&gt;unknowndaughtervladimir1 -->
<g id="edge71" class="edge"><title>bernhard&#45;&gt;unknowndaughtervladimir1</title>
<path fill="none" stroke="black" stroke-dasharray="5,2" d="M206.18,-18C212.033,-18 217.887,-18 223.74,-18"/>
</g>
<!-- unknownwifeiaroslav1 -->
<g id="node80" class="node"><title>unknownwifeiaroslav1</title>
<a xlink:href="http://genealogy.obdurodon.org/findPerson.php?person=unknown-wife-iaroslav1" xlink:title="unknown &#160;&#160;&#160;" target="_parent">
<polygon fill="white" stroke="deeppink" points="458,-36 376,-36 376,-1.77636e-14 458,-3.55271e-15 458,-36"/>
<text text-anchor="middle" x="417" y="-14.9" font-family="Times Roman,serif" font-size="14.00">unknown &#160;&#160;&#160;</text>
</a>
</g>
<!-- unknownwifeiaroslav1&#45;&gt;iaroslav1 -->
<g id="edge63" class="edge"><title>unknownwifeiaroslav1&#45;&gt;iaroslav1</title>
<path fill="none" stroke="black" stroke-dasharray="5,2" d="M458.139,-18C464.065,-18 469.991,-18 475.917,-18"/>
</g>
<!-- casimir1 -->
<g id="node84" class="node"><title>casimir1</title>
<a xlink:href="http://genealogy.obdurodon.org/findPerson.php?person=casimir1" xlink:title="Casimir “the Restorer” &#160;&#160;of Poland" target="_parent">
<polygon fill="white" stroke="blue" points="2882,-36 2676,-36 2676,-1.77636e-14 2882,-3.55271e-15 2882,-36"/>
<text text-anchor="middle" x="2779" y="-14.9" font-family="Times Roman,serif" font-size="14.00">Casimir “the Restorer” &#160;&#160;of Poland</text>
</a>
</g>
<!-- casimir1&#45;&gt;dobronegamaria -->
<g id="edge73" class="edge"><title>casimir1&#45;&gt;dobronegamaria</title>
<path fill="none" stroke="black" stroke-dasharray="5,2" d="M2882.22,-18C2888,-18 2893.77,-18 2899.54,-18"/>
</g>
<!-- ladislaus -->
<g id="node85" class="node"><title>ladislaus</title>
<a xlink:href="http://genealogy.obdurodon.org/findPerson.php?person=ladislaus" xlink:title="Ladislaus &#160;&#160;&#160;of Hungary" target="_parent">
<polygon fill="white" stroke="blue" points="3752,-36 3606,-36 3606,-1.77636e-14 3752,-3.55271e-15 3752,-36"/>
<text text-anchor="middle" x="3679" y="-14.9" font-family="Times Roman,serif" font-size="14.00">Ladislaus &#160;&#160;&#160;of Hungary</text>
</a>
</g>
<!-- ladislaus&#45;&gt;premislava -->
<g id="edge75" class="edge"><title>ladislaus&#45;&gt;premislava</title>
<path fill="none" stroke="black" stroke-dasharray="5,2" d="M3752.13,-18C3757.95,-18 3763.78,-18 3769.6,-18"/>
</g>
</g>
</svg>
