
        digraph familyTree
        {
            bgcolor="transparent";
            center = true;
            
                subgraph Generation4
                {
                    rank = same;
                    igor1 [shape = box, URL = "http://genealogy.obdurodon.org/findPerson.php?person=igor1", label = "Igor′", color = "blue", fillcolor = white, style = filled, target = _parent];
                    olga1 [shape = box, URL = "http://genealogy.obdurodon.org/findPerson.php?person=olga1", label = "Ol′ga", color = "deeppink", fillcolor = white, style = filled, target = _parent];
                    igor1ANDolga1 [shape = point, width = 0, height = 0];
                                    igor1ANDolga1 -> igor1 [dir = none, style=dashed];
                                            igor1ANDolga1 -> olga1 [dir = none, style=dashed];
                                        
                }
                
                    subgraph Generation4Sons
                    {
                        rank = same;
                        
                    }
                    
                subgraph Generation3
                {
                    rank = same;
                    sviatoslav1 [shape = box, URL = "http://genealogy.obdurodon.org/findPerson.php?person=sviatoslav1", label = "Sviatoslav Igorich", color = "blue", fillcolor = white, style = filled, target = _parent];
                    unknownwifesviatoslav1 [shape = box, URL = "http://genealogy.obdurodon.org/findPerson.php?person=unknown-wife-sviatoslav1", label = "unknown", color = "deeppink", fillcolor = white, style = filled, target = _parent];
                    malusha [shape = box, URL = "http://genealogy.obdurodon.org/findPerson.php?person=malusha", label = "Malusha Malkovna", color = "deeppink", fillcolor = white, style = filled, target = _parent];
                    sviatoslav1ANDunknownwifesviatoslav1 [shape = point, width = 0, height = 0];
                                    sviatoslav1ANDunknownwifesviatoslav1 -> sviatoslav1 [dir = none, style=dashed];
                                            sviatoslav1ANDunknownwifesviatoslav1 -> unknownwifesviatoslav1 [dir = none, style=dashed];
                                        sviatoslav1ANDmalusha [shape = point, width = 0, height = 0];
                                    malusha -> sviatoslav1ANDmalusha [dir = none, style=dashed];
                                            sviatoslav1ANDmalusha ->  sviatoslav1 [dir = none, style=dashed];
                                        
                }
                igor1ANDolga1 -> sviatoslav1 [dir = none];
                        
                    subgraph Generation3Sons
                    {
                        rank = same;
                        iaropolk1Son [shape = rect, width = 0, height = 0, fixedsize = true, label = ""];
                            oleg1Son [shape = rect, width = 0, height = 0, fixedsize = true, label = ""];
                            sviatoslav1ANDunknownwifesviatoslav1Son [shape = point, width = 0, height = 0];
                                                iaropolk1Son -> sviatoslav1ANDunknownwifesviatoslav1Son [dir = none];
                                                oleg1Son -> sviatoslav1ANDunknownwifesviatoslav1Son [dir = none];
                                            
                    }
                    sviatoslav1ANDunknownwifesviatoslav1 ->
                            sviatoslav1ANDunknownwifesviatoslav1Son [dir = none];
                                
                subgraph Generation2
                {
                    rank = same;
                    iaropolk1 [shape = box, URL = "http://genealogy.obdurodon.org/findPerson.php?person=iaropolk1", label = "Iaropolk Sviatoslavich", color = "blue", fillcolor = white, style = filled, target = _parent];
                    oleg1 [shape = box, URL = "http://genealogy.obdurodon.org/findPerson.php?person=oleg1", label = "Oleg Sviatoslavich", color = "green", fillcolor = white, style = filled, target = _parent];
                    vladimir1 [shape = box, URL = "http://genealogy.obdurodon.org/findPerson.php?person=vladimir1", label = "Vladimir Sviatoslavich", color = "blue", fillcolor = white, style = filled, target = _parent];
                    greeknun [shape = box, URL = "http://genealogy.obdurodon.org/findPerson.php?person=greeknun", label = "Greek nun of Byzantium", color = "deeppink", fillcolor = white, style = filled, target = _parent];
                    czech1 [shape = box, URL = "http://genealogy.obdurodon.org/findPerson.php?person=czech1", label = "First Czech woman of Bohemia", color = "deeppink", fillcolor = white, style = filled, target = _parent];
                    rogneda [shape = box, URL = "http://genealogy.obdurodon.org/findPerson.php?person=rogneda", label = "Rogned′", color = "deeppink", fillcolor = white, style = filled, target = _parent];
                    czech2 [shape = box, URL = "http://genealogy.obdurodon.org/findPerson.php?person=czech2", label = "Second Czech woman of Bohemia", color = "deeppink", fillcolor = white, style = filled, target = _parent];
                    bulgar [shape = box, URL = "http://genealogy.obdurodon.org/findPerson.php?person=bulgar", label = "Bulgar woman", color = "deeppink", fillcolor = white, style = filled, target = _parent];
                    anna1 [shape = box, URL = "http://genealogy.obdurodon.org/findPerson.php?person=anna1", label = "Anna “Porphyrogenita” of Byzantium", color = "deeppink", fillcolor = white, style = filled, target = _parent];
                    unknownwifevladimir1 [shape = box, URL = "http://genealogy.obdurodon.org/findPerson.php?person=unknown-wife-vladimir1", label = "unknown", color = "deeppink", fillcolor = white, style = filled, target = _parent];
                    iaropolk1ANDgreeknun [shape = point, width = 0, height = 0];
                                    iaropolk1ANDgreeknun -> iaropolk1 [dir = none, style=dashed];
                                            iaropolk1ANDgreeknun -> greeknun [dir = none, style=dashed];
                                        vladimir1ANDczech1 [shape = point, width = 0, height = 0];
                                    vladimir1ANDczech1 -> vladimir1 [dir = none, style=dashed];
                                            vladimir1ANDczech1 -> czech1 [dir = none, style=dashed];
                                        vladimir1ANDrogneda [shape = point, width = 0, height = 0];
                                    vladimir1ANDrogneda -> vladimir1 [dir = none, style=dashed];
                                            vladimir1ANDrogneda -> rogneda [dir = none, style=dashed];
                                        vladimir1ANDczech2 [shape = point, width = 0, height = 0];
                                    vladimir1ANDczech2 -> vladimir1 [dir = none, style=dashed];
                                            vladimir1ANDczech2 -> czech2 [dir = none, style=dashed];
                                        vladimir1ANDbulgar [shape = point, width = 0, height = 0];
                                    bulgar -> vladimir1ANDbulgar [dir = none, style=dashed];
                                            vladimir1ANDbulgar ->  vladimir1 [dir = none, style=dashed];
                                        vladimir1 -> anna1 [dir = none, style=dashed];
                                        vladimir1ANDunknownwifevladimir1 [shape = point, width = 0, height = 0];
                                    unknownwifevladimir1 -> vladimir1ANDunknownwifevladimir1 [dir = none, style=dashed];
                                            vladimir1ANDunknownwifevladimir1 ->  vladimir1 [dir = none, style=dashed];
                                        
                }
                iaropolk1Son -> iaropolk1 [dir = none];
                        oleg1Son -> oleg1 [dir = none];
                        sviatoslav1ANDmalusha -> vladimir1 [dir = none];
                        
                    subgraph Generation2Sons
                    {
                        rank = same;
                        unknowndaughtervladimir1Son [shape = rect, width = 0, height = 0, fixedsize = true, label = ""];
                            iaroslav1Son [shape = rect, width = 0, height = 0, fixedsize = true, label = ""];
                            iziaslav1Son [shape = rect, width = 0, height = 0, fixedsize = true, label = ""];
                            predslavaSon [shape = rect, width = 0, height = 0, fixedsize = true, label = ""];
                            vsevolod1Son [shape = rect, width = 0, height = 0, fixedsize = true, label = ""];
                            mstislav1Son [shape = rect, width = 0, height = 0, fixedsize = true, label = ""];
                            sviatoslav2Son [shape = rect, width = 0, height = 0, fixedsize = true, label = ""];
                            mstislavSon [shape = rect, width = 0, height = 0, fixedsize = true, label = ""];
                            boris1Son [shape = rect, width = 0, height = 0, fixedsize = true, label = ""];
                            glebSon [shape = rect, width = 0, height = 0, fixedsize = true, label = ""];
                            dobronegamariaSon [shape = rect, width = 0, height = 0, fixedsize = true, label = ""];
                            stanislav1Son [shape = rect, width = 0, height = 0, fixedsize = true, label = ""];
                            pozvizdSon [shape = rect, width = 0, height = 0, fixedsize = true, label = ""];
                            sudislavSon [shape = rect, width = 0, height = 0, fixedsize = true, label = ""];
                            premislavaSon [shape = rect, width = 0, height = 0, fixedsize = true, label = ""];
                            unknowndaughtervladimir1Son -> iaroslav1Son [dir = none];
                                                iaroslav1Son -> iziaslav1Son [dir = none];
                                                vladimir1ANDrognedaSon [shape = point, width = 0, height = 0];
                                                iziaslav1Son -> vladimir1ANDrognedaSon [dir = none];
                                                predslavaSon -> vladimir1ANDrognedaSon [dir = none];
                                            predslavaSon -> vsevolod1Son [dir = none];
                                                vsevolod1Son -> mstislav1Son [dir = none];
                                                vladimir1ANDczech2Son [shape = point, width = 0, height = 0];
                                                sviatoslav2Son -> vladimir1ANDczech2Son [dir = none];
                                                mstislavSon -> vladimir1ANDczech2Son [dir = none];
                                            vladimir1ANDbulgarSon [shape = point, width = 0, height = 0];
                                                boris1Son -> vladimir1ANDbulgarSon [dir = none];
                                                glebSon -> vladimir1ANDbulgarSon [dir = none];
                                            dobronegamariaSon -> pozvizdSon [dir = none];
                                        stanislav1Son -> pozvizdSon [dir = none];
                                        sudislavSon -> pozvizdSon [dir = none];
                                        premislavaSon -> pozvizdSon [dir = none];
                                        
                    }
                    vladimir1ANDrogneda ->
                            vladimir1ANDrognedaSon [dir = none];
                                vladimir1ANDczech2 ->
                            vladimir1ANDczech2Son [dir = none];
                                vladimir1ANDbulgar ->
                            vladimir1ANDbulgarSon [dir = none];
                                vladimir1ANDunknownwifevladimir1 ->
                            pozvizdSon [dir = none];
                                
                subgraph Generation1
                {
                    rank = same;
                    sviatopolk1 [shape = box, URL = "http://genealogy.obdurodon.org/findPerson.php?person=sviatopolk1", label = "Sviatopolk Iaropolchich", color = "blue", fillcolor = white, style = filled, target = _parent];
                    unknownboleslavna [shape = box, URL = "http://genealogy.obdurodon.org/findPerson.php?person=unknown-boleslavna", label = "N.N. Boleslavna of Poland", color = "deeppink", fillcolor = white, style = filled, target = _parent];
                    vysheslav1 [shape = box, URL = "http://genealogy.obdurodon.org/findPerson.php?person=vysheslav1", label = "Vysheslav Vladimirich", color = "green", fillcolor = white, style = filled, target = _parent];
                    unknowndaughtervladimir1 [shape = box, URL = "http://genealogy.obdurodon.org/findPerson.php?person=unknown-daughter-vladimir1", label = "N.N. Vladimirovna", color = "deeppink", fillcolor = white, style = filled, target = _parent];
                    iaroslav1 [shape = box, URL = "http://genealogy.obdurodon.org/findPerson.php?person=iaroslav1", label = "Iaroslav “Mudryi” Vladimirich Georgii", color = "blue", fillcolor = white, style = filled, target = _parent];
                    iziaslav1 [shape = box, URL = "http://genealogy.obdurodon.org/findPerson.php?person=iziaslav1", label = "Iziaslav Vladimirich", color = "blue", fillcolor = white, style = filled, target = _parent];
                    predslava [shape = box, URL = "http://genealogy.obdurodon.org/findPerson.php?person=predslava", label = "Predslava Vladimirovna", color = "green", fillcolor = white, style = filled, target = _parent];
                    vsevolod1 [shape = box, URL = "http://genealogy.obdurodon.org/findPerson.php?person=vsevolod1", label = "Vsevolod Vladimirich", color = "green", fillcolor = white, style = filled, target = _parent];
                    mstislav1 [shape = box, URL = "http://genealogy.obdurodon.org/findPerson.php?person=mstislav1", label = "Mstislav “Khrabryi” Vladimirich", color = "blue", fillcolor = white, style = filled, target = _parent];
                    sviatoslav2 [shape = box, URL = "http://genealogy.obdurodon.org/findPerson.php?person=sviatoslav2", label = "Sviatoslav Vladimirich", color = "green", fillcolor = white, style = filled, target = _parent];
                    mstislav [shape = box, URL = "http://genealogy.obdurodon.org/findPerson.php?person=mstislav", label = "Mstislav Vladimirich", color = "green", fillcolor = white, style = filled, target = _parent];
                    boris1 [shape = box, URL = "http://genealogy.obdurodon.org/findPerson.php?person=boris1", label = "Boris Vladimirich Roman", color = "green", fillcolor = white, style = filled, target = _parent];
                    gleb [shape = box, URL = "http://genealogy.obdurodon.org/findPerson.php?person=gleb", label = "Gleb Vladimirich Davyd", color = "green", fillcolor = white, style = filled, target = _parent];
                    dobronegamaria [shape = box, URL = "http://genealogy.obdurodon.org/findPerson.php?person=dobronega-maria", label = "Dobronega-Maria Vladimirovna", color = "deeppink", fillcolor = white, style = filled, target = _parent];
                    stanislav1 [shape = box, URL = "http://genealogy.obdurodon.org/findPerson.php?person=stanislav1", label = "Stanislav Vladimirich", color = "green", fillcolor = white, style = filled, target = _parent];
                    pozvizd [shape = box, URL = "http://genealogy.obdurodon.org/findPerson.php?person=pozvizd", label = "Pozvizd Vladimirich", color = "green", fillcolor = white, style = filled, target = _parent];
                    sudislav [shape = box, URL = "http://genealogy.obdurodon.org/findPerson.php?person=sudislav", label = "Sudislav Vladimirich", color = "green", fillcolor = white, style = filled, target = _parent];
                    premislava [shape = box, URL = "http://genealogy.obdurodon.org/findPerson.php?person=premislava", label = "N.N. “Premislava” Vladimirovna", color = "deeppink", fillcolor = white, style = filled, target = _parent];
                    bernhard [shape = box, URL = "http://genealogy.obdurodon.org/findPerson.php?person=bernhard", label = "Bernhard of the German Empire", color = "blue", fillcolor = white, style = filled, target = _parent];
                    unknownwifeiaroslav1 [shape = box, URL = "http://genealogy.obdurodon.org/findPerson.php?person=unknown-wife-iaroslav1", label = "unknown", color = "deeppink", fillcolor = white, style = filled, target = _parent];
                    ingigerd [shape = box, URL = "http://genealogy.obdurodon.org/findPerson.php?person=ingigerd", label = "Ingigerd of Sweden", color = "deeppink", fillcolor = white, style = filled, target = _parent];
                    unknownwifeiziaslav1 [shape = box, URL = "http://genealogy.obdurodon.org/findPerson.php?person=unknown-wife-iziaslav1", label = "unknown", color = "deeppink", fillcolor = white, style = filled, target = _parent];
                    unknownwifemstislav1 [shape = box, URL = "http://genealogy.obdurodon.org/findPerson.php?person=unknown-wife-mstislav1", label = "unknown", color = "deeppink", fillcolor = white, style = filled, target = _parent];
                    casimir1 [shape = box, URL = "http://genealogy.obdurodon.org/findPerson.php?person=casimir1", label = "Casimir “the Restorer” of Poland", color = "blue", fillcolor = white, style = filled, target = _parent];
                    ladislaus [shape = box, URL = "http://genealogy.obdurodon.org/findPerson.php?person=ladislaus", label = "Ladislaus of Hungary", color = "blue", fillcolor = white, style = filled, target = _parent];
                    sviatopolk1 -> unknownboleslavna [dir = none, style=dashed];
                                        iaroslav1ANDunknownwifeiaroslav1 [shape = point, width = 0, height = 0];
                                    iaroslav1ANDunknownwifeiaroslav1 -> iaroslav1 [dir = none, style=dashed];
                                            iaroslav1ANDunknownwifeiaroslav1 -> unknownwifeiaroslav1 [dir = none, style=dashed];
                                        iaroslav1ANDingigerd [shape = point, width = 0, height = 0];
                                    ingigerd -> iaroslav1ANDingigerd [dir = none, style=dashed];
                                            iaroslav1ANDingigerd ->  iaroslav1 [dir = none, style=dashed];
                                        iziaslav1ANDunknownwifeiziaslav1 [shape = point, width = 0, height = 0];
                                    iziaslav1ANDunknownwifeiziaslav1 -> iziaslav1 [dir = none, style=dashed];
                                            iziaslav1ANDunknownwifeiziaslav1 -> unknownwifeiziaslav1 [dir = none, style=dashed];
                                        mstislav1ANDunknownwifemstislav1 [shape = point, width = 0, height = 0];
                                    mstislav1ANDunknownwifemstislav1 -> mstislav1 [dir = none, style=dashed];
                                            mstislav1ANDunknownwifemstislav1 -> unknownwifemstislav1 [dir = none, style=dashed];
                                        bernhard -> unknowndaughtervladimir1 [dir = none, style=dashed];
                                        casimir1ANDdobronegamaria [shape = point, width = 0, height = 0];
                                    casimir1ANDdobronegamaria -> casimir1 [dir = none, style=dashed];
                                            casimir1ANDdobronegamaria -> dobronegamaria [dir = none, style=dashed];
                                        ladislausANDpremislava [shape = point, width = 0, height = 0];
                                    ladislausANDpremislava -> ladislaus [dir = none, style=dashed];
                                            ladislausANDpremislava -> premislava [dir = none, style=dashed];
                                        
                }
                iaropolk1ANDgreeknun -> sviatopolk1 [dir = none];
                        vladimir1ANDczech1 -> vysheslav1 [dir = none];
                        unknowndaughtervladimir1Son -> unknowndaughtervladimir1 [dir = none];
                        iaroslav1Son -> iaroslav1 [dir = none];
                        iziaslav1Son -> iziaslav1 [dir = none];
                        predslavaSon -> predslava [dir = none];
                        vsevolod1Son -> vsevolod1 [dir = none];
                        mstislav1Son -> mstislav1 [dir = none];
                        sviatoslav2Son -> sviatoslav2 [dir = none];
                        mstislavSon -> mstislav [dir = none];
                        boris1Son -> boris1 [dir = none];
                        glebSon -> gleb [dir = none];
                        dobronegamariaSon -> dobronegamaria [dir = none];
                        stanislav1Son -> stanislav1 [dir = none];
                        pozvizdSon -> pozvizd [dir = none];
                        sudislavSon -> sudislav [dir = none];
                        premislavaSon -> premislava [dir = none];
                        
                    subgraph Generation1Sons
                    {
                        rank = same;
                        vladimir2Son [shape = rect, width = 0, height = 0, fixedsize = true, label = ""];
                            iziaslav2Son [shape = rect, width = 0, height = 0, fixedsize = true, label = ""];
                            agafiaSon [shape = rect, width = 0, height = 0, fixedsize = true, label = ""];
                            anastasiaSon [shape = rect, width = 0, height = 0, fixedsize = true, label = ""];
                            sviatoslav3Son [shape = rect, width = 0, height = 0, fixedsize = true, label = ""];
                            elisabethSon [shape = rect, width = 0, height = 0, fixedsize = true, label = ""];
                            anna2Son [shape = rect, width = 0, height = 0, fixedsize = true, label = ""];
                            vsevolod2Son [shape = rect, width = 0, height = 0, fixedsize = true, label = ""];
                            igor2Son [shape = rect, width = 0, height = 0, fixedsize = true, label = ""];
                            viacheslav1Son [shape = rect, width = 0, height = 0, fixedsize = true, label = ""];
                            andrewSon [shape = rect, width = 0, height = 0, fixedsize = true, label = ""];
                            briacheslav1Son [shape = rect, width = 0, height = 0, fixedsize = true, label = ""];
                            vseslav1Son [shape = rect, width = 0, height = 0, fixedsize = true, label = ""];
                            boleslaw2Son [shape = rect, width = 0, height = 0, fixedsize = true, label = ""];
                            wladyslawSon [shape = rect, width = 0, height = 0, fixedsize = true, label = ""];
                            mieszkoSon [shape = rect, width = 0, height = 0, fixedsize = true, label = ""];
                            otto1Son [shape = rect, width = 0, height = 0, fixedsize = true, label = ""];
                            sviatoslavaSon [shape = rect, width = 0, height = 0, fixedsize = true, label = ""];
                            bela1Son [shape = rect, width = 0, height = 0, fixedsize = true, label = ""];
                            LeventeSon [shape = rect, width = 0, height = 0, fixedsize = true, label = ""];
                            vladimir2Son -> iziaslav2Son [dir = none];
                                                iziaslav2Son -> agafiaSon [dir = none];
                                                agafiaSon -> anastasiaSon [dir = none];
                                                anastasiaSon -> sviatoslav3Son [dir = none];
                                                iaroslav1ANDingigerdSon [shape = point, width = 0, height = 0];
                                                sviatoslav3Son -> iaroslav1ANDingigerdSon [dir = none];
                                                elisabethSon -> iaroslav1ANDingigerdSon [dir = none];
                                            elisabethSon -> anna2Son [dir = none];
                                                anna2Son -> vsevolod2Son [dir = none];
                                                vsevolod2Son -> igor2Son [dir = none];
                                                igor2Son -> viacheslav1Son [dir = none];
                                                andrewSon -> bela1Son [dir = none];
                                        LeventeSon -> bela1Son [dir = none];
                                        iziaslav1ANDunknownwifeiziaslav1Son [shape = point, width = 0, height = 0];
                                                briacheslav1Son -> iziaslav1ANDunknownwifeiziaslav1Son [dir = none];
                                                vseslav1Son -> iziaslav1ANDunknownwifeiziaslav1Son [dir = none];
                                            boleslaw2Son -> mieszkoSon [dir = none];
                                        wladyslawSon -> mieszkoSon [dir = none];
                                        otto1Son -> mieszkoSon [dir = none];
                                        sviatoslavaSon -> mieszkoSon [dir = none];
                                        
                    }
                    iaroslav1ANDingigerd ->
                            iaroslav1ANDingigerdSon [dir = none];
                                ladislausANDpremislava ->
                            bela1Son [dir = none];
                                iziaslav1ANDunknownwifeiziaslav1 ->
                            iziaslav1ANDunknownwifeiziaslav1Son [dir = none];
                                casimir1ANDdobronegamaria ->
                            mieszkoSon [dir = none];
                                
                subgraph Generation0
                {
                    rank = same;
                    ilia1 [shape = box, URL = "http://genealogy.obdurodon.org/findPerson.php?person=ilia1", label = "Ilia Iaroslavich", color = "green", fillcolor = white, style = filled, target = _parent];
                    vladimir2 [shape = box, URL = "http://genealogy.obdurodon.org/findPerson.php?person=vladimir2", label = "Vladimir Iaroslavich", color = "blue", fillcolor = white, style = filled, target = _parent];
                    iziaslav2 [shape = box, URL = "http://genealogy.obdurodon.org/findPerson.php?person=iziaslav2", label = "Iziaslav Iaroslavich", color = "blue", fillcolor = white, style = filled, target = _parent];
                    agafia [shape = box, URL = "http://genealogy.obdurodon.org/findPerson.php?person=agafia", label = "Agafia Iaroslavna", color = "deeppink", fillcolor = white, style = filled, target = _parent];
                    anastasia [shape = box, URL = "http://genealogy.obdurodon.org/findPerson.php?person=anastasia", label = "Anastasia Iaroslavna", color = "deeppink", fillcolor = white, style = filled, target = _parent];
                    sviatoslav3 [shape = box, URL = "http://genealogy.obdurodon.org/findPerson.php?person=sviatoslav3", label = "Sviatoslav Iaroslavich", color = "blue", fillcolor = white, style = filled, target = _parent];
                    elisabeth [shape = box, URL = "http://genealogy.obdurodon.org/findPerson.php?person=elisabeth", label = "Elisabeth Iaroslavna", color = "deeppink", fillcolor = white, style = filled, target = _parent];
                    anna2 [shape = box, URL = "http://genealogy.obdurodon.org/findPerson.php?person=anna2", label = "Anna Iaroslavna", color = "deeppink", fillcolor = white, style = filled, target = _parent];
                    vsevolod2 [shape = box, URL = "http://genealogy.obdurodon.org/findPerson.php?person=vsevolod2", label = "Vsevolod Iaroslavich Andrei", color = "blue", fillcolor = white, style = filled, target = _parent];
                    igor2 [shape = box, URL = "http://genealogy.obdurodon.org/findPerson.php?person=igor2", label = "Igor′ Iaroslavich", color = "blue", fillcolor = white, style = filled, target = _parent];
                    viacheslav1 [shape = box, URL = "http://genealogy.obdurodon.org/findPerson.php?person=viacheslav1", label = "Viacheslav Iaroslavich", color = "blue", fillcolor = white, style = filled, target = _parent];
                    unknownwifevladimir2 [shape = box, URL = "http://genealogy.obdurodon.org/findPerson.php?person=unknown-wife-vladimir2", label = "unknown", color = "deeppink", fillcolor = white, style = filled, target = _parent];
                    gertrude [shape = box, URL = "http://genealogy.obdurodon.org/findPerson.php?person=gertrude", label = "Gertrude of Poland", color = "deeppink", fillcolor = white, style = filled, target = _parent];
                    edward [shape = box, URL = "http://genealogy.obdurodon.org/findPerson.php?person=edward", label = "Edward “the Exile” of England", color = "blue", fillcolor = white, style = filled, target = _parent];
                    andrew [shape = box, URL = "http://genealogy.obdurodon.org/findPerson.php?person=andrew", label = "Andrew of Hungary", color = "blue", fillcolor = white, style = filled, target = _parent];
                    kilikia [shape = box, URL = "http://genealogy.obdurodon.org/findPerson.php?person=kilikia", label = "Kilikia", color = "deeppink", fillcolor = white, style = filled, target = _parent];
                    oda [shape = box, URL = "http://genealogy.obdurodon.org/findPerson.php?person=oda", label = "Oda of Stade of the German Empire", color = "deeppink", fillcolor = white, style = filled, target = _parent];
                    harald1 [shape = box, URL = "http://genealogy.obdurodon.org/findPerson.php?person=harald1", label = "Harald “Hardrada” Sigurtharson of Norway", color = "blue", fillcolor = white, style = filled, target = _parent];
                    henry1 [shape = box, URL = "http://genealogy.obdurodon.org/findPerson.php?person=henry1", label = "Henry I Capet of France", color = "blue", fillcolor = white, style = filled, target = _parent];
                    raoul [shape = box, URL = "http://genealogy.obdurodon.org/findPerson.php?person=raoul", label = "Raoul de Crépy of France", color = "blue", fillcolor = white, style = filled, target = _parent];
                    monomakhina [shape = box, URL = "http://genealogy.obdurodon.org/findPerson.php?person=monomakhina", label = "Monomakhina of Byzantium", color = "deeppink", fillcolor = white, style = filled, target = _parent];
                    unknownwifevsevolod2 [shape = box, URL = "http://genealogy.obdurodon.org/findPerson.php?person=unknown-wife-vsevolod2", label = "unknown Anna of Polovtsy", color = "deeppink", fillcolor = white, style = filled, target = _parent];
                    unknownwifeigor2 [shape = box, URL = "http://genealogy.obdurodon.org/findPerson.php?person=unknown-wife-igor2", label = "unknown", color = "deeppink", fillcolor = white, style = filled, target = _parent];
                    unknownwifeviacheslav1 [shape = box, URL = "http://genealogy.obdurodon.org/findPerson.php?person=unknown-wife-viacheslav1", label = "unknown", color = "deeppink", fillcolor = white, style = filled, target = _parent];
                    briacheslav1 [shape = box, URL = "http://genealogy.obdurodon.org/findPerson.php?person=briacheslav1", label = "Briacheslav Iziaslavich", color = "blue", fillcolor = white, style = filled, target = _parent];
                    vseslav1 [shape = box, URL = "http://genealogy.obdurodon.org/findPerson.php?person=vseslav1", label = "Vseslav Iziaslavich", color = "green", fillcolor = white, style = filled, target = _parent];
                    unknownwifebriacheslav1 [shape = box, URL = "http://genealogy.obdurodon.org/findPerson.php?person=unknown-wife-briacheslav1", label = "unknown", color = "deeppink", fillcolor = white, style = filled, target = _parent];
                    eustafii [shape = box, URL = "http://genealogy.obdurodon.org/findPerson.php?person=eustafii", label = "Eustafii Mstislavich", color = "green", fillcolor = white, style = filled, target = _parent];
                    boleslaw2 [shape = box, URL = "http://genealogy.obdurodon.org/findPerson.php?person=boleslaw2", label = "Bolesław II “the Bold” of Poland", color = "blue", fillcolor = white, style = filled, target = _parent];
                    wladyslaw [shape = box, URL = "http://genealogy.obdurodon.org/findPerson.php?person=wladyslaw", label = "Władysław Herman of Poland", color = "blue", fillcolor = white, style = filled, target = _parent];
                    mieszko [shape = box, URL = "http://genealogy.obdurodon.org/findPerson.php?person=mieszko", label = "Mieszko of Poland", color = "green", fillcolor = white, style = filled, target = _parent];
                    otto1 [shape = box, URL = "http://genealogy.obdurodon.org/findPerson.php?person=otto1", label = "Otto of Poland", color = "green", fillcolor = white, style = filled, target = _parent];
                    sviatoslava [shape = box, URL = "http://genealogy.obdurodon.org/findPerson.php?person=sviatoslava", label = "Sviatoslava of Poland", color = "deeppink", fillcolor = white, style = filled, target = _parent];
                    vysheslava [shape = box, URL = "http://genealogy.obdurodon.org/findPerson.php?person=vysheslava", label = "Vysheslava Sviatoslavna", color = "deeppink", fillcolor = white, style = filled, target = _parent];
                    judith2 [shape = box, URL = "http://genealogy.obdurodon.org/findPerson.php?person=judith2", label = "Judith daughter of Vratislav II of Bohemia", color = "deeppink", fillcolor = white, style = filled, target = _parent];
                    judith [shape = box, URL = "http://genealogy.obdurodon.org/findPerson.php?person=judith", label = "Judith daughter of Henry III of the German Empire", color = "deeppink", fillcolor = white, style = filled, target = _parent];
                    vratislav [shape = box, URL = "http://genealogy.obdurodon.org/findPerson.php?person=vratislav", label = "Vratislav II of Bohemia", color = "blue", fillcolor = white, style = filled, target = _parent];
                    bela1 [shape = box, URL = "http://genealogy.obdurodon.org/findPerson.php?person=bela1", label = "Bela of Hungary", color = "blue", fillcolor = white, style = filled, target = _parent];
                    Levente [shape = box, URL = "http://genealogy.obdurodon.org/findPerson.php?person=Levente", label = "Levente of Hungary", color = "green", fillcolor = white, style = filled, target = _parent];
                    unknowndaughtermieszko2 [shape = box, URL = "http://genealogy.obdurodon.org/findPerson.php?person=unknown-daughter-mieszko2", label = "unknown daughter of Mieszko II of Poland", color = "deeppink", fillcolor = white, style = filled, target = _parent];
                    vladimir2 -> unknownwifevladimir2 [dir = none, style=dashed];
                                        iziaslav2 -> gertrude [dir = none, style=dashed];
                                        kilikia -> sviatoslav3 [dir = none, style=dashed];
                                        sviatoslav3 -> oda [dir = none, style=dashed];
                                        monomakhina -> vsevolod2 [dir = none, style=dashed];
                                        vsevolod2 -> unknownwifevsevolod2 [dir = none, style=dashed];
                                        igor2 -> unknownwifeigor2 [dir = none, style=dashed];
                                        viacheslav1 -> unknownwifeviacheslav1 [dir = none, style=dashed];
                                        edward -> agafia [dir = none, style=dashed];
                                        anastasia -> andrew [dir = none, style=dashed];
                                        andrew -> anastasia [dir = none, style=dashed];
                                        harald1 -> elisabeth [dir = none, style=dashed];
                                        henry1 -> anna2 [dir = none, style=dashed];
                                        raoul -> anna2 [dir = none, style=dashed];
                                        briacheslav1 -> unknownwifebriacheslav1 [dir = none, style=dashed];
                                        boleslaw2 -> vysheslava [dir = none, style=dashed];
                                        judith2 -> wladyslaw [dir = none, style=dashed];
                                        wladyslaw -> judith [dir = none, style=dashed];
                                        vratislav -> sviatoslava [dir = none, style=dashed];
                                        bela1 -> unknowndaughtermieszko2 [dir = none, style=dashed];
                                        
                }
                iaroslav1ANDunknownwifeiaroslav1 -> ilia1 [dir = none];
                        vladimir2Son -> vladimir2 [dir = none];
                        iziaslav2Son -> iziaslav2 [dir = none];
                        agafiaSon -> agafia [dir = none];
                        anastasiaSon -> anastasia [dir = none];
                        sviatoslav3Son -> sviatoslav3 [dir = none];
                        elisabethSon -> elisabeth [dir = none];
                        anna2Son -> anna2 [dir = none];
                        vsevolod2Son -> vsevolod2 [dir = none];
                        igor2Son -> igor2 [dir = none];
                        viacheslav1Son -> viacheslav1 [dir = none];
                        andrewSon -> andrew [dir = none];
                        briacheslav1Son -> briacheslav1 [dir = none];
                        vseslav1Son -> vseslav1 [dir = none];
                        mstislav1ANDunknownwifemstislav1 -> eustafii [dir = none];
                        boleslaw2Son -> boleslaw2 [dir = none];
                        wladyslawSon -> wladyslaw [dir = none];
                        mieszkoSon -> mieszko [dir = none];
                        otto1Son -> otto1 [dir = none];
                        sviatoslavaSon -> sviatoslava [dir = none];
                        bela1Son -> bela1 [dir = none];
                        LeventeSon -> Levente [dir = none];
                        
        }
    