<?xml version="1.0" encoding="UTF-8" standalone="no"?>
<!DOCTYPE svg PUBLIC "-//W3C//DTD SVG 1.1//EN"
 "http://www.w3.org/Graphics/SVG/1.1/DTD/svg11.dtd">
<!-- Generated by graphviz version 2.26.0 (20091210.2329)
 -->
<!-- Title: familyTree Pages: 1 -->
<svg width="6402pt" height="472pt"
 viewBox="0.00 0.00 6402.00 472.00" xmlns="http://www.w3.org/2000/svg" xmlns:xlink="http://www.w3.org/1999/xlink">
<g id="graph1" class="graph" transform="scale(1 1) rotate(0) translate(4 468.003)">
<title>familyTree</title>
<!-- igor1 -->
<g id="node2" class="node"><title>igor1</title>
<a xlink:href="http://genealogy.obdurodon.org/findPerson.php?person=igor1" xlink:title="Igor′" target="_parent">
<polygon fill="white" stroke="blue" points="1031,-438 977,-438 977,-402 1031,-402 1031,-438"/>
<text text-anchor="middle" x="1004" y="-416.9" font-family="Times Roman,serif" font-size="14.00">Igor′</text>
</a>
</g>
<!-- olga1 -->
<g id="node3" class="node"><title>olga1</title>
<a xlink:href="http://genealogy.obdurodon.org/findPerson.php?person=olga1" xlink:title="Ol′ga" target="_parent">
<polygon fill="white" stroke="deeppink" points="1103,-438 1049,-438 1049,-402 1103,-402 1103,-438"/>
<text text-anchor="middle" x="1076" y="-416.9" font-family="Times Roman,serif" font-size="14.00">Ol′ga</text>
</a>
</g>
<!-- igor1ANDolga1 -->
<g id="node4" class="node"><title>igor1ANDolga1</title>
<ellipse fill="black" stroke="black" cx="959" cy="-420" rx="0.0108" ry="0.0108"/>
</g>
<!-- igor1ANDolga1&#45;&gt;igor1 -->
<g id="edge3" class="edge"><title>igor1ANDolga1&#45;&gt;igor1</title>
<path fill="none" stroke="black" stroke-dasharray="5,2" d="M959.352,-420C965.165,-420 970.979,-420 976.792,-420"/>
</g>
<!-- igor1ANDolga1&#45;&gt;olga1 -->
<g id="edge5" class="edge"><title>igor1ANDolga1&#45;&gt;olga1</title>
<path fill="none" stroke="black" stroke-dasharray="5,2" d="M959.008,-420.077C959.186,-421.645 962.259,-446.889 977,-456 997.416,-468.618 1008.35,-463.944 1031,-456 1041.38,-452.357 1051.15,-445.198 1058.92,-438.217"/>
</g>
<!-- sviatoslav1 -->
<g id="node9" class="node"><title>sviatoslav1</title>
<a xlink:href="http://genealogy.obdurodon.org/findPerson.php?person=sviatoslav1" xlink:title="Sviatoslav Igorich" target="_parent">
<polygon fill="white" stroke="blue" points="1017,-366 901,-366 901,-330 1017,-330 1017,-366"/>
<text text-anchor="middle" x="959" y="-344.9" font-family="Times Roman,serif" font-size="14.00">Sviatoslav Igorich</text>
</a>
</g>
<!-- igor1ANDolga1&#45;&gt;sviatoslav1 -->
<g id="edge17" class="edge"><title>igor1ANDolga1&#45;&gt;sviatoslav1</title>
<path fill="none" stroke="black" d="M959,-419.948C959,-418.491 959,-386.879 959,-366.047"/>
</g>
<!-- unknownwifesviatoslav1 -->
<g id="node10" class="node"><title>unknownwifesviatoslav1</title>
<a xlink:href="http://genealogy.obdurodon.org/findPerson.php?person=unknown-wife-sviatoslav1" xlink:title="unknown" target="_parent">
<polygon fill="white" stroke="deeppink" points="883,-366 817,-366 817,-330 883,-330 883,-366"/>
<text text-anchor="middle" x="850" y="-344.9" font-family="Times Roman,serif" font-size="14.00">unknown</text>
</a>
</g>
<!-- malusha -->
<g id="node11" class="node"><title>malusha</title>
<a xlink:href="http://genealogy.obdurodon.org/findPerson.php?person=malusha" xlink:title="Malusha Malkovna" target="_parent">
<polygon fill="white" stroke="deeppink" points="2540,-366 2418,-366 2418,-330 2540,-330 2540,-366"/>
<text text-anchor="middle" x="2479" y="-344.9" font-family="Times Roman,serif" font-size="14.00">Malusha Malkovna</text>
</a>
</g>
<!-- sviatoslav1ANDmalusha -->
<g id="node15" class="node"><title>sviatoslav1ANDmalusha</title>
<ellipse fill="black" stroke="black" cx="2400" cy="-348" rx="0.0108" ry="0.0108"/>
</g>
<!-- malusha&#45;&gt;sviatoslav1ANDmalusha -->
<g id="edge13" class="edge"><title>malusha&#45;&gt;sviatoslav1ANDmalusha</title>
<path fill="none" stroke="black" stroke-dasharray="5,2" d="M2417.83,-348C2411.99,-348 2406.15,-348 2400.31,-348"/>
</g>
<!-- sviatoslav1ANDunknownwifesviatoslav1 -->
<g id="node12" class="node"><title>sviatoslav1ANDunknownwifesviatoslav1</title>
<ellipse fill="black" stroke="black" cx="799" cy="-348" rx="0.0108" ry="0.0108"/>
</g>
<!-- sviatoslav1ANDunknownwifesviatoslav1&#45;&gt;sviatoslav1 -->
<g id="edge9" class="edge"><title>sviatoslav1ANDunknownwifesviatoslav1&#45;&gt;sviatoslav1</title>
<path fill="none" stroke="black" stroke-dasharray="5,2" d="M799.008,-348.077C799.186,-349.645 802.259,-374.889 817,-384 841.952,-399.421 854.381,-390.435 883,-384 898.811,-380.445 915.199,-373.204 928.691,-366.143"/>
</g>
<!-- sviatoslav1ANDunknownwifesviatoslav1&#45;&gt;unknownwifesviatoslav1 -->
<g id="edge11" class="edge"><title>sviatoslav1ANDunknownwifesviatoslav1&#45;&gt;unknownwifesviatoslav1</title>
<path fill="none" stroke="black" stroke-dasharray="5,2" d="M799.398,-348C805.197,-348 810.995,-348 816.793,-348"/>
</g>
<!-- sviatoslav1ANDunknownwifesviatoslav1Son -->
<g id="node22" class="node"><title>sviatoslav1ANDunknownwifesviatoslav1Son</title>
<ellipse fill="black" stroke="black" cx="799" cy="-293" rx="0.0108" ry="0.0108"/>
</g>
<!-- sviatoslav1ANDunknownwifesviatoslav1&#45;&gt;sviatoslav1ANDunknownwifesviatoslav1Son -->
<g id="edge24" class="edge"><title>sviatoslav1ANDunknownwifesviatoslav1&#45;&gt;sviatoslav1ANDunknownwifesviatoslav1Son</title>
<path fill="none" stroke="black" d="M799,-347.842C799,-344.717 799,-296.179 799,-293.148"/>
</g>
<!-- sviatoslav1ANDmalusha&#45;&gt;sviatoslav1 -->
<g id="edge15" class="edge"><title>sviatoslav1ANDmalusha&#45;&gt;sviatoslav1</title>
<path fill="none" stroke="black" stroke-dasharray="5,2" d="M2399.66,-348C1938.79,-348 1477.92,-348 1017.05,-348"/>
</g>
<!-- vladimir1 -->
<g id="node29" class="node"><title>vladimir1</title>
<a xlink:href="http://genealogy.obdurodon.org/findPerson.php?person=vladimir1" xlink:title="Vladimir Sviatoslavich" target="_parent">
<polygon fill="white" stroke="blue" points="2471,-256 2329,-256 2329,-220 2471,-220 2471,-256"/>
<text text-anchor="middle" x="2400" y="-234.9" font-family="Times Roman,serif" font-size="14.00">Vladimir Sviatoslavich</text>
</a>
</g>
<!-- sviatoslav1ANDmalusha&#45;&gt;vladimir1 -->
<g id="edge57" class="edge"><title>sviatoslav1ANDmalusha&#45;&gt;vladimir1</title>
<path fill="none" stroke="black" d="M2400,-347.92C2400,-345.461 2400,-286.72 2400,-256.141"/>
</g>
<!-- iaropolk1Son -->
<g id="node20" class="node"><title>iaropolk1Son</title>
<polygon fill="none" stroke="black" points="518,-293.5 518,-293.5 518,-292.5 518,-292.5 518,-293.5"/>
</g>
<!-- iaropolk1Son&#45;&gt;sviatoslav1ANDunknownwifesviatoslav1Son -->
<g id="edge20" class="edge"><title>iaropolk1Son&#45;&gt;sviatoslav1ANDunknownwifesviatoslav1Son</title>
<path fill="none" stroke="black" d="M518.549,-293C611.941,-293 705.334,-293 798.726,-293"/>
</g>
<!-- iaropolk1 -->
<g id="node27" class="node"><title>iaropolk1</title>
<a xlink:href="http://genealogy.obdurodon.org/findPerson.php?person=iaropolk1" xlink:title="Iaropolk Sviatoslavich" target="_parent">
<polygon fill="white" stroke="blue" points="587,-256 449,-256 449,-220 587,-220 587,-256"/>
<text text-anchor="middle" x="518" y="-234.9" font-family="Times Roman,serif" font-size="14.00">Iaropolk Sviatoslavich</text>
</a>
</g>
<!-- iaropolk1Son&#45;&gt;iaropolk1 -->
<g id="edge53" class="edge"><title>iaropolk1Son&#45;&gt;iaropolk1</title>
<path fill="none" stroke="black" d="M518,-292.382C518,-288.818 518,-270.538 518,-256.142"/>
</g>
<!-- oleg1Son -->
<g id="node21" class="node"><title>oleg1Son</title>
<polygon fill="none" stroke="black" points="949,-293.5 949,-293.5 949,-292.5 949,-292.5 949,-293.5"/>
</g>
<!-- oleg1Son&#45;&gt;sviatoslav1ANDunknownwifesviatoslav1Son -->
<g id="edge22" class="edge"><title>oleg1Son&#45;&gt;sviatoslav1ANDunknownwifesviatoslav1Son</title>
<path fill="none" stroke="black" d="M948.415,-293C898.708,-293 849,-293 799.293,-293"/>
</g>
<!-- oleg1 -->
<g id="node28" class="node"><title>oleg1</title>
<a xlink:href="http://genealogy.obdurodon.org/findPerson.php?person=oleg1" xlink:title="Oleg Sviatoslavich" target="_parent">
<polygon fill="white" stroke="green" points="1008,-256 890,-256 890,-220 1008,-220 1008,-256"/>
<text text-anchor="middle" x="949" y="-234.9" font-family="Times Roman,serif" font-size="14.00">Oleg Sviatoslavich</text>
</a>
</g>
<!-- oleg1Son&#45;&gt;oleg1 -->
<g id="edge55" class="edge"><title>oleg1Son&#45;&gt;oleg1</title>
<path fill="none" stroke="black" d="M949,-292.382C949,-288.818 949,-270.538 949,-256.142"/>
</g>
<!-- anna1 -->
<g id="node35" class="node"><title>anna1</title>
<a xlink:href="http://genealogy.obdurodon.org/findPerson.php?person=anna1" xlink:title="Anna “Porphyrogenita” of Byzantium" target="_parent">
<polygon fill="white" stroke="deeppink" points="3191,-256 2967,-256 2967,-220 3191,-220 3191,-256"/>
<text text-anchor="middle" x="3079" y="-234.9" font-family="Times Roman,serif" font-size="14.00">Anna “Porphyrogenita” of Byzantium</text>
</a>
</g>
<!-- vladimir1&#45;&gt;anna1 -->
<g id="edge47" class="edge"><title>vladimir1&#45;&gt;anna1</title>
<path fill="none" stroke="black" stroke-dasharray="5,2" d="M2435.83,-256.164C2451.7,-263.229 2470.84,-270.466 2489,-274 2589.34,-293.525 2847.71,-287.766 2949,-274 2974.99,-270.468 3003.12,-263.136 3026.55,-256.005"/>
</g>
<!-- greeknun -->
<g id="node30" class="node"><title>greeknun</title>
<a xlink:href="http://genealogy.obdurodon.org/findPerson.php?person=greeknun" xlink:title="Greek nun of Byzantium" target="_parent">
<polygon fill="white" stroke="deeppink" points="431,-256 279,-256 279,-220 431,-220 431,-256"/>
<text text-anchor="middle" x="355" y="-234.9" font-family="Times Roman,serif" font-size="14.00">Greek nun of Byzantium</text>
</a>
</g>
<!-- czech1 -->
<g id="node31" class="node"><title>czech1</title>
<a xlink:href="http://genealogy.obdurodon.org/findPerson.php?person=czech1" xlink:title="First Czech woman of Bohemia" target="_parent">
<polygon fill="white" stroke="deeppink" points="2157,-256 1967,-256 1967,-220 2157,-220 2157,-256"/>
<text text-anchor="middle" x="2062" y="-234.9" font-family="Times Roman,serif" font-size="14.00">First Czech woman of Bohemia</text>
</a>
</g>
<!-- rogneda -->
<g id="node32" class="node"><title>rogneda</title>
<a xlink:href="http://genealogy.obdurodon.org/findPerson.php?person=rogneda" xlink:title="Rogned′" target="_parent">
<polygon fill="white" stroke="deeppink" points="3289,-256 3227,-256 3227,-220 3289,-220 3289,-256"/>
<text text-anchor="middle" x="3258" y="-234.9" font-family="Times Roman,serif" font-size="14.00">Rogned′</text>
</a>
</g>
<!-- czech2 -->
<g id="node33" class="node"><title>czech2</title>
<a xlink:href="http://genealogy.obdurodon.org/findPerson.php?person=czech2" xlink:title="Second Czech woman of Bohemia" target="_parent">
<polygon fill="white" stroke="deeppink" points="2847,-256 2641,-256 2641,-220 2847,-220 2847,-256"/>
<text text-anchor="middle" x="2744" y="-234.9" font-family="Times Roman,serif" font-size="14.00">Second Czech woman of Bohemia</text>
</a>
</g>
<!-- bulgar -->
<g id="node34" class="node"><title>bulgar</title>
<a xlink:href="http://genealogy.obdurodon.org/findPerson.php?person=bulgar" xlink:title="Bulgar woman" target="_parent">
<polygon fill="white" stroke="deeppink" points="2605,-256 2507,-256 2507,-220 2605,-220 2605,-256"/>
<text text-anchor="middle" x="2556" y="-234.9" font-family="Times Roman,serif" font-size="14.00">Bulgar woman</text>
</a>
</g>
<!-- vladimir1ANDbulgar -->
<g id="node49" class="node"><title>vladimir1ANDbulgar</title>
<ellipse fill="black" stroke="black" cx="2489" cy="-238" rx="0.0108" ry="0.0108"/>
</g>
<!-- bulgar&#45;&gt;vladimir1ANDbulgar -->
<g id="edge43" class="edge"><title>bulgar&#45;&gt;vladimir1ANDbulgar</title>
<path fill="none" stroke="black" stroke-dasharray="5,2" d="M2506.99,-238C2501.08,-238 2495.17,-238 2489.26,-238"/>
</g>
<!-- unknownwifevladimir1 -->
<g id="node36" class="node"><title>unknownwifevladimir1</title>
<a xlink:href="http://genealogy.obdurodon.org/findPerson.php?person=unknown-wife-vladimir1" xlink:title="unknown" target="_parent">
<polygon fill="white" stroke="deeppink" points="2949,-256 2883,-256 2883,-220 2949,-220 2949,-256"/>
<text text-anchor="middle" x="2916" y="-234.9" font-family="Times Roman,serif" font-size="14.00">unknown</text>
</a>
</g>
<!-- vladimir1ANDunknownwifevladimir1 -->
<g id="node53" class="node"><title>vladimir1ANDunknownwifevladimir1</title>
<ellipse fill="black" stroke="black" cx="2865" cy="-238" rx="0.0108" ry="0.0108"/>
</g>
<!-- unknownwifevladimir1&#45;&gt;vladimir1ANDunknownwifevladimir1 -->
<g id="edge49" class="edge"><title>unknownwifevladimir1&#45;&gt;vladimir1ANDunknownwifevladimir1</title>
<path fill="none" stroke="black" stroke-dasharray="5,2" d="M2882.79,-238C2876.99,-238 2871.2,-238 2865.4,-238"/>
</g>
<!-- iaropolk1ANDgreeknun -->
<g id="node37" class="node"><title>iaropolk1ANDgreeknun</title>
<ellipse fill="black" stroke="black" cx="261" cy="-238" rx="0.0108" ry="0.0108"/>
</g>
<!-- iaropolk1ANDgreeknun&#45;&gt;iaropolk1 -->
<g id="edge27" class="edge"><title>iaropolk1ANDgreeknun&#45;&gt;iaropolk1</title>
<path fill="none" stroke="black" stroke-dasharray="5,2" d="M261.008,-238.077C261.186,-239.645 264.259,-264.889 279,-274 307.733,-291.758 397.87,-280.584 431,-274 448.796,-270.463 467.516,-263.226 483.013,-256.161"/>
</g>
<!-- iaropolk1ANDgreeknun&#45;&gt;greeknun -->
<g id="edge29" class="edge"><title>iaropolk1ANDgreeknun&#45;&gt;greeknun</title>
<path fill="none" stroke="black" stroke-dasharray="5,2" d="M261.367,-238C267.219,-238 273.071,-238 278.923,-238"/>
</g>
<!-- sviatopolk1 -->
<g id="node97" class="node"><title>sviatopolk1</title>
<a xlink:href="http://genealogy.obdurodon.org/findPerson.php?person=sviatopolk1" xlink:title="Sviatopolk Iaropolchich" target="_parent">
<polygon fill="white" stroke="blue" points="334,-146 188,-146 188,-110 334,-110 334,-146"/>
<text text-anchor="middle" x="261" y="-124.9" font-family="Times Roman,serif" font-size="14.00">Sviatopolk Iaropolchich</text>
</a>
</g>
<!-- iaropolk1ANDgreeknun&#45;&gt;sviatopolk1 -->
<g id="edge125" class="edge"><title>iaropolk1ANDgreeknun&#45;&gt;sviatopolk1</title>
<path fill="none" stroke="black" d="M261,-237.92C261,-235.461 261,-176.72 261,-146.141"/>
</g>
<!-- vladimir1ANDczech1 -->
<g id="node40" class="node"><title>vladimir1ANDczech1</title>
<ellipse fill="black" stroke="black" cx="1641" cy="-238" rx="0.0108" ry="0.0108"/>
</g>
<!-- vladimir1ANDczech1&#45;&gt;vladimir1 -->
<g id="edge31" class="edge"><title>vladimir1ANDczech1&#45;&gt;vladimir1</title>
<path fill="none" stroke="black" stroke-dasharray="5,2" d="M1641.05,-238.01C1645.48,-238.822 1929.52,-290.759 2157,-274 2215.16,-269.715 2280.53,-259.735 2328.8,-251.368"/>
</g>
<!-- vladimir1ANDczech1&#45;&gt;czech1 -->
<g id="edge33" class="edge"><title>vladimir1ANDczech1&#45;&gt;czech1</title>
<path fill="none" stroke="black" stroke-dasharray="5,2" d="M1641.41,-238C1749.84,-238 1858.28,-238 1966.71,-238"/>
</g>
<!-- vysheslav1 -->
<g id="node99" class="node"><title>vysheslav1</title>
<a xlink:href="http://genealogy.obdurodon.org/findPerson.php?person=vysheslav1" xlink:title="Vysheslav Vladimirich" target="_parent">
<polygon fill="white" stroke="green" points="676,-146 534,-146 534,-110 676,-110 676,-146"/>
<text text-anchor="middle" x="605" y="-124.9" font-family="Times Roman,serif" font-size="14.00">Vysheslav Vladimirich</text>
</a>
</g>
<!-- vladimir1ANDczech1&#45;&gt;vysheslav1 -->
<g id="edge127" class="edge"><title>vladimir1ANDczech1&#45;&gt;vysheslav1</title>
<path fill="none" stroke="black" d="M1640.9,-237.995C1632.66,-237.613 1103.2,-212.9 685,-146 682.048,-145.528 679.042,-145.012 676.011,-144.463"/>
</g>
<!-- vladimir1ANDrogneda -->
<g id="node43" class="node"><title>vladimir1ANDrogneda</title>
<ellipse fill="black" stroke="black" cx="3209" cy="-238" rx="0.0108" ry="0.0108"/>
</g>
<!-- vladimir1ANDrogneda&#45;&gt;vladimir1 -->
<g id="edge35" class="edge"><title>vladimir1ANDrogneda&#45;&gt;vladimir1</title>
<path fill="none" stroke="black" stroke-dasharray="5,2" d="M3208.99,-238.077C3208.81,-239.645 3205.74,-264.889 3191,-274 3157.82,-294.504 2527.28,-281.449 2489,-274 2470.84,-270.466 2451.7,-263.229 2435.83,-256.164"/>
</g>
<!-- vladimir1ANDrogneda&#45;&gt;rogneda -->
<g id="edge37" class="edge"><title>vladimir1ANDrogneda&#45;&gt;rogneda</title>
<path fill="none" stroke="black" stroke-dasharray="5,2" d="M3209.38,-238C3215.21,-238 3221.03,-238 3226.85,-238"/>
</g>
<!-- vladimir1ANDrognedaSon -->
<g id="node77" class="node"><title>vladimir1ANDrognedaSon</title>
<ellipse fill="black" stroke="black" cx="3097" cy="-183" rx="0.0108" ry="0.0108"/>
</g>
<!-- vladimir1ANDrogneda&#45;&gt;vladimir1ANDrognedaSon -->
<g id="edge88" class="edge"><title>vladimir1ANDrogneda&#45;&gt;vladimir1ANDrognedaSon</title>
<path fill="none" stroke="black" d="M3208.97,-237.863C3208.69,-236.516 3206.27,-225.567 3200,-220 3164.19,-188.212 3099.07,-183.154 3097.05,-183.004"/>
</g>
<!-- vladimir1ANDczech2 -->
<g id="node46" class="node"><title>vladimir1ANDczech2</title>
<ellipse fill="black" stroke="black" cx="2623" cy="-238" rx="0.0108" ry="0.0108"/>
</g>
<!-- vladimir1ANDczech2&#45;&gt;vladimir1 -->
<g id="edge39" class="edge"><title>vladimir1ANDczech2&#45;&gt;vladimir1</title>
<path fill="none" stroke="black" stroke-dasharray="5,2" d="M2622.99,-238.077C2622.81,-239.645 2619.74,-264.889 2605,-274 2561.14,-301.104 2539.61,-283.847 2489,-274 2470.84,-270.466 2451.7,-263.229 2435.83,-256.164"/>
</g>
<!-- vladimir1ANDczech2&#45;&gt;czech2 -->
<g id="edge41" class="edge"><title>vladimir1ANDczech2&#45;&gt;czech2</title>
<path fill="none" stroke="black" stroke-dasharray="5,2" d="M2623.47,-238C2629.28,-238 2635.09,-238 2640.89,-238"/>
</g>
<!-- vladimir1ANDczech2Son -->
<g id="node82" class="node"><title>vladimir1ANDczech2Son</title>
<ellipse fill="black" stroke="black" cx="2953" cy="-183" rx="0.0108" ry="0.0108"/>
</g>
<!-- vladimir1ANDczech2&#45;&gt;vladimir1ANDczech2Son -->
<g id="edge90" class="edge"><title>vladimir1ANDczech2&#45;&gt;vladimir1ANDczech2Son</title>
<path fill="none" stroke="black" d="M2623.02,-237.854C2623.23,-236.422 2625.13,-224.81 2632,-220 2661.18,-199.565 2948.46,-183.257 2952.95,-183.003"/>
</g>
<!-- vladimir1ANDbulgar&#45;&gt;vladimir1 -->
<g id="edge45" class="edge"><title>vladimir1ANDbulgar&#45;&gt;vladimir1</title>
<path fill="none" stroke="black" stroke-dasharray="5,2" d="M2488.72,-238C2482.91,-238 2477.09,-238 2471.27,-238"/>
</g>
<!-- vladimir1ANDbulgarSon -->
<g id="node85" class="node"><title>vladimir1ANDbulgarSon</title>
<ellipse fill="black" stroke="black" cx="2489" cy="-183" rx="0.0108" ry="0.0108"/>
</g>
<!-- vladimir1ANDbulgar&#45;&gt;vladimir1ANDbulgarSon -->
<g id="edge92" class="edge"><title>vladimir1ANDbulgar&#45;&gt;vladimir1ANDbulgarSon</title>
<path fill="none" stroke="black" d="M2489,-237.842C2489,-234.717 2489,-186.179 2489,-183.148"/>
</g>
<!-- vladimir1ANDunknownwifevladimir1&#45;&gt;vladimir1 -->
<g id="edge51" class="edge"><title>vladimir1ANDunknownwifevladimir1&#45;&gt;vladimir1</title>
<path fill="none" stroke="black" stroke-dasharray="5,2" d="M2864.99,-238.077C2864.81,-239.645 2861.74,-264.889 2847,-274 2813.16,-294.912 2528.05,-281.598 2489,-274 2470.84,-270.466 2451.7,-263.229 2435.83,-256.164"/>
</g>
<!-- pozvizdSon -->
<g id="node72" class="node"><title>pozvizdSon</title>
<polygon fill="none" stroke="black" points="3043,-183.5 3043,-183.5 3043,-182.5 3043,-182.5 3043,-183.5"/>
</g>
<!-- vladimir1ANDunknownwifevladimir1&#45;&gt;pozvizdSon -->
<g id="edge94" class="edge"><title>vladimir1ANDunknownwifevladimir1&#45;&gt;pozvizdSon</title>
<path fill="none" stroke="black" d="M2865.02,-237.858C2865.26,-236.464 2867.38,-225.15 2874,-220 2888.58,-208.655 3031.19,-184.948 3042.31,-183.113"/>
</g>
<!-- unknowndaughtervladimir1Son -->
<g id="node60" class="node"><title>unknowndaughtervladimir1Son</title>
<polygon fill="none" stroke="black" points="2561,-183.5 2561,-183.5 2561,-182.5 2561,-182.5 2561,-183.5"/>
</g>
<!-- iaroslav1Son -->
<g id="node61" class="node"><title>iaroslav1Son</title>
<polygon fill="none" stroke="black" points="2579,-183.5 2579,-183.5 2579,-182.5 2579,-182.5 2579,-183.5"/>
</g>
<!-- unknowndaughtervladimir1Son&#45;&gt;iaroslav1Son -->
<g id="edge60" class="edge"><title>unknowndaughtervladimir1Son&#45;&gt;iaroslav1Son</title>
<path fill="none" stroke="black" d="M2561.56,-183C2567.19,-183 2572.82,-183 2578.46,-183"/>
</g>
<!-- unknowndaughtervladimir1 -->
<g id="node100" class="node"><title>unknowndaughtervladimir1</title>
<a xlink:href="http://genealogy.obdurodon.org/findPerson.php?person=unknown-daughter-vladimir1" xlink:title="N.N. Vladimirovna" target="_parent">
<polygon fill="white" stroke="deeppink" points="2314,-146 2192,-146 2192,-110 2314,-110 2314,-146"/>
<text text-anchor="middle" x="2253" y="-124.9" font-family="Times Roman,serif" font-size="14.00">N.N. Vladimirovna</text>
</a>
</g>
<!-- unknowndaughtervladimir1Son&#45;&gt;unknowndaughtervladimir1 -->
<g id="edge129" class="edge"><title>unknowndaughtervladimir1Son&#45;&gt;unknowndaughtervladimir1</title>
<path fill="none" stroke="black" d="M2560.14,-182.899C2548.58,-181.541 2422.94,-166.566 2323,-146 2320.05,-145.393 2317.04,-144.742 2314,-144.059"/>
</g>
<!-- iziaslav1Son -->
<g id="node62" class="node"><title>iziaslav1Son</title>
<polygon fill="none" stroke="black" points="2908,-183.5 2908,-183.5 2908,-182.5 2908,-182.5 2908,-183.5"/>
</g>
<!-- iaroslav1Son&#45;&gt;iziaslav1Son -->
<g id="edge62" class="edge"><title>iaroslav1Son&#45;&gt;iziaslav1Son</title>
<path fill="none" stroke="black" d="M2579.64,-183C2688.88,-183 2798.12,-183 2907.36,-183"/>
</g>
<!-- iaroslav1 -->
<g id="node101" class="node"><title>iaroslav1</title>
<a xlink:href="http://genealogy.obdurodon.org/findPerson.php?person=iaroslav1" xlink:title="Iaroslav “Mudryi” Vladimirich Georgii" target="_parent">
<polygon fill="white" stroke="blue" points="2564,-146 2332,-146 2332,-110 2564,-110 2564,-146"/>
<text text-anchor="middle" x="2448" y="-124.9" font-family="Times Roman,serif" font-size="14.00">Iaroslav “Mudryi” Vladimirich Georgii</text>
</a>
</g>
<!-- iaroslav1Son&#45;&gt;iaroslav1 -->
<g id="edge131" class="edge"><title>iaroslav1Son&#45;&gt;iaroslav1</title>
<path fill="none" stroke="black" d="M2578.16,-182.649C2571.5,-179.849 2526.3,-160.876 2491.02,-146.061"/>
</g>
<!-- iziaslav1Son&#45;&gt;vladimir1ANDrognedaSon -->
<g id="edge64" class="edge"><title>iziaslav1Son&#45;&gt;vladimir1ANDrognedaSon</title>
<path fill="none" stroke="black" d="M2908.6,-183.367C2912.43,-185.664 2933.72,-198.096 2953,-202 3007.89,-213.112 3027.56,-224.127 3079,-202 3089.02,-197.691 3096.07,-184.762 3096.92,-183.163"/>
</g>
<!-- iziaslav1 -->
<g id="node102" class="node"><title>iziaslav1</title>
<a xlink:href="http://genealogy.obdurodon.org/findPerson.php?person=iziaslav1" xlink:title="Iziaslav Vladimirich" target="_parent">
<polygon fill="white" stroke="blue" points="2926,-146 2798,-146 2798,-110 2926,-110 2926,-146"/>
<text text-anchor="middle" x="2862" y="-124.9" font-family="Times Roman,serif" font-size="14.00">Iziaslav Vladimirich</text>
</a>
</g>
<!-- iziaslav1Son&#45;&gt;iziaslav1 -->
<g id="edge133" class="edge"><title>iziaslav1Son&#45;&gt;iziaslav1</title>
<path fill="none" stroke="black" d="M2907.48,-182.382C2904.5,-178.818 2889.21,-160.538 2877.17,-146.142"/>
</g>
<!-- predslavaSon -->
<g id="node63" class="node"><title>predslavaSon</title>
<polygon fill="none" stroke="black" points="2971,-183.5 2971,-183.5 2971,-182.5 2971,-182.5 2971,-183.5"/>
</g>
<!-- vsevolod1Son -->
<g id="node64" class="node"><title>vsevolod1Son</title>
<polygon fill="none" stroke="black" points="2989,-183.5 2989,-183.5 2989,-182.5 2989,-182.5 2989,-183.5"/>
</g>
<!-- predslavaSon&#45;&gt;vsevolod1Son -->
<g id="edge68" class="edge"><title>predslavaSon&#45;&gt;vsevolod1Son</title>
<path fill="none" stroke="black" d="M2971.56,-183C2977.19,-183 2982.82,-183 2988.46,-183"/>
</g>
<!-- predslavaSon&#45;&gt;vladimir1ANDrognedaSon -->
<g id="edge66" class="edge"><title>predslavaSon&#45;&gt;vladimir1ANDrognedaSon</title>
<path fill="none" stroke="black" d="M2971.34,-183.628C2972.88,-186.448 2979.65,-197.978 2989,-202 3025.75,-217.805 3042.25,-217.805 3079,-202 3089.02,-197.691 3096.07,-184.762 3096.92,-183.163"/>
</g>
<!-- predslava -->
<g id="node103" class="node"><title>predslava</title>
<a xlink:href="http://genealogy.obdurodon.org/findPerson.php?person=predslava" xlink:title="Predslava Vladimirovna" target="_parent">
<polygon fill="white" stroke="green" points="3092,-146 2944,-146 2944,-110 3092,-110 3092,-146"/>
<text text-anchor="middle" x="3018" y="-124.9" font-family="Times Roman,serif" font-size="14.00">Predslava Vladimirovna</text>
</a>
</g>
<!-- predslavaSon&#45;&gt;predslava -->
<g id="edge135" class="edge"><title>predslavaSon&#45;&gt;predslava</title>
<path fill="none" stroke="black" d="M2971.53,-182.382C2974.57,-178.818 2990.19,-160.538 3002.5,-146.142"/>
</g>
<!-- mstislav1Son -->
<g id="node65" class="node"><title>mstislav1Son</title>
<polygon fill="none" stroke="black" points="3007,-183.5 3007,-183.5 3007,-182.5 3007,-182.5 3007,-183.5"/>
</g>
<!-- vsevolod1Son&#45;&gt;mstislav1Son -->
<g id="edge70" class="edge"><title>vsevolod1Son&#45;&gt;mstislav1Son</title>
<path fill="none" stroke="black" d="M2989.56,-183C2995.19,-183 3000.82,-183 3006.46,-183"/>
</g>
<!-- vsevolod1 -->
<g id="node104" class="node"><title>vsevolod1</title>
<a xlink:href="http://genealogy.obdurodon.org/findPerson.php?person=vsevolod1" xlink:title="Vsevolod Vladimirich" target="_parent">
<polygon fill="white" stroke="green" points="3248,-146 3110,-146 3110,-110 3248,-110 3248,-146"/>
<text text-anchor="middle" x="3179" y="-124.9" font-family="Times Roman,serif" font-size="14.00">Vsevolod Vladimirich</text>
</a>
</g>
<!-- vsevolod1Son&#45;&gt;vsevolod1 -->
<g id="edge137" class="edge"><title>vsevolod1Son&#45;&gt;vsevolod1</title>
<path fill="none" stroke="black" d="M2989.55,-182.842C2996.28,-180.892 3064.1,-161.26 3116.7,-146.035"/>
</g>
<!-- mstislav1 -->
<g id="node105" class="node"><title>mstislav1</title>
<a xlink:href="http://genealogy.obdurodon.org/findPerson.php?person=mstislav1" xlink:title="Mstislav “Khrabryi” Vladimirich" target="_parent">
<polygon fill="white" stroke="blue" points="3464,-146 3266,-146 3266,-110 3464,-110 3464,-146"/>
<text text-anchor="middle" x="3365" y="-124.9" font-family="Times Roman,serif" font-size="14.00">Mstislav “Khrabryi” Vladimirich</text>
</a>
</g>
<!-- mstislav1Son&#45;&gt;mstislav1 -->
<g id="edge139" class="edge"><title>mstislav1Son&#45;&gt;mstislav1</title>
<path fill="none" stroke="black" d="M3007.9,-182.873C3019.97,-181.172 3151.24,-162.637 3257,-146 3259.91,-145.542 3262.86,-145.074 3265.85,-144.598"/>
</g>
<!-- sviatoslav2Son -->
<g id="node66" class="node"><title>sviatoslav2Son</title>
<polygon fill="none" stroke="black" points="3025,-183.5 3025,-183.5 3025,-182.5 3025,-182.5 3025,-183.5"/>
</g>
<!-- sviatoslav2Son&#45;&gt;vladimir1ANDczech2Son -->
<g id="edge72" class="edge"><title>sviatoslav2Son&#45;&gt;vladimir1ANDczech2Son</title>
<path fill="none" stroke="black" d="M3024.66,-183.628C3023.12,-186.448 3016.35,-197.978 3007,-202 2992.3,-208.322 2985.7,-208.322 2971,-202 2960.98,-197.691 2953.93,-184.762 2953.08,-183.163"/>
</g>
<!-- sviatoslav2 -->
<g id="node106" class="node"><title>sviatoslav2</title>
<a xlink:href="http://genealogy.obdurodon.org/findPerson.php?person=sviatoslav2" xlink:title="Sviatoslav Vladimirich" target="_parent">
<polygon fill="white" stroke="green" points="3726,-146 3584,-146 3584,-110 3726,-110 3726,-146"/>
<text text-anchor="middle" x="3655" y="-124.9" font-family="Times Roman,serif" font-size="14.00">Sviatoslav Vladimirich</text>
</a>
</g>
<!-- sviatoslav2Son&#45;&gt;sviatoslav2 -->
<g id="edge141" class="edge"><title>sviatoslav2Son&#45;&gt;sviatoslav2</title>
<path fill="none" stroke="black" d="M3025.84,-182.894C3027.43,-182.696 3030.99,-182.267 3034,-182 3274.03,-160.689 3336.51,-180.552 3575,-146 3577.82,-145.592 3580.68,-145.137 3583.57,-144.647"/>
</g>
<!-- mstislavSon -->
<g id="node67" class="node"><title>mstislavSon</title>
<polygon fill="none" stroke="black" points="3061,-183.5 3061,-183.5 3061,-182.5 3061,-182.5 3061,-183.5"/>
</g>
<!-- mstislavSon&#45;&gt;vladimir1ANDczech2Son -->
<g id="edge74" class="edge"><title>mstislavSon&#45;&gt;vladimir1ANDczech2Son</title>
<path fill="none" stroke="black" d="M3060.66,-183.628C3059.12,-186.448 3052.35,-197.978 3043,-202 3013.6,-214.644 3000.4,-214.644 2971,-202 2960.98,-197.691 2953.93,-184.762 2953.08,-183.163"/>
</g>
<!-- mstislav -->
<g id="node107" class="node"><title>mstislav</title>
<a xlink:href="http://genealogy.obdurodon.org/findPerson.php?person=mstislav" xlink:title="Mstislav Vladimirich" target="_parent">
<polygon fill="white" stroke="green" points="4026,-146 3892,-146 3892,-110 4026,-110 4026,-146"/>
<text text-anchor="middle" x="3959" y="-124.9" font-family="Times Roman,serif" font-size="14.00">Mstislav Vladimirich</text>
</a>
</g>
<!-- mstislavSon&#45;&gt;mstislav -->
<g id="edge143" class="edge"><title>mstislavSon&#45;&gt;mstislav</title>
<path fill="none" stroke="black" d="M3061.84,-182.888C3063.43,-182.679 3066.99,-182.234 3070,-182 3430.6,-154.014 3524.77,-195.899 3883,-146 3885.95,-145.588 3888.96,-145.115 3891.99,-144.592"/>
</g>
<!-- boris1Son -->
<g id="node68" class="node"><title>boris1Son</title>
<polygon fill="none" stroke="black" points="3079,-183.5 3079,-183.5 3079,-182.5 3079,-182.5 3079,-183.5"/>
</g>
<!-- boris1Son&#45;&gt;vladimir1ANDbulgarSon -->
<g id="edge76" class="edge"><title>boris1Son&#45;&gt;vladimir1ANDbulgarSon</title>
<path fill="none" stroke="black" d="M3078.66,-183.628C3077.12,-186.448 3070.35,-197.978 3061,-202 3032.73,-214.161 2535.27,-214.161 2507,-202 2496.98,-197.691 2489.93,-184.762 2489.08,-183.163"/>
</g>
<!-- boris1 -->
<g id="node108" class="node"><title>boris1</title>
<a xlink:href="http://genealogy.obdurodon.org/findPerson.php?person=boris1" xlink:title="Boris Vladimirich Roman" target="_parent">
<polygon fill="white" stroke="green" points="4202,-146 4044,-146 4044,-110 4202,-110 4202,-146"/>
<text text-anchor="middle" x="4123" y="-124.9" font-family="Times Roman,serif" font-size="14.00">Boris Vladimirich Roman</text>
</a>
</g>
<!-- boris1Son&#45;&gt;boris1 -->
<g id="edge145" class="edge"><title>boris1Son&#45;&gt;boris1</title>
<path fill="none" stroke="black" d="M3079.84,-182.886C3081.43,-182.675 3084.99,-182.224 3088,-182 3508.03,-150.723 3616.83,-196.372 4035,-146 4037.94,-145.646 4040.93,-145.245 4043.95,-144.806"/>
</g>
<!-- glebSon -->
<g id="node69" class="node"><title>glebSon</title>
<polygon fill="none" stroke="black" points="3742,-183.5 3742,-183.5 3742,-182.5 3742,-182.5 3742,-183.5"/>
</g>
<!-- glebSon&#45;&gt;vladimir1ANDbulgarSon -->
<g id="edge78" class="edge"><title>glebSon&#45;&gt;vladimir1ANDbulgarSon</title>
<path fill="none" stroke="black" d="M3741.15,-183.033C3705.65,-184.423 2569.05,-228.69 2507,-202 2496.98,-197.691 2489.93,-184.762 2489.08,-183.163"/>
</g>
<!-- gleb -->
<g id="node109" class="node"><title>gleb</title>
<a xlink:href="http://genealogy.obdurodon.org/findPerson.php?person=gleb" xlink:title="Gleb Vladimirich Davyd" target="_parent">
<polygon fill="white" stroke="green" points="4372,-146 4220,-146 4220,-110 4372,-110 4372,-146"/>
<text text-anchor="middle" x="4296" y="-124.9" font-family="Times Roman,serif" font-size="14.00">Gleb Vladimirich Davyd</text>
</a>
</g>
<!-- glebSon&#45;&gt;gleb -->
<g id="edge147" class="edge"><title>glebSon&#45;&gt;gleb</title>
<path fill="none" stroke="black" d="M3742.76,-182.979C3758.33,-182.537 4010.53,-175.009 4211,-146 4213.84,-145.59 4216.72,-145.141 4219.63,-144.662"/>
</g>
<!-- dobronegamariaSon -->
<g id="node70" class="node"><title>dobronegamariaSon</title>
<polygon fill="none" stroke="black" points="2543,-183.5 2543,-183.5 2543,-182.5 2543,-182.5 2543,-183.5"/>
</g>
<!-- dobronegamariaSon&#45;&gt;pozvizdSon -->
<g id="edge80" class="edge"><title>dobronegamariaSon&#45;&gt;pozvizdSon</title>
<path fill="none" stroke="black" d="M2543.34,-183.628C2544.88,-186.448 2551.65,-197.978 2561,-202 2608.36,-222.371 2977.64,-222.371 3025,-202 3034.35,-197.978 3041.12,-186.448 3042.66,-183.628"/>
</g>
<!-- dobronegamaria -->
<g id="node110" class="node"><title>dobronegamaria</title>
<a xlink:href="http://genealogy.obdurodon.org/findPerson.php?person=dobronega-maria" xlink:title="Dobronega&#45;Maria Vladimirovna" target="_parent">
<polygon fill="white" stroke="deeppink" points="1792,-146 1598,-146 1598,-110 1792,-110 1792,-146"/>
<text text-anchor="middle" x="1695" y="-124.9" font-family="Times Roman,serif" font-size="14.00">Dobronega&#45;Maria Vladimirovna</text>
</a>
</g>
<!-- dobronegamariaSon&#45;&gt;dobronegamaria -->
<g id="edge149" class="edge"><title>dobronegamariaSon&#45;&gt;dobronegamaria</title>
<path fill="none" stroke="black" d="M2542.16,-182.889C2540.57,-182.683 2537.01,-182.241 2534,-182 2208.87,-155.978 2125.25,-181.366 1801,-146 1798.12,-145.686 1795.21,-145.345 1792.27,-144.979"/>
</g>
<!-- stanislav1Son -->
<g id="node71" class="node"><title>stanislav1Son</title>
<polygon fill="none" stroke="black" points="2525,-183.5 2525,-183.5 2525,-182.5 2525,-182.5 2525,-183.5"/>
</g>
<!-- stanislav1Son&#45;&gt;pozvizdSon -->
<g id="edge82" class="edge"><title>stanislav1Son&#45;&gt;pozvizdSon</title>
<path fill="none" stroke="black" d="M2525.34,-183.628C2526.88,-186.448 2533.65,-197.978 2543,-202 2592.2,-223.161 2975.8,-223.161 3025,-202 3034.35,-197.978 3041.12,-186.448 3042.66,-183.628"/>
</g>
<!-- stanislav1 -->
<g id="node111" class="node"><title>stanislav1</title>
<a xlink:href="http://genealogy.obdurodon.org/findPerson.php?person=stanislav1" xlink:title="Stanislav Vladimirich" target="_parent">
<polygon fill="white" stroke="green" points="1580,-146 1444,-146 1444,-110 1580,-110 1580,-146"/>
<text text-anchor="middle" x="1512" y="-124.9" font-family="Times Roman,serif" font-size="14.00">Stanislav Vladimirich</text>
</a>
</g>
<!-- stanislav1Son&#45;&gt;stanislav1 -->
<g id="edge151" class="edge"><title>stanislav1Son&#45;&gt;stanislav1</title>
<path fill="none" stroke="black" d="M2524.16,-182.886C2522.57,-182.675 2519.01,-182.225 2516,-182 2104.84,-151.214 1997.6,-201.178 1589,-146 1586.14,-145.614 1583.24,-145.171 1580.31,-144.681"/>
</g>
<!-- pozvizd -->
<g id="node112" class="node"><title>pozvizd</title>
<a xlink:href="http://genealogy.obdurodon.org/findPerson.php?person=pozvizd" xlink:title="Pozvizd Vladimirich" target="_parent">
<polygon fill="white" stroke="green" points="3874,-146 3744,-146 3744,-110 3874,-110 3874,-146"/>
<text text-anchor="middle" x="3809" y="-124.9" font-family="Times Roman,serif" font-size="14.00">Pozvizd Vladimirich</text>
</a>
</g>
<!-- pozvizdSon&#45;&gt;pozvizd -->
<g id="edge153" class="edge"><title>pozvizdSon&#45;&gt;pozvizd</title>
<path fill="none" stroke="black" d="M3043.84,-182.89C3045.43,-182.686 3048.99,-182.246 3052,-182 3354.96,-157.205 3434.24,-190.113 3735,-146 3737.88,-145.578 3740.81,-145.095 3743.76,-144.566"/>
</g>
<!-- sudislavSon -->
<g id="node73" class="node"><title>sudislavSon</title>
<polygon fill="none" stroke="black" points="2507,-183.5 2507,-183.5 2507,-182.5 2507,-182.5 2507,-183.5"/>
</g>
<!-- sudislavSon&#45;&gt;pozvizdSon -->
<g id="edge84" class="edge"><title>sudislavSon&#45;&gt;pozvizdSon</title>
<path fill="none" stroke="black" d="M2507.34,-183.628C2508.88,-186.448 2515.65,-197.978 2525,-202 2576.03,-223.952 2973.97,-223.952 3025,-202 3034.35,-197.978 3041.12,-186.448 3042.66,-183.628"/>
</g>
<!-- sudislav -->
<g id="node113" class="node"><title>sudislav</title>
<a xlink:href="http://genealogy.obdurodon.org/findPerson.php?person=sudislav" xlink:title="Sudislav Vladimirich" target="_parent">
<polygon fill="white" stroke="green" points="1248,-146 1116,-146 1116,-110 1248,-110 1248,-146"/>
<text text-anchor="middle" x="1182" y="-124.9" font-family="Times Roman,serif" font-size="14.00">Sudislav Vladimirich</text>
</a>
</g>
<!-- sudislavSon&#45;&gt;sudislav -->
<g id="edge155" class="edge"><title>sudislavSon&#45;&gt;sudislav</title>
<path fill="none" stroke="black" d="M2506.16,-182.883C2504.57,-182.668 2501.01,-182.211 2498,-182 1947.56,-143.501 1803.97,-218.774 1257,-146 1254.08,-145.611 1251.11,-145.157 1248.11,-144.65"/>
</g>
<!-- premislavaSon -->
<g id="node74" class="node"><title>premislavaSon</title>
<polygon fill="none" stroke="black" points="1749,-183.5 1749,-183.5 1749,-182.5 1749,-182.5 1749,-183.5"/>
</g>
<!-- premislavaSon&#45;&gt;pozvizdSon -->
<g id="edge86" class="edge"><title>premislavaSon&#45;&gt;pozvizdSon</title>
<path fill="none" stroke="black" d="M1749.67,-183.024C1768.22,-183.687 2167.74,-197.876 2489,-202 2548.55,-202.764 2970.29,-225.532 3025,-202 3034.35,-197.978 3041.12,-186.448 3042.66,-183.628"/>
</g>
<!-- premislava -->
<g id="node114" class="node"><title>premislava</title>
<a xlink:href="http://genealogy.obdurodon.org/findPerson.php?person=premislava" xlink:title="N.N. “Premislava” Vladimirovna" target="_parent">
<polygon fill="white" stroke="deeppink" points="996,-146 796,-146 796,-110 996,-110 996,-146"/>
<text text-anchor="middle" x="896" y="-124.9" font-family="Times Roman,serif" font-size="14.00">N.N. “Premislava” Vladimirovna</text>
</a>
</g>
<!-- premislavaSon&#45;&gt;premislava -->
<g id="edge157" class="edge"><title>premislavaSon&#45;&gt;premislava</title>
<path fill="none" stroke="black" d="M1748.32,-182.997C1729.6,-182.9 1326.48,-180.424 1005,-146 1002.04,-145.683 999.046,-145.339 996.023,-144.972"/>
</g>
<!-- unknownboleslavna -->
<g id="node98" class="node"><title>unknownboleslavna</title>
<a xlink:href="http://genealogy.obdurodon.org/findPerson.php?person=unknown-boleslavna" xlink:title="N.N. Boleslavna of Poland" target="_parent">
<polygon fill="white" stroke="deeppink" points="516,-146 352,-146 352,-110 516,-110 516,-146"/>
<text text-anchor="middle" x="434" y="-124.9" font-family="Times Roman,serif" font-size="14.00">N.N. Boleslavna of Poland</text>
</a>
</g>
<!-- sviatopolk1&#45;&gt;unknownboleslavna -->
<g id="edge97" class="edge"><title>sviatopolk1&#45;&gt;unknownboleslavna</title>
<path fill="none" stroke="black" stroke-dasharray="5,2" d="M334.322,-128C340.163,-128 346.003,-128 351.844,-128"/>
</g>
<!-- bernhard -->
<g id="node115" class="node"><title>bernhard</title>
<a xlink:href="http://genealogy.obdurodon.org/findPerson.php?person=bernhard" xlink:title="Bernhard of the German Empire" target="_parent">
<polygon fill="white" stroke="blue" points="2174,-146 1980,-146 1980,-110 2174,-110 2174,-146"/>
<text text-anchor="middle" x="2077" y="-124.9" font-family="Times Roman,serif" font-size="14.00">Bernhard of the German Empire</text>
</a>
</g>
<!-- bernhard&#45;&gt;unknowndaughtervladimir1 -->
<g id="edge115" class="edge"><title>bernhard&#45;&gt;unknowndaughtervladimir1</title>
<path fill="none" stroke="black" stroke-dasharray="5,2" d="M2174.28,-128C2180.12,-128 2185.97,-128 2191.81,-128"/>
</g>
<!-- unknownwifeiaroslav1 -->
<g id="node116" class="node"><title>unknownwifeiaroslav1</title>
<a xlink:href="http://genealogy.obdurodon.org/findPerson.php?person=unknown-wife-iaroslav1" xlink:title="unknown" target="_parent">
<polygon fill="white" stroke="deeppink" points="1098,-146 1032,-146 1032,-110 1098,-110 1098,-146"/>
<text text-anchor="middle" x="1065" y="-124.9" font-family="Times Roman,serif" font-size="14.00">unknown</text>
</a>
</g>
<!-- ingigerd -->
<g id="node117" class="node"><title>ingigerd</title>
<a xlink:href="http://genealogy.obdurodon.org/findPerson.php?person=ingigerd" xlink:title="Ingigerd of Sweden" target="_parent">
<polygon fill="white" stroke="deeppink" points="1408,-146 1284,-146 1284,-110 1408,-110 1408,-146"/>
<text text-anchor="middle" x="1346" y="-124.9" font-family="Times Roman,serif" font-size="14.00">Ingigerd of Sweden</text>
</a>
</g>
<!-- iaroslav1ANDingigerd -->
<g id="node126" class="node"><title>iaroslav1ANDingigerd</title>
<ellipse fill="black" stroke="black" cx="1266" cy="-128" rx="0.0108" ry="0.0108"/>
</g>
<!-- ingigerd&#45;&gt;iaroslav1ANDingigerd -->
<g id="edge103" class="edge"><title>ingigerd&#45;&gt;iaroslav1ANDingigerd</title>
<path fill="none" stroke="black" stroke-dasharray="5,2" d="M1283.74,-128C1277.93,-128 1272.12,-128 1266.31,-128"/>
</g>
<!-- unknownwifeiziaslav1 -->
<g id="node118" class="node"><title>unknownwifeiziaslav1</title>
<a xlink:href="http://genealogy.obdurodon.org/findPerson.php?person=unknown-wife-iziaslav1" xlink:title="unknown" target="_parent">
<polygon fill="white" stroke="deeppink" points="778,-146 712,-146 712,-110 778,-110 778,-146"/>
<text text-anchor="middle" x="745" y="-124.9" font-family="Times Roman,serif" font-size="14.00">unknown</text>
</a>
</g>
<!-- unknownwifemstislav1 -->
<g id="node119" class="node"><title>unknownwifemstislav1</title>
<a xlink:href="http://genealogy.obdurodon.org/findPerson.php?person=unknown-wife-mstislav1" xlink:title="unknown" target="_parent">
<polygon fill="white" stroke="deeppink" points="3566,-146 3500,-146 3500,-110 3566,-110 3566,-146"/>
<text text-anchor="middle" x="3533" y="-124.9" font-family="Times Roman,serif" font-size="14.00">unknown</text>
</a>
</g>
<!-- casimir1 -->
<g id="node120" class="node"><title>casimir1</title>
<a xlink:href="http://genealogy.obdurodon.org/findPerson.php?person=casimir1" xlink:title="Casimir “the Restorer” of Poland" target="_parent">
<polygon fill="white" stroke="blue" points="2780,-146 2582,-146 2582,-110 2780,-110 2780,-146"/>
<text text-anchor="middle" x="2681" y="-124.9" font-family="Times Roman,serif" font-size="14.00">Casimir “the Restorer” of Poland</text>
</a>
</g>
<!-- ladislaus -->
<g id="node121" class="node"><title>ladislaus</title>
<a xlink:href="http://genealogy.obdurodon.org/findPerson.php?person=ladislaus" xlink:title="Ladislaus of Hungary" target="_parent">
<polygon fill="white" stroke="blue" points="1944,-146 1810,-146 1810,-110 1944,-110 1944,-146"/>
<text text-anchor="middle" x="1877" y="-124.9" font-family="Times Roman,serif" font-size="14.00">Ladislaus of Hungary</text>
</a>
</g>
<!-- iaroslav1ANDunknownwifeiaroslav1 -->
<g id="node123" class="node"><title>iaroslav1ANDunknownwifeiaroslav1</title>
<ellipse fill="black" stroke="black" cx="1014" cy="-128" rx="0.0108" ry="0.0108"/>
</g>
<!-- iaroslav1ANDunknownwifeiaroslav1&#45;&gt;iaroslav1 -->
<g id="edge99" class="edge"><title>iaroslav1ANDunknownwifeiaroslav1&#45;&gt;iaroslav1</title>
<path fill="none" stroke="black" stroke-dasharray="5,2" d="M1014.01,-128.077C1014.19,-129.645 1017.26,-154.889 1032,-164 1062.29,-182.722 2278.7,-168.66 2314,-164 2340.75,-160.47 2369.74,-153.138 2393.89,-146.006"/>
</g>
<!-- iaroslav1ANDunknownwifeiaroslav1&#45;&gt;unknownwifeiaroslav1 -->
<g id="edge101" class="edge"><title>iaroslav1ANDunknownwifeiaroslav1&#45;&gt;unknownwifeiaroslav1</title>
<path fill="none" stroke="black" stroke-dasharray="5,2" d="M1014.4,-128C1020.2,-128 1025.99,-128 1031.79,-128"/>
</g>
<!-- ilia1 -->
<g id="node205" class="node"><title>ilia1</title>
<a xlink:href="http://genealogy.obdurodon.org/findPerson.php?person=ilia1" xlink:title="Ilia Iaroslavich" target="_parent">
<polygon fill="white" stroke="green" points="482,-36 384,-36 384,-1.77636e-14 482,-3.55271e-15 482,-36"/>
<text text-anchor="middle" x="433" y="-14.9" font-family="Times Roman,serif" font-size="14.00">Ilia Iaroslavich</text>
</a>
</g>
<!-- iaroslav1ANDunknownwifeiaroslav1&#45;&gt;ilia1 -->
<g id="edge245" class="edge"><title>iaroslav1ANDunknownwifeiaroslav1&#45;&gt;ilia1</title>
<path fill="none" stroke="black" d="M1013.98,-127.855C1013.76,-126.434 1011.8,-114.907 1005,-110 817.839,25.053 716.138,-86.8072 491,-36 488.12,-35.3501 485.177,-34.6271 482.218,-33.8547"/>
</g>
<!-- iaroslav1ANDingigerd&#45;&gt;iaroslav1 -->
<g id="edge105" class="edge"><title>iaroslav1ANDingigerd&#45;&gt;iaroslav1</title>
<path fill="none" stroke="black" stroke-dasharray="5,2" d="M1266.01,-128.077C1266.19,-129.645 1269.26,-154.889 1284,-164 1332.68,-194.084 2257.27,-171.488 2314,-164 2340.75,-160.47 2369.74,-153.138 2393.89,-146.006"/>
</g>
<!-- iaroslav1ANDingigerdSon -->
<g id="node184" class="node"><title>iaroslav1ANDingigerdSon</title>
<ellipse fill="black" stroke="black" cx="1319" cy="-73" rx="0.0108" ry="0.0108"/>
</g>
<!-- iaroslav1ANDingigerd&#45;&gt;iaroslav1ANDingigerdSon -->
<g id="edge196" class="edge"><title>iaroslav1ANDingigerd&#45;&gt;iaroslav1ANDingigerdSon</title>
<path fill="none" stroke="black" d="M1266.04,-127.875C1266.44,-126.643 1269.81,-116.585 1275,-110 1290.32,-90.5622 1317.25,-74.0615 1318.92,-73.0492"/>
</g>
<!-- iziaslav1ANDunknownwifeiziaslav1 -->
<g id="node129" class="node"><title>iziaslav1ANDunknownwifeiziaslav1</title>
<ellipse fill="black" stroke="black" cx="694" cy="-128" rx="0.0108" ry="0.0108"/>
</g>
<!-- iziaslav1ANDunknownwifeiziaslav1&#45;&gt;iziaslav1 -->
<g id="edge107" class="edge"><title>iziaslav1ANDunknownwifeiziaslav1&#45;&gt;iziaslav1</title>
<path fill="none" stroke="black" stroke-dasharray="5,2" d="M694.008,-128.077C694.186,-129.645 697.259,-154.889 712,-164 760.865,-194.2 2723.78,-175.798 2780,-164 2796.89,-160.456 2814.55,-153.217 2829.14,-146.154"/>
</g>
<!-- iziaslav1ANDunknownwifeiziaslav1&#45;&gt;unknownwifeiziaslav1 -->
<g id="edge109" class="edge"><title>iziaslav1ANDunknownwifeiziaslav1&#45;&gt;unknownwifeiziaslav1</title>
<path fill="none" stroke="black" stroke-dasharray="5,2" d="M694.398,-128C700.197,-128 705.995,-128 711.793,-128"/>
</g>
<!-- iziaslav1ANDunknownwifeiziaslav1Son -->
<g id="node193" class="node"><title>iziaslav1ANDunknownwifeiziaslav1Son</title>
<ellipse fill="black" stroke="black" cx="337" cy="-73" rx="0.0108" ry="0.0108"/>
</g>
<!-- iziaslav1ANDunknownwifeiziaslav1&#45;&gt;iziaslav1ANDunknownwifeiziaslav1Son -->
<g id="edge200" class="edge"><title>iziaslav1ANDunknownwifeiziaslav1&#45;&gt;iziaslav1ANDunknownwifeiziaslav1Son</title>
<path fill="none" stroke="black" d="M693.98,-127.854C693.771,-126.418 691.89,-114.779 685,-110 622.753,-66.8206 421.314,-82.183 346,-74 342.249,-73.5924 337.621,-73.0701 337.057,-73.0065"/>
</g>
<!-- mstislav1ANDunknownwifemstislav1 -->
<g id="node132" class="node"><title>mstislav1ANDunknownwifemstislav1</title>
<ellipse fill="black" stroke="black" cx="3482" cy="-128" rx="0.0108" ry="0.0108"/>
</g>
<!-- mstislav1ANDunknownwifemstislav1&#45;&gt;mstislav1 -->
<g id="edge111" class="edge"><title>mstislav1ANDunknownwifemstislav1&#45;&gt;mstislav1</title>
<path fill="none" stroke="black" stroke-dasharray="5,2" d="M3481.72,-128C3475.87,-128 3470.02,-128 3464.18,-128"/>
</g>
<!-- mstislav1ANDunknownwifemstislav1&#45;&gt;unknownwifemstislav1 -->
<g id="edge113" class="edge"><title>mstislav1ANDunknownwifemstislav1&#45;&gt;unknownwifemstislav1</title>
<path fill="none" stroke="black" stroke-dasharray="5,2" d="M3482.4,-128C3488.2,-128 3493.99,-128 3499.79,-128"/>
</g>
<!-- eustafii -->
<g id="node232" class="node"><title>eustafii</title>
<a xlink:href="http://genealogy.obdurodon.org/findPerson.php?person=eustafii" xlink:title="Eustafii Mstislavich" target="_parent">
<polygon fill="white" stroke="green" points="6394,-36 6268,-36 6268,-1.77636e-14 6394,-3.55271e-15 6394,-36"/>
<text text-anchor="middle" x="6331" y="-14.9" font-family="Times Roman,serif" font-size="14.00">Eustafii Mstislavich</text>
</a>
</g>
<!-- mstislav1ANDunknownwifemstislav1&#45;&gt;eustafii -->
<g id="edge273" class="edge"><title>mstislav1ANDunknownwifemstislav1&#45;&gt;eustafii</title>
<path fill="none" stroke="black" d="M3482.02,-127.85C3482.2,-126.377 3483.9,-114.457 3491,-110 3552.51,-71.398 6032.97,-83.2586 6105,-74 6163.34,-66.5012 6228.36,-49.4366 6273.64,-36.1022"/>
</g>
<!-- casimir1ANDdobronegamaria -->
<g id="node136" class="node"><title>casimir1ANDdobronegamaria</title>
<ellipse fill="black" stroke="black" cx="1962" cy="-128" rx="0.0108" ry="0.0108"/>
</g>
<!-- casimir1ANDdobronegamaria&#45;&gt;dobronegamaria -->
<g id="edge119" class="edge"><title>casimir1ANDdobronegamaria&#45;&gt;dobronegamaria</title>
<path fill="none" stroke="black" stroke-dasharray="5,2" d="M1961.99,-128.077C1961.81,-129.645 1958.74,-154.889 1944,-164 1893.34,-195.31 1868.87,-172.999 1810,-164 1786.94,-160.475 1762.15,-153.192 1741.52,-146.092"/>
</g>
<!-- casimir1ANDdobronegamaria&#45;&gt;casimir1 -->
<g id="edge117" class="edge"><title>casimir1ANDdobronegamaria&#45;&gt;casimir1</title>
<path fill="none" stroke="black" stroke-dasharray="5,2" d="M1962.01,-128.077C1962.19,-129.645 1965.26,-154.889 1980,-164 2035.2,-198.114 2499.83,-173.649 2564,-164 2587.43,-160.476 2612.65,-153.193 2633.65,-146.093"/>
</g>
<!-- mieszkoSon -->
<g id="node175" class="node"><title>mieszkoSon</title>
<polygon fill="none" stroke="black" points="2408,-73.5 2408,-73.5 2408,-72.5 2408,-72.5 2408,-73.5"/>
</g>
<!-- casimir1ANDdobronegamaria&#45;&gt;mieszkoSon -->
<g id="edge202" class="edge"><title>casimir1ANDdobronegamaria&#45;&gt;mieszkoSon</title>
<path fill="none" stroke="black" d="M1962.02,-127.853C1962.22,-126.408 1964.06,-114.704 1971,-110 2050.02,-56.4591 2304,-83.271 2399,-74 2402,-73.7068 2405.56,-73.2909 2407.16,-73.1013"/>
</g>
<!-- ladislausANDpremislava -->
<g id="node139" class="node"><title>ladislausANDpremislava</title>
<ellipse fill="black" stroke="black" cx="1426" cy="-128" rx="0.0108" ry="0.0108"/>
</g>
<!-- ladislausANDpremislava&#45;&gt;premislava -->
<g id="edge123" class="edge"><title>ladislausANDpremislava&#45;&gt;premislava</title>
<path fill="none" stroke="black" stroke-dasharray="5,2" d="M1425.99,-128.077C1425.81,-129.645 1422.74,-154.889 1408,-164 1370.76,-187.015 1057.3,-170.458 1014,-164 990.38,-160.477 964.95,-153.194 943.768,-146.094"/>
</g>
<!-- ladislausANDpremislava&#45;&gt;ladislaus -->
<g id="edge121" class="edge"><title>ladislausANDpremislava&#45;&gt;ladislaus</title>
<path fill="none" stroke="black" stroke-dasharray="5,2" d="M1426.01,-128.077C1426.19,-129.645 1429.26,-154.889 1444,-164 1476.89,-184.328 1754.11,-171.694 1792,-164 1809.43,-160.46 1827.73,-153.222 1842.86,-146.158"/>
</g>
<!-- bela1Son -->
<g id="node178" class="node"><title>bela1Son</title>
<polygon fill="none" stroke="black" points="1373,-73.5 1373,-73.5 1373,-72.5 1373,-72.5 1373,-73.5"/>
</g>
<!-- ladislausANDpremislava&#45;&gt;bela1Son -->
<g id="edge198" class="edge"><title>ladislausANDpremislava&#45;&gt;bela1Son</title>
<path fill="none" stroke="black" d="M1425.96,-127.875C1425.56,-126.643 1422.19,-116.585 1417,-110 1402.66,-91.8163 1378.18,-76.2029 1373.71,-73.4352"/>
</g>
<!-- vladimir2Son -->
<g id="node160" class="node"><title>vladimir2Son</title>
<polygon fill="none" stroke="black" points="2318,-73.5 2318,-73.5 2318,-72.5 2318,-72.5 2318,-73.5"/>
</g>
<!-- iziaslav2Son -->
<g id="node161" class="node"><title>iziaslav2Son</title>
<polygon fill="none" stroke="black" points="2336,-73.5 2336,-73.5 2336,-72.5 2336,-72.5 2336,-73.5"/>
</g>
<!-- vladimir2Son&#45;&gt;iziaslav2Son -->
<g id="edge160" class="edge"><title>vladimir2Son&#45;&gt;iziaslav2Son</title>
<path fill="none" stroke="black" d="M2318.56,-73C2324.19,-73 2329.82,-73 2335.46,-73"/>
</g>
<!-- vladimir2 -->
<g id="node206" class="node"><title>vladimir2</title>
<a xlink:href="http://genealogy.obdurodon.org/findPerson.php?person=vladimir2" xlink:title="Vladimir Iaroslavich" target="_parent">
<polygon fill="white" stroke="blue" points="3058,-36 2928,-36 2928,-1.77636e-14 3058,-3.55271e-15 3058,-36"/>
<text text-anchor="middle" x="2993" y="-14.9" font-family="Times Roman,serif" font-size="14.00">Vladimir Iaroslavich</text>
</a>
</g>
<!-- vladimir2Son&#45;&gt;vladimir2 -->
<g id="edge247" class="edge"><title>vladimir2Son&#45;&gt;vladimir2</title>
<path fill="none" stroke="black" d="M2318.84,-72.8922C2320.43,-72.6917 2323.99,-72.2584 2327,-72 2589.63,-49.4383 2658.35,-75.3061 2919,-36 2921.88,-35.5663 2924.8,-35.0741 2927.76,-34.5369"/>
</g>
<!-- agafiaSon -->
<g id="node162" class="node"><title>agafiaSon</title>
<polygon fill="none" stroke="black" points="2354,-73.5 2354,-73.5 2354,-72.5 2354,-72.5 2354,-73.5"/>
</g>
<!-- iziaslav2Son&#45;&gt;agafiaSon -->
<g id="edge162" class="edge"><title>iziaslav2Son&#45;&gt;agafiaSon</title>
<path fill="none" stroke="black" d="M2336.56,-73C2342.19,-73 2347.82,-73 2353.46,-73"/>
</g>
<!-- iziaslav2 -->
<g id="node207" class="node"><title>iziaslav2</title>
<a xlink:href="http://genealogy.obdurodon.org/findPerson.php?person=iziaslav2" xlink:title="Iziaslav Iaroslavich" target="_parent">
<polygon fill="white" stroke="blue" points="3282,-36 3160,-36 3160,-1.77636e-14 3282,-3.55271e-15 3282,-36"/>
<text text-anchor="middle" x="3221" y="-14.9" font-family="Times Roman,serif" font-size="14.00">Iziaslav Iaroslavich</text>
</a>
</g>
<!-- iziaslav2Son&#45;&gt;iziaslav2 -->
<g id="edge249" class="edge"><title>iziaslav2Son&#45;&gt;iziaslav2</title>
<path fill="none" stroke="black" d="M2336.84,-72.8877C2338.43,-72.6796 2341.99,-72.2341 2345,-72 2702.5,-44.1856 2796.35,-88.9339 3151,-36 3153.85,-35.574 3156.76,-35.0792 3159.69,-34.5314"/>
</g>
<!-- anastasiaSon -->
<g id="node163" class="node"><title>anastasiaSon</title>
<polygon fill="none" stroke="black" points="2372,-73.5 2372,-73.5 2372,-72.5 2372,-72.5 2372,-73.5"/>
</g>
<!-- agafiaSon&#45;&gt;anastasiaSon -->
<g id="edge164" class="edge"><title>agafiaSon&#45;&gt;anastasiaSon</title>
<path fill="none" stroke="black" d="M2354.56,-73C2360.19,-73 2365.82,-73 2371.46,-73"/>
</g>
<!-- agafia -->
<g id="node208" class="node"><title>agafia</title>
<a xlink:href="http://genealogy.obdurodon.org/findPerson.php?person=agafia" xlink:title="Agafia Iaroslavna" target="_parent">
<polygon fill="white" stroke="deeppink" points="3754,-36 3642,-36 3642,-1.77636e-14 3754,-3.55271e-15 3754,-36"/>
<text text-anchor="middle" x="3698" y="-14.9" font-family="Times Roman,serif" font-size="14.00">Agafia Iaroslavna</text>
</a>
</g>
<!-- agafiaSon&#45;&gt;agafia -->
<g id="edge251" class="edge"><title>agafiaSon&#45;&gt;agafia</title>
<path fill="none" stroke="black" d="M2354.84,-72.8831C2356.43,-72.6673 2359.99,-72.2096 2363,-72 2644.65,-52.394 3353.8,-77.9812 3633,-36 3635.89,-35.5647 3638.84,-35.0428 3641.81,-34.4553"/>
</g>
<!-- sviatoslav3Son -->
<g id="node164" class="node"><title>sviatoslav3Son</title>
<polygon fill="none" stroke="black" points="2390,-73.5 2390,-73.5 2390,-72.5 2390,-72.5 2390,-73.5"/>
</g>
<!-- anastasiaSon&#45;&gt;sviatoslav3Son -->
<g id="edge166" class="edge"><title>anastasiaSon&#45;&gt;sviatoslav3Son</title>
<path fill="none" stroke="black" d="M2372.56,-73C2378.19,-73 2383.82,-73 2389.46,-73"/>
</g>
<!-- anastasia -->
<g id="node209" class="node"><title>anastasia</title>
<a xlink:href="http://genealogy.obdurodon.org/findPerson.php?person=anastasia" xlink:title="Anastasia Iaroslavna" target="_parent">
<polygon fill="white" stroke="deeppink" points="628,-36 500,-36 500,-1.77636e-14 628,-3.55271e-15 628,-36"/>
<text text-anchor="middle" x="564" y="-14.9" font-family="Times Roman,serif" font-size="14.00">Anastasia Iaroslavna</text>
</a>
</g>
<!-- anastasiaSon&#45;&gt;anastasia -->
<g id="edge253" class="edge"><title>anastasiaSon&#45;&gt;anastasia</title>
<path fill="none" stroke="black" d="M2371.16,-72.8809C2369.57,-72.6617 2366.01,-72.1983 2363,-72 1980.19,-46.7917 1017.34,-86.2286 637,-36 634.153,-35.624 631.256,-35.1797 628.339,-34.6816"/>
</g>
<!-- sviatoslav3Son&#45;&gt;iaroslav1ANDingigerdSon -->
<g id="edge168" class="edge"><title>sviatoslav3Son&#45;&gt;iaroslav1ANDingigerdSon</title>
<path fill="none" stroke="black" d="M2389.66,-73.6279C2388.12,-76.4477 2381.35,-87.9783 2372,-92 2319.18,-114.72 1389.82,-114.72 1337,-92 1326.98,-87.691 1319.93,-74.7622 1319.08,-73.1629"/>
</g>
<!-- sviatoslav3 -->
<g id="node210" class="node"><title>sviatoslav3</title>
<a xlink:href="http://genealogy.obdurodon.org/findPerson.php?person=sviatoslav3" xlink:title="Sviatoslav Iaroslavich" target="_parent">
<polygon fill="white" stroke="blue" points="3980,-36 3844,-36 3844,-1.77636e-14 3980,-3.55271e-15 3980,-36"/>
<text text-anchor="middle" x="3912" y="-14.9" font-family="Times Roman,serif" font-size="14.00">Sviatoslav Iaroslavich</text>
</a>
</g>
<!-- sviatoslav3Son&#45;&gt;sviatoslav3 -->
<g id="edge255" class="edge"><title>sviatoslav3Son&#45;&gt;sviatoslav3</title>
<path fill="none" stroke="black" d="M2390.84,-72.8821C2392.43,-72.6648 2395.99,-72.2047 2399,-72 3035.95,-28.7094 3201.75,-117.086 3835,-36 3837.86,-35.6338 3840.77,-35.2066 3843.7,-34.7308"/>
</g>
<!-- elisabethSon -->
<g id="node165" class="node"><title>elisabethSon</title>
<polygon fill="none" stroke="black" points="3565,-73.5 3565,-73.5 3565,-72.5 3565,-72.5 3565,-73.5"/>
</g>
<!-- anna2Son -->
<g id="node166" class="node"><title>anna2Son</title>
<polygon fill="none" stroke="black" points="5003,-73.5 5003,-73.5 5003,-72.5 5003,-72.5 5003,-73.5"/>
</g>
<!-- elisabethSon&#45;&gt;anna2Son -->
<g id="edge172" class="edge"><title>elisabethSon&#45;&gt;anna2Son</title>
<path fill="none" stroke="black" d="M3565.7,-73C4044.57,-73 4523.43,-73 5002.3,-73"/>
</g>
<!-- elisabethSon&#45;&gt;iaroslav1ANDingigerdSon -->
<g id="edge170" class="edge"><title>elisabethSon&#45;&gt;iaroslav1ANDingigerdSon</title>
<path fill="none" stroke="black" d="M3564.14,-73.0277C3515.72,-74.5756 1449.38,-140.337 1337,-92 1326.98,-87.691 1319.93,-74.7622 1319.08,-73.1629"/>
</g>
<!-- elisabeth -->
<g id="node211" class="node"><title>elisabeth</title>
<a xlink:href="http://genealogy.obdurodon.org/findPerson.php?person=elisabeth" xlink:title="Elisabeth Iaroslavna" target="_parent">
<polygon fill="white" stroke="deeppink" points="4766,-36 4640,-36 4640,-1.77636e-14 4766,-3.55271e-15 4766,-36"/>
<text text-anchor="middle" x="4703" y="-14.9" font-family="Times Roman,serif" font-size="14.00">Elisabeth Iaroslavna</text>
</a>
</g>
<!-- elisabethSon&#45;&gt;elisabeth -->
<g id="edge257" class="edge"><title>elisabethSon&#45;&gt;elisabeth</title>
<path fill="none" stroke="black" d="M3565.6,-72.997C3590.83,-72.8691 4399.95,-68.5216 4631,-36 4633.93,-35.5869 4636.92,-35.1028 4639.93,-34.5637"/>
</g>
<!-- vsevolod2Son -->
<g id="node167" class="node"><title>vsevolod2Son</title>
<polygon fill="none" stroke="black" points="5530,-73.5 5530,-73.5 5530,-72.5 5530,-72.5 5530,-73.5"/>
</g>
<!-- anna2Son&#45;&gt;vsevolod2Son -->
<g id="edge174" class="edge"><title>anna2Son&#45;&gt;vsevolod2Son</title>
<path fill="none" stroke="black" d="M5003.51,-73C5178.84,-73 5354.16,-73 5529.49,-73"/>
</g>
<!-- anna2 -->
<g id="node212" class="node"><title>anna2</title>
<a xlink:href="http://genealogy.obdurodon.org/findPerson.php?person=anna2" xlink:title="Anna Iaroslavna" target="_parent">
<polygon fill="white" stroke="deeppink" points="5056,-36 4950,-36 4950,-1.77636e-14 5056,-3.55271e-15 5056,-36"/>
<text text-anchor="middle" x="5003" y="-14.9" font-family="Times Roman,serif" font-size="14.00">Anna Iaroslavna</text>
</a>
</g>
<!-- anna2Son&#45;&gt;anna2 -->
<g id="edge259" class="edge"><title>anna2Son&#45;&gt;anna2</title>
<path fill="none" stroke="black" d="M5003,-72.3823C5003,-68.8182 5003,-50.5382 5003,-36.1424"/>
</g>
<!-- igor2Son -->
<g id="node168" class="node"><title>igor2Son</title>
<polygon fill="none" stroke="black" points="5871,-73.5 5871,-73.5 5871,-72.5 5871,-72.5 5871,-73.5"/>
</g>
<!-- vsevolod2Son&#45;&gt;igor2Son -->
<g id="edge176" class="edge"><title>vsevolod2Son&#45;&gt;igor2Son</title>
<path fill="none" stroke="black" d="M5530.67,-73C5643.89,-73 5757.11,-73 5870.34,-73"/>
</g>
<!-- vsevolod2 -->
<g id="node213" class="node"><title>vsevolod2</title>
<a xlink:href="http://genealogy.obdurodon.org/findPerson.php?person=vsevolod2" xlink:title="Vsevolod Iaroslavich Andrei" target="_parent">
<polygon fill="white" stroke="blue" points="5616,-36 5444,-36 5444,-1.77636e-14 5616,-3.55271e-15 5616,-36"/>
<text text-anchor="middle" x="5530" y="-14.9" font-family="Times Roman,serif" font-size="14.00">Vsevolod Iaroslavich Andrei</text>
</a>
</g>
<!-- vsevolod2Son&#45;&gt;vsevolod2 -->
<g id="edge261" class="edge"><title>vsevolod2Son&#45;&gt;vsevolod2</title>
<path fill="none" stroke="black" d="M5530,-72.3823C5530,-68.8182 5530,-50.5382 5530,-36.1424"/>
</g>
<!-- viacheslav1Son -->
<g id="node169" class="node"><title>viacheslav1Son</title>
<polygon fill="none" stroke="black" points="6096,-73.5 6096,-73.5 6096,-72.5 6096,-72.5 6096,-73.5"/>
</g>
<!-- igor2Son&#45;&gt;viacheslav1Son -->
<g id="edge178" class="edge"><title>igor2Son&#45;&gt;viacheslav1Son</title>
<path fill="none" stroke="black" d="M5871.88,-73C5946.29,-73 6020.71,-73 6095.12,-73"/>
</g>
<!-- igor2 -->
<g id="node214" class="node"><title>igor2</title>
<a xlink:href="http://genealogy.obdurodon.org/findPerson.php?person=igor2" xlink:title="Igor′ Iaroslavich" target="_parent">
<polygon fill="white" stroke="blue" points="5924,-36 5818,-36 5818,-1.77636e-14 5924,-3.55271e-15 5924,-36"/>
<text text-anchor="middle" x="5871" y="-14.9" font-family="Times Roman,serif" font-size="14.00">Igor′ Iaroslavich</text>
</a>
</g>
<!-- igor2Son&#45;&gt;igor2 -->
<g id="edge263" class="edge"><title>igor2Son&#45;&gt;igor2</title>
<path fill="none" stroke="black" d="M5871,-72.3823C5871,-68.8182 5871,-50.5382 5871,-36.1424"/>
</g>
<!-- viacheslav1 -->
<g id="node215" class="node"><title>viacheslav1</title>
<a xlink:href="http://genealogy.obdurodon.org/findPerson.php?person=viacheslav1" xlink:title="Viacheslav Iaroslavich" target="_parent">
<polygon fill="white" stroke="blue" points="6166,-36 6026,-36 6026,-1.77636e-14 6166,-3.55271e-15 6166,-36"/>
<text text-anchor="middle" x="6096" y="-14.9" font-family="Times Roman,serif" font-size="14.00">Viacheslav Iaroslavich</text>
</a>
</g>
<!-- viacheslav1Son&#45;&gt;viacheslav1 -->
<g id="edge265" class="edge"><title>viacheslav1Son&#45;&gt;viacheslav1</title>
<path fill="none" stroke="black" d="M6096,-72.3823C6096,-68.8182 6096,-50.5382 6096,-36.1424"/>
</g>
<!-- andrewSon -->
<g id="node170" class="node"><title>andrewSon</title>
<polygon fill="none" stroke="black" points="1005,-73.5 1005,-73.5 1005,-72.5 1005,-72.5 1005,-73.5"/>
</g>
<!-- andrewSon&#45;&gt;bela1Son -->
<g id="edge180" class="edge"><title>andrewSon&#45;&gt;bela1Son</title>
<path fill="none" stroke="black" d="M1005.5,-73.0425C1015.86,-73.9132 1183.62,-87.9079 1319,-92 1334.99,-92.4834 1340.3,-98.3221 1355,-92 1364.35,-87.9783 1371.12,-76.4477 1372.66,-73.6279"/>
</g>
<!-- andrew -->
<g id="node219" class="node"><title>andrew</title>
<a xlink:href="http://genealogy.obdurodon.org/findPerson.php?person=andrew" xlink:title="Andrew of Hungary" target="_parent">
<polygon fill="white" stroke="blue" points="772,-36 646,-36 646,-1.77636e-14 772,-3.55271e-15 772,-36"/>
<text text-anchor="middle" x="709" y="-14.9" font-family="Times Roman,serif" font-size="14.00">Andrew of Hungary</text>
</a>
</g>
<!-- andrewSon&#45;&gt;andrew -->
<g id="edge267" class="edge"><title>andrewSon&#45;&gt;andrew</title>
<path fill="none" stroke="black" d="M1004.19,-72.8924C993.321,-71.4422 875.174,-55.5158 781,-36 778.098,-35.3986 775.137,-34.7601 772.149,-34.0958"/>
</g>
<!-- briacheslav1Son -->
<g id="node171" class="node"><title>briacheslav1Son</title>
<polygon fill="none" stroke="black" points="71,-73.5 71,-73.5 71,-72.5 71,-72.5 71,-73.5"/>
</g>
<!-- briacheslav1Son&#45;&gt;iziaslav1ANDunknownwifeiziaslav1Son -->
<g id="edge184" class="edge"><title>briacheslav1Son&#45;&gt;iziaslav1ANDunknownwifeiziaslav1Son</title>
<path fill="none" stroke="black" d="M71.5195,-73C159.927,-73 248.334,-73 336.741,-73"/>
</g>
<!-- briacheslav1 -->
<g id="node229" class="node"><title>briacheslav1</title>
<a xlink:href="http://genealogy.obdurodon.org/findPerson.php?person=briacheslav1" xlink:title="Briacheslav Iziaslavich" target="_parent">
<polygon fill="white" stroke="blue" points="142,-36 7.10543e-14,-36 0,-1.77636e-14 142,-3.55271e-15 142,-36"/>
<text text-anchor="middle" x="71" y="-14.9" font-family="Times Roman,serif" font-size="14.00">Briacheslav Iziaslavich</text>
</a>
</g>
<!-- briacheslav1Son&#45;&gt;briacheslav1 -->
<g id="edge269" class="edge"><title>briacheslav1Son&#45;&gt;briacheslav1</title>
<path fill="none" stroke="black" d="M71,-72.3823C71,-68.8182 71,-50.5382 71,-36.1424"/>
</g>
<!-- vseslav1Son -->
<g id="node172" class="node"><title>vseslav1Son</title>
<polygon fill="none" stroke="black" points="355,-73.5 355,-73.5 355,-72.5 355,-72.5 355,-73.5"/>
</g>
<!-- vseslav1Son&#45;&gt;iziaslav1ANDunknownwifeiziaslav1Son -->
<g id="edge186" class="edge"><title>vseslav1Son&#45;&gt;iziaslav1ANDunknownwifeiziaslav1Son</title>
<path fill="none" stroke="black" d="M354.446,-73C348.725,-73 343.003,-73 337.281,-73"/>
</g>
<!-- vseslav1 -->
<g id="node230" class="node"><title>vseslav1</title>
<a xlink:href="http://genealogy.obdurodon.org/findPerson.php?person=vseslav1" xlink:title="Vseslav Iziaslavich" target="_parent">
<polygon fill="white" stroke="green" points="366,-36 244,-36 244,-1.77636e-14 366,-3.55271e-15 366,-36"/>
<text text-anchor="middle" x="305" y="-14.9" font-family="Times Roman,serif" font-size="14.00">Vseslav Iziaslavich</text>
</a>
</g>
<!-- vseslav1Son&#45;&gt;vseslav1 -->
<g id="edge271" class="edge"><title>vseslav1Son&#45;&gt;vseslav1</title>
<path fill="none" stroke="black" d="M354.438,-72.3823C351.198,-68.8182 334.58,-50.5382 321.493,-36.1424"/>
</g>
<!-- boleslaw2Son -->
<g id="node173" class="node"><title>boleslaw2Son</title>
<polygon fill="none" stroke="black" points="1355,-73.5 1355,-73.5 1355,-72.5 1355,-72.5 1355,-73.5"/>
</g>
<!-- boleslaw2Son&#45;&gt;mieszkoSon -->
<g id="edge188" class="edge"><title>boleslaw2Son&#45;&gt;mieszkoSon</title>
<path fill="none" stroke="black" d="M1355.34,-73.6279C1356.88,-76.4477 1363.65,-87.9783 1373,-92 1424.9,-114.325 2338.1,-114.325 2390,-92 2399.35,-87.9783 2406.12,-76.4477 2407.66,-73.6279"/>
</g>
<!-- boleslaw2 -->
<g id="node233" class="node"><title>boleslaw2</title>
<a xlink:href="http://genealogy.obdurodon.org/findPerson.php?person=boleslaw2" xlink:title="Bolesław II “the Bold” of Poland" target="_parent">
<polygon fill="white" stroke="blue" points="1132,-36 934,-36 934,-1.77636e-14 1132,-3.55271e-15 1132,-36"/>
<text text-anchor="middle" x="1033" y="-14.9" font-family="Times Roman,serif" font-size="14.00">Bolesław II “the Bold” of Poland</text>
</a>
</g>
<!-- boleslaw2Son&#45;&gt;boleslaw2 -->
<g id="edge275" class="edge"><title>boleslaw2Son&#45;&gt;boleslaw2</title>
<path fill="none" stroke="black" d="M1354.48,-72.9108C1345.52,-71.3813 1223.31,-50.5058 1132.21,-34.9453"/>
</g>
<!-- wladyslawSon -->
<g id="node174" class="node"><title>wladyslawSon</title>
<polygon fill="none" stroke="black" points="2300,-73.5 2300,-73.5 2300,-72.5 2300,-72.5 2300,-73.5"/>
</g>
<!-- wladyslawSon&#45;&gt;mieszkoSon -->
<g id="edge190" class="edge"><title>wladyslawSon&#45;&gt;mieszkoSon</title>
<path fill="none" stroke="black" d="M2300.34,-73.6279C2301.88,-76.4477 2308.65,-87.9783 2318,-92 2347.4,-104.644 2360.6,-104.644 2390,-92 2399.35,-87.9783 2406.12,-76.4477 2407.66,-73.6279"/>
</g>
<!-- wladyslaw -->
<g id="node234" class="node"><title>wladyslaw</title>
<a xlink:href="http://genealogy.obdurodon.org/findPerson.php?person=wladyslaw" xlink:title="Władysław Herman of Poland" target="_parent">
<polygon fill="white" stroke="blue" points="2594,-36 2412,-36 2412,-1.77636e-14 2594,-3.55271e-15 2594,-36"/>
<text text-anchor="middle" x="2503" y="-14.9" font-family="Times Roman,serif" font-size="14.00">Władysław Herman of Poland</text>
</a>
</g>
<!-- wladyslawSon&#45;&gt;wladyslaw -->
<g id="edge277" class="edge"><title>wladyslawSon&#45;&gt;wladyslaw</title>
<path fill="none" stroke="black" d="M2300.58,-72.8422C2307.78,-70.8921 2380.24,-51.2597 2436.43,-36.0352"/>
</g>
<!-- mieszko -->
<g id="node235" class="node"><title>mieszko</title>
<a xlink:href="http://genealogy.obdurodon.org/findPerson.php?person=mieszko" xlink:title="Mieszko of Poland" target="_parent">
<polygon fill="white" stroke="green" points="4350,-36 4230,-36 4230,-1.77636e-14 4350,-3.55271e-15 4350,-36"/>
<text text-anchor="middle" x="4290" y="-14.9" font-family="Times Roman,serif" font-size="14.00">Mieszko of Poland</text>
</a>
</g>
<!-- mieszkoSon&#45;&gt;mieszko -->
<g id="edge279" class="edge"><title>mieszkoSon&#45;&gt;mieszko</title>
<path fill="none" stroke="black" d="M2408.66,-72.9961C2445.62,-72.7789 4023.76,-63.3515 4221,-36 4223.94,-35.5919 4226.94,-35.1021 4229.96,-34.5495"/>
</g>
<!-- otto1Son -->
<g id="node176" class="node"><title>otto1Son</title>
<polygon fill="none" stroke="black" points="2180,-73.5 2180,-73.5 2180,-72.5 2180,-72.5 2180,-73.5"/>
</g>
<!-- otto1Son&#45;&gt;mieszkoSon -->
<g id="edge192" class="edge"><title>otto1Son&#45;&gt;mieszkoSon</title>
<path fill="none" stroke="black" d="M2180.8,-73.354C2191.53,-78.0483 2307.95,-127.294 2390,-92 2399.35,-87.9783 2406.12,-76.4477 2407.66,-73.6279"/>
</g>
<!-- otto1 -->
<g id="node236" class="node"><title>otto1</title>
<a xlink:href="http://genealogy.obdurodon.org/findPerson.php?person=otto1" xlink:title="Otto of Poland" target="_parent">
<polygon fill="white" stroke="green" points="2126,-36 2030,-36 2030,-1.77636e-14 2126,-3.55271e-15 2126,-36"/>
<text text-anchor="middle" x="2078" y="-14.9" font-family="Times Roman,serif" font-size="14.00">Otto of Poland</text>
</a>
</g>
<!-- otto1Son&#45;&gt;otto1 -->
<g id="edge281" class="edge"><title>otto1Son&#45;&gt;otto1</title>
<path fill="none" stroke="black" d="M2179.35,-72.6488C2174.16,-69.8493 2138.97,-50.8759 2111.5,-36.0614"/>
</g>
<!-- sviatoslavaSon -->
<g id="node177" class="node"><title>sviatoslavaSon</title>
<polygon fill="none" stroke="black" points="2053,-73.5 2053,-73.5 2053,-72.5 2053,-72.5 2053,-73.5"/>
</g>
<!-- sviatoslavaSon&#45;&gt;mieszkoSon -->
<g id="edge194" class="edge"><title>sviatoslavaSon&#45;&gt;mieszkoSon</title>
<path fill="none" stroke="black" d="M2053.8,-73.1669C2061.71,-74.8046 2126.64,-88.0307 2180,-92 2226.54,-95.4619 2347.13,-110.439 2390,-92 2399.35,-87.9783 2406.12,-76.4477 2407.66,-73.6279"/>
</g>
<!-- sviatoslava -->
<g id="node237" class="node"><title>sviatoslava</title>
<a xlink:href="http://genealogy.obdurodon.org/findPerson.php?person=sviatoslava" xlink:title="Sviatoslava of Poland" target="_parent">
<polygon fill="white" stroke="deeppink" points="2012,-36 1878,-36 1878,-1.77636e-14 2012,-3.55271e-15 2012,-36"/>
<text text-anchor="middle" x="1945" y="-14.9" font-family="Times Roman,serif" font-size="14.00">Sviatoslava of Poland</text>
</a>
</g>
<!-- sviatoslavaSon&#45;&gt;sviatoslava -->
<g id="edge283" class="edge"><title>sviatoslavaSon&#45;&gt;sviatoslava</title>
<path fill="none" stroke="black" d="M2052.31,-72.6488C2046.81,-69.8493 2009.56,-50.8759 1980.47,-36.0614"/>
</g>
<!-- bela1 -->
<g id="node242" class="node"><title>bela1</title>
<a xlink:href="http://genealogy.obdurodon.org/findPerson.php?person=bela1" xlink:title="Bela of Hungary" target="_parent">
<polygon fill="white" stroke="blue" points="1426,-36 1320,-36 1320,-1.77636e-14 1426,-3.55271e-15 1426,-36"/>
<text text-anchor="middle" x="1373" y="-14.9" font-family="Times Roman,serif" font-size="14.00">Bela of Hungary</text>
</a>
</g>
<!-- bela1Son&#45;&gt;bela1 -->
<g id="edge285" class="edge"><title>bela1Son&#45;&gt;bela1</title>
<path fill="none" stroke="black" d="M1373,-72.3823C1373,-68.8182 1373,-50.5382 1373,-36.1424"/>
</g>
<!-- LeventeSon -->
<g id="node179" class="node"><title>LeventeSon</title>
<polygon fill="none" stroke="black" points="1337,-73.5 1337,-73.5 1337,-72.5 1337,-72.5 1337,-73.5"/>
</g>
<!-- LeventeSon&#45;&gt;bela1Son -->
<g id="edge182" class="edge"><title>LeventeSon&#45;&gt;bela1Son</title>
<path fill="none" stroke="black" d="M1337.3,-73.8164C1338.67,-77.4531 1344.82,-92 1355,-92 1365.18,-92 1371.33,-77.4531 1372.7,-73.8164"/>
</g>
<!-- Levente -->
<g id="node243" class="node"><title>Levente</title>
<a xlink:href="http://genealogy.obdurodon.org/findPerson.php?person=Levente" xlink:title="Levente of Hungary" target="_parent">
<polygon fill="white" stroke="green" points="916,-36 790,-36 790,-1.77636e-14 916,-3.55271e-15 916,-36"/>
<text text-anchor="middle" x="853" y="-14.9" font-family="Times Roman,serif" font-size="14.00">Levente of Hungary</text>
</a>
</g>
<!-- LeventeSon&#45;&gt;Levente -->
<g id="edge287" class="edge"><title>LeventeSon&#45;&gt;Levente</title>
<path fill="none" stroke="black" d="M1336.16,-72.9002C1334.56,-72.713 1331,-72.301 1328,-72 1149.07,-54.0698 1102.32,-65.8977 925,-36 922.078,-35.5073 919.099,-34.9578 916.099,-34.3658"/>
</g>
<!-- unknownwifevladimir2 -->
<g id="node216" class="node"><title>unknownwifevladimir2</title>
<a xlink:href="http://genealogy.obdurodon.org/findPerson.php?person=unknown-wife-vladimir2" xlink:title="unknown" target="_parent">
<polygon fill="white" stroke="deeppink" points="3142,-36 3076,-36 3076,-1.77636e-14 3142,-3.55271e-15 3142,-36"/>
<text text-anchor="middle" x="3109" y="-14.9" font-family="Times Roman,serif" font-size="14.00">unknown</text>
</a>
</g>
<!-- vladimir2&#45;&gt;unknownwifevladimir2 -->
<g id="edge205" class="edge"><title>vladimir2&#45;&gt;unknownwifevladimir2</title>
<path fill="none" stroke="black" stroke-dasharray="5,2" d="M3058.25,-18C3064.07,-18 3069.88,-18 3075.7,-18"/>
</g>
<!-- gertrude -->
<g id="node217" class="node"><title>gertrude</title>
<a xlink:href="http://genealogy.obdurodon.org/findPerson.php?person=gertrude" xlink:title="Gertrude of Poland" target="_parent">
<polygon fill="white" stroke="deeppink" points="3420,-36 3300,-36 3300,-1.77636e-14 3420,-3.55271e-15 3420,-36"/>
<text text-anchor="middle" x="3360" y="-14.9" font-family="Times Roman,serif" font-size="14.00">Gertrude of Poland</text>
</a>
</g>
<!-- iziaslav2&#45;&gt;gertrude -->
<g id="edge207" class="edge"><title>iziaslav2&#45;&gt;gertrude</title>
<path fill="none" stroke="black" stroke-dasharray="5,2" d="M3282.08,-18C3287.97,-18 3293.85,-18 3299.74,-18"/>
</g>
<!-- anastasia&#45;&gt;andrew -->
<g id="edge223" class="edge"><title>anastasia&#45;&gt;andrew</title>
<path fill="none" stroke="black" stroke-dasharray="5,2" d="M628.004,-4.68539C633.91,-4.42764 639.816,-4.43865 645.722,-4.71842"/>
</g>
<!-- oda -->
<g id="node221" class="node"><title>oda</title>
<a xlink:href="http://genealogy.obdurodon.org/findPerson.php?person=oda" xlink:title="Oda of Stade of the German Empire" target="_parent">
<polygon fill="white" stroke="deeppink" points="4212,-36 3998,-36 3998,-1.77636e-14 4212,-3.55271e-15 4212,-36"/>
<text text-anchor="middle" x="4105" y="-14.9" font-family="Times Roman,serif" font-size="14.00">Oda of Stade of the German Empire</text>
</a>
</g>
<!-- sviatoslav3&#45;&gt;oda -->
<g id="edge211" class="edge"><title>sviatoslav3&#45;&gt;oda</title>
<path fill="none" stroke="black" stroke-dasharray="5,2" d="M3980.23,-18C3986.08,-18 3991.93,-18 3997.77,-18"/>
</g>
<!-- unknownwifevsevolod2 -->
<g id="node226" class="node"><title>unknownwifevsevolod2</title>
<a xlink:href="http://genealogy.obdurodon.org/findPerson.php?person=unknown-wife-vsevolod2" xlink:title="unknown Anna of Polovtsy" target="_parent">
<polygon fill="white" stroke="deeppink" points="5800,-36 5634,-36 5634,-1.77636e-14 5800,-3.55271e-15 5800,-36"/>
<text text-anchor="middle" x="5717" y="-14.9" font-family="Times Roman,serif" font-size="14.00">unknown Anna of Polovtsy</text>
</a>
</g>
<!-- vsevolod2&#45;&gt;unknownwifevsevolod2 -->
<g id="edge215" class="edge"><title>vsevolod2&#45;&gt;unknownwifevsevolod2</title>
<path fill="none" stroke="black" stroke-dasharray="5,2" d="M5616.2,-18C5622.1,-18 5628.01,-18 5633.91,-18"/>
</g>
<!-- unknownwifeigor2 -->
<g id="node227" class="node"><title>unknownwifeigor2</title>
<a xlink:href="http://genealogy.obdurodon.org/findPerson.php?person=unknown-wife-igor2" xlink:title="unknown" target="_parent">
<polygon fill="white" stroke="deeppink" points="6008,-36 5942,-36 5942,-1.77636e-14 6008,-3.55271e-15 6008,-36"/>
<text text-anchor="middle" x="5975" y="-14.9" font-family="Times Roman,serif" font-size="14.00">unknown</text>
</a>
</g>
<!-- igor2&#45;&gt;unknownwifeigor2 -->
<g id="edge217" class="edge"><title>igor2&#45;&gt;unknownwifeigor2</title>
<path fill="none" stroke="black" stroke-dasharray="5,2" d="M5924.22,-18C5930.04,-18 5935.86,-18 5941.67,-18"/>
</g>
<!-- unknownwifeviacheslav1 -->
<g id="node228" class="node"><title>unknownwifeviacheslav1</title>
<a xlink:href="http://genealogy.obdurodon.org/findPerson.php?person=unknown-wife-viacheslav1" xlink:title="unknown" target="_parent">
<polygon fill="white" stroke="deeppink" points="6250,-36 6184,-36 6184,-1.77636e-14 6250,-3.55271e-15 6250,-36"/>
<text text-anchor="middle" x="6217" y="-14.9" font-family="Times Roman,serif" font-size="14.00">unknown</text>
</a>
</g>
<!-- viacheslav1&#45;&gt;unknownwifeviacheslav1 -->
<g id="edge219" class="edge"><title>viacheslav1&#45;&gt;unknownwifeviacheslav1</title>
<path fill="none" stroke="black" stroke-dasharray="5,2" d="M6166.43,-18C6172.22,-18 6178.02,-18 6183.81,-18"/>
</g>
<!-- edward -->
<g id="node218" class="node"><title>edward</title>
<a xlink:href="http://genealogy.obdurodon.org/findPerson.php?person=edward" xlink:title="Edward “the Exile” of England" target="_parent">
<polygon fill="white" stroke="blue" points="3624,-36 3438,-36 3438,-1.77636e-14 3624,-3.55271e-15 3624,-36"/>
<text text-anchor="middle" x="3531" y="-14.9" font-family="Times Roman,serif" font-size="14.00">Edward “the Exile” of England</text>
</a>
</g>
<!-- edward&#45;&gt;agafia -->
<g id="edge221" class="edge"><title>edward&#45;&gt;agafia</title>
<path fill="none" stroke="black" stroke-dasharray="5,2" d="M3624.29,-18C3630.14,-18 3636,-18 3641.85,-18"/>
</g>
<!-- andrew&#45;&gt;anastasia -->
<g id="edge225" class="edge"><title>andrew&#45;&gt;anastasia</title>
<path fill="none" stroke="black" stroke-dasharray="5,2" d="M645.722,-31.2816C639.816,-31.5613 633.91,-31.5724 628.004,-31.3146"/>
</g>
<!-- kilikia -->
<g id="node220" class="node"><title>kilikia</title>
<a xlink:href="http://genealogy.obdurodon.org/findPerson.php?person=kilikia" xlink:title="Kilikia" target="_parent">
<polygon fill="white" stroke="deeppink" points="3826,-36 3772,-36 3772,-1.77636e-14 3826,-3.55271e-15 3826,-36"/>
<text text-anchor="middle" x="3799" y="-14.9" font-family="Times Roman,serif" font-size="14.00">Kilikia</text>
</a>
</g>
<!-- kilikia&#45;&gt;sviatoslav3 -->
<g id="edge209" class="edge"><title>kilikia&#45;&gt;sviatoslav3</title>
<path fill="none" stroke="black" stroke-dasharray="5,2" d="M3826.37,-18C3832.17,-18 3837.96,-18 3843.76,-18"/>
</g>
<!-- harald1 -->
<g id="node222" class="node"><title>harald1</title>
<a xlink:href="http://genealogy.obdurodon.org/findPerson.php?person=harald1" xlink:title="Harald “Hardrada” Sigurtharson of Norway" target="_parent">
<polygon fill="white" stroke="blue" points="4622,-36 4368,-36 4368,-1.77636e-14 4622,-3.55271e-15 4622,-36"/>
<text text-anchor="middle" x="4495" y="-14.9" font-family="Times Roman,serif" font-size="14.00">Harald “Hardrada” Sigurtharson of Norway</text>
</a>
</g>
<!-- harald1&#45;&gt;elisabeth -->
<g id="edge227" class="edge"><title>harald1&#45;&gt;elisabeth</title>
<path fill="none" stroke="black" stroke-dasharray="5,2" d="M4622.16,-18C4628.05,-18 4633.95,-18 4639.84,-18"/>
</g>
<!-- henry1 -->
<g id="node223" class="node"><title>henry1</title>
<a xlink:href="http://genealogy.obdurodon.org/findPerson.php?person=henry1" xlink:title="Henry I Capet of France" target="_parent">
<polygon fill="white" stroke="blue" points="4932,-36 4784,-36 4784,-1.77636e-14 4932,-3.55271e-15 4932,-36"/>
<text text-anchor="middle" x="4858" y="-14.9" font-family="Times Roman,serif" font-size="14.00">Henry I Capet of France</text>
</a>
</g>
<!-- henry1&#45;&gt;anna2 -->
<g id="edge229" class="edge"><title>henry1&#45;&gt;anna2</title>
<path fill="none" stroke="black" stroke-dasharray="5,2" d="M4932.2,-18C4938.1,-18 4944,-18 4949.9,-18"/>
</g>
<!-- raoul -->
<g id="node224" class="node"><title>raoul</title>
<a xlink:href="http://genealogy.obdurodon.org/findPerson.php?person=raoul" xlink:title="Raoul de Crépy of France" target="_parent">
<polygon fill="white" stroke="blue" points="5232,-36 5074,-36 5074,-1.77636e-14 5232,-3.55271e-15 5232,-36"/>
<text text-anchor="middle" x="5153" y="-14.9" font-family="Times Roman,serif" font-size="14.00">Raoul de Crépy of France</text>
</a>
</g>
<!-- raoul&#45;&gt;anna2 -->
<g id="edge231" class="edge"><title>raoul&#45;&gt;anna2</title>
<path fill="none" stroke="black" stroke-dasharray="5,2" d="M5073.83,-18C5067.9,-18 5061.96,-18 5056.03,-18"/>
</g>
<!-- monomakhina -->
<g id="node225" class="node"><title>monomakhina</title>
<a xlink:href="http://genealogy.obdurodon.org/findPerson.php?person=monomakhina" xlink:title="Monomakhina of Byzantium" target="_parent">
<polygon fill="white" stroke="deeppink" points="5426,-36 5250,-36 5250,-1.77636e-14 5426,-3.55271e-15 5426,-36"/>
<text text-anchor="middle" x="5338" y="-14.9" font-family="Times Roman,serif" font-size="14.00">Monomakhina of Byzantium</text>
</a>
</g>
<!-- monomakhina&#45;&gt;vsevolod2 -->
<g id="edge213" class="edge"><title>monomakhina&#45;&gt;vsevolod2</title>
<path fill="none" stroke="black" stroke-dasharray="5,2" d="M5426.12,-18C5432.08,-18 5438.03,-18 5443.98,-18"/>
</g>
<!-- unknownwifebriacheslav1 -->
<g id="node231" class="node"><title>unknownwifebriacheslav1</title>
<a xlink:href="http://genealogy.obdurodon.org/findPerson.php?person=unknown-wife-briacheslav1" xlink:title="unknown" target="_parent">
<polygon fill="white" stroke="deeppink" points="226,-36 160,-36 160,-1.77636e-14 226,-3.55271e-15 226,-36"/>
<text text-anchor="middle" x="193" y="-14.9" font-family="Times Roman,serif" font-size="14.00">unknown</text>
</a>
</g>
<!-- briacheslav1&#45;&gt;unknownwifebriacheslav1 -->
<g id="edge233" class="edge"><title>briacheslav1&#45;&gt;unknownwifebriacheslav1</title>
<path fill="none" stroke="black" stroke-dasharray="5,2" d="M142.008,-18C147.983,-18 153.959,-18 159.935,-18"/>
</g>
<!-- vysheslava -->
<g id="node238" class="node"><title>vysheslava</title>
<a xlink:href="http://genealogy.obdurodon.org/findPerson.php?person=vysheslava" xlink:title="Vysheslava Sviatoslavna" target="_parent">
<polygon fill="white" stroke="deeppink" points="1302,-36 1150,-36 1150,-1.77636e-14 1302,-3.55271e-15 1302,-36"/>
<text text-anchor="middle" x="1226" y="-14.9" font-family="Times Roman,serif" font-size="14.00">Vysheslava Sviatoslavna</text>
</a>
</g>
<!-- boleslaw2&#45;&gt;vysheslava -->
<g id="edge235" class="edge"><title>boleslaw2&#45;&gt;vysheslava</title>
<path fill="none" stroke="black" stroke-dasharray="5,2" d="M1132.14,-18C1138.01,-18 1143.87,-18 1149.74,-18"/>
</g>
<!-- judith -->
<g id="node240" class="node"><title>judith</title>
<a xlink:href="http://genealogy.obdurodon.org/findPerson.php?person=judith" xlink:title="Judith daughter of Henry III of the German Empire" target="_parent">
<polygon fill="white" stroke="deeppink" points="2910,-36 2612,-36 2612,-1.77636e-14 2910,-3.55271e-15 2910,-36"/>
<text text-anchor="middle" x="2761" y="-14.9" font-family="Times Roman,serif" font-size="14.00">Judith daughter of Henry III of the German Empire</text>
</a>
</g>
<!-- wladyslaw&#45;&gt;judith -->
<g id="edge239" class="edge"><title>wladyslaw&#45;&gt;judith</title>
<path fill="none" stroke="black" stroke-dasharray="5,2" d="M2594.21,-18C2600.07,-18 2605.93,-18 2611.8,-18"/>
</g>
<!-- judith2 -->
<g id="node239" class="node"><title>judith2</title>
<a xlink:href="http://genealogy.obdurodon.org/findPerson.php?person=judith2" xlink:title="Judith daughter of Vratislav II of Bohemia" target="_parent">
<polygon fill="white" stroke="deeppink" points="2394,-36 2144,-36 2144,-1.77636e-14 2394,-3.55271e-15 2394,-36"/>
<text text-anchor="middle" x="2269" y="-14.9" font-family="Times Roman,serif" font-size="14.00">Judith daughter of Vratislav II of Bohemia</text>
</a>
</g>
<!-- judith2&#45;&gt;wladyslaw -->
<g id="edge237" class="edge"><title>judith2&#45;&gt;wladyslaw</title>
<path fill="none" stroke="black" stroke-dasharray="5,2" d="M2394.23,-18C2400.03,-18 2405.84,-18 2411.65,-18"/>
</g>
<!-- vratislav -->
<g id="node241" class="node"><title>vratislav</title>
<a xlink:href="http://genealogy.obdurodon.org/findPerson.php?person=vratislav" xlink:title="Vratislav II of Bohemia" target="_parent">
<polygon fill="white" stroke="blue" points="1860,-36 1714,-36 1714,-1.77636e-14 1860,-3.55271e-15 1860,-36"/>
<text text-anchor="middle" x="1787" y="-14.9" font-family="Times Roman,serif" font-size="14.00">Vratislav II of Bohemia</text>
</a>
</g>
<!-- vratislav&#45;&gt;sviatoslava -->
<g id="edge241" class="edge"><title>vratislav&#45;&gt;sviatoslava</title>
<path fill="none" stroke="black" stroke-dasharray="5,2" d="M1860.14,-18C1865.99,-18 1871.85,-18 1877.71,-18"/>
</g>
<!-- unknowndaughtermieszko2 -->
<g id="node244" class="node"><title>unknowndaughtermieszko2</title>
<a xlink:href="http://genealogy.obdurodon.org/findPerson.php?person=unknown-daughter-mieszko2" xlink:title="unknown daughter of Mieszko II of Poland" target="_parent">
<polygon fill="white" stroke="deeppink" points="1696,-36 1444,-36 1444,-1.77636e-14 1696,-3.55271e-15 1696,-36"/>
<text text-anchor="middle" x="1570" y="-14.9" font-family="Times Roman,serif" font-size="14.00">unknown daughter of Mieszko II of Poland</text>
</a>
</g>
<!-- bela1&#45;&gt;unknowndaughtermieszko2 -->
<g id="edge243" class="edge"><title>bela1&#45;&gt;unknowndaughtermieszko2</title>
<path fill="none" stroke="black" stroke-dasharray="5,2" d="M1426.1,-18C1432,-18 1437.9,-18 1443.8,-18"/>
</g>
</g>
</svg>
