<?xml version="1.0" encoding="UTF-8" standalone="no"?>
<!DOCTYPE svg PUBLIC "-//W3C//DTD SVG 1.1//EN"
 "http://www.w3.org/Graphics/SVG/1.1/DTD/svg11.dtd">
<!-- Generated by graphviz version 2.26.0 (20091210.2329)
 -->
<!-- Title: familyTree Pages: 1 -->
<svg width="2298pt" height="515pt"
 viewBox="0.00 0.00 2298.00 514.99" xmlns="http://www.w3.org/2000/svg" xmlns:xlink="http://www.w3.org/1999/xlink">
<g id="graph1" class="graph" transform="scale(1 1) rotate(0) translate(4 510.986)">
<title>familyTree</title>
<!-- ladislaus -->
<g id="node2" class="node"><title>ladislaus</title>
<a xlink:href="http://genealogy.obdurodon.org/findPerson.php?person=ladislaus" xlink:title="Ladislaus of Hungary" target="_parent">
<polygon fill="white" stroke="blue" points="2278,-476 2144,-476 2144,-440 2278,-440 2278,-476"/>
<text text-anchor="middle" x="2211" y="-454.9" font-family="Times Roman,serif" font-size="14.00">Ladislaus of Hungary</text>
</a>
</g>
<!-- premislava -->
<g id="node3" class="node"><title>premislava</title>
<a xlink:href="http://genealogy.obdurodon.org/findPerson.php?person=premislava" xlink:title="N.N. “Premislava” Vladimirovna" target="_parent">
<polygon fill="white" stroke="deeppink" points="2126,-476 1926,-476 1926,-440 2126,-440 2126,-476"/>
<text text-anchor="middle" x="2026" y="-454.9" font-family="Times Roman,serif" font-size="14.00">N.N. “Premislava” Vladimirovna</text>
</a>
</g>
<!-- ladislausANDpremislava -->
<g id="node4" class="node"><title>ladislausANDpremislava</title>
<ellipse fill="black" stroke="black" cx="1908" cy="-458" rx="0.0108" ry="0.0108"/>
</g>
<!-- ladislausANDpremislava&#45;&gt;ladislaus -->
<g id="edge3" class="edge"><title>ladislausANDpremislava&#45;&gt;ladislaus</title>
<path fill="none" stroke="black" stroke-dasharray="5,2" d="M1908.01,-458.077C1908.19,-459.645 1911.26,-484.889 1926,-494 1963.81,-517.366 2082.44,-502.843 2126,-494 2143.43,-490.46 2161.73,-483.222 2176.86,-476.158"/>
</g>
<!-- ladislausANDpremislava&#45;&gt;premislava -->
<g id="edge5" class="edge"><title>ladislausANDpremislava&#45;&gt;premislava</title>
<path fill="none" stroke="black" stroke-dasharray="5,2" d="M1908.46,-458C1914.28,-458 1920.09,-458 1925.91,-458"/>
</g>
<!-- bela1Son -->
<g id="node9" class="node"><title>bela1Son</title>
<polygon fill="none" stroke="black" points="1908,-403.5 1908,-403.5 1908,-402.5 1908,-402.5 1908,-403.5"/>
</g>
<!-- ladislausANDpremislava&#45;&gt;bela1Son -->
<g id="edge12" class="edge"><title>ladislausANDpremislava&#45;&gt;bela1Son</title>
<path fill="none" stroke="black" d="M1908,-457.842C1908,-454.818 1908,-409.263 1908,-403.58"/>
</g>
<!-- andrewSon -->
<g id="node8" class="node"><title>andrewSon</title>
<polygon fill="none" stroke="black" points="1606,-403.5 1606,-403.5 1606,-402.5 1606,-402.5 1606,-403.5"/>
</g>
<!-- andrewSon&#45;&gt;bela1Son -->
<g id="edge8" class="edge"><title>andrewSon&#45;&gt;bela1Son</title>
<path fill="none" stroke="black" d="M1606.59,-403C1706.86,-403 1807.14,-403 1907.41,-403"/>
</g>
<!-- andrew -->
<g id="node15" class="node"><title>andrew</title>
<a xlink:href="http://genealogy.obdurodon.org/findPerson.php?person=andrew" xlink:title="Andrew of Hungary" target="_parent">
<polygon fill="white" stroke="blue" points="1669,-366 1543,-366 1543,-330 1669,-330 1669,-366"/>
<text text-anchor="middle" x="1606" y="-344.9" font-family="Times Roman,serif" font-size="14.00">Andrew of Hungary</text>
</a>
</g>
<!-- andrewSon&#45;&gt;andrew -->
<g id="edge23" class="edge"><title>andrewSon&#45;&gt;andrew</title>
<path fill="none" stroke="black" d="M1606,-402.382C1606,-398.818 1606,-380.538 1606,-366.142"/>
</g>
<!-- bela1 -->
<g id="node16" class="node"><title>bela1</title>
<a xlink:href="http://genealogy.obdurodon.org/findPerson.php?person=bela1" xlink:title="Bela of Hungary" target="_parent">
<polygon fill="white" stroke="blue" points="1961,-366 1855,-366 1855,-330 1961,-330 1961,-366"/>
<text text-anchor="middle" x="1908" y="-344.9" font-family="Times Roman,serif" font-size="14.00">Bela of Hungary</text>
</a>
</g>
<!-- bela1Son&#45;&gt;bela1 -->
<g id="edge25" class="edge"><title>bela1Son&#45;&gt;bela1</title>
<path fill="none" stroke="black" d="M1908,-402.382C1908,-398.818 1908,-380.538 1908,-366.142"/>
</g>
<!-- LeventeSon -->
<g id="node10" class="node"><title>LeventeSon</title>
<polygon fill="none" stroke="black" points="2042,-403.5 2042,-403.5 2042,-402.5 2042,-402.5 2042,-403.5"/>
</g>
<!-- LeventeSon&#45;&gt;bela1Son -->
<g id="edge10" class="edge"><title>LeventeSon&#45;&gt;bela1Son</title>
<path fill="none" stroke="black" d="M2041.48,-403C1997.16,-403 1952.84,-403 1908.52,-403"/>
</g>
<!-- Levente -->
<g id="node17" class="node"><title>Levente</title>
<a xlink:href="http://genealogy.obdurodon.org/findPerson.php?person=Levente" xlink:title="Levente of Hungary" target="_parent">
<polygon fill="white" stroke="green" points="2105,-366 1979,-366 1979,-330 2105,-330 2105,-366"/>
<text text-anchor="middle" x="2042" y="-344.9" font-family="Times Roman,serif" font-size="14.00">Levente of Hungary</text>
</a>
</g>
<!-- LeventeSon&#45;&gt;Levente -->
<g id="edge27" class="edge"><title>LeventeSon&#45;&gt;Levente</title>
<path fill="none" stroke="black" d="M2042,-402.382C2042,-398.818 2042,-380.538 2042,-366.142"/>
</g>
<!-- anastasia -->
<g id="node18" class="node"><title>anastasia</title>
<a xlink:href="http://genealogy.obdurodon.org/findPerson.php?person=anastasia" xlink:title="Anastasia Iaroslavna" target="_parent">
<polygon fill="white" stroke="deeppink" points="1837,-366 1709,-366 1709,-330 1837,-330 1837,-366"/>
<text text-anchor="middle" x="1773" y="-344.9" font-family="Times Roman,serif" font-size="14.00">Anastasia Iaroslavna</text>
</a>
</g>
<!-- unknowndaughtermieszko2 -->
<g id="node19" class="node"><title>unknowndaughtermieszko2</title>
<a xlink:href="http://genealogy.obdurodon.org/findPerson.php?person=unknown-daughter-mieszko2" xlink:title="unknown daughter of Mieszko II of Poland" target="_parent">
<polygon fill="white" stroke="deeppink" points="1471,-366 1219,-366 1219,-330 1471,-330 1471,-366"/>
<text text-anchor="middle" x="1345" y="-344.9" font-family="Times Roman,serif" font-size="14.00">unknown daughter of Mieszko II of Poland</text>
</a>
</g>
<!-- andrewANDanastasia -->
<g id="node20" class="node"><title>andrewANDanastasia</title>
<ellipse fill="black" stroke="black" cx="1691" cy="-348" rx="0.0108" ry="0.0108"/>
</g>
<!-- andrewANDanastasia&#45;&gt;andrew -->
<g id="edge15" class="edge"><title>andrewANDanastasia&#45;&gt;andrew</title>
<path fill="none" stroke="black" stroke-dasharray="5,2" d="M1690.66,-348C1683.47,-348 1676.28,-348 1669.09,-348"/>
</g>
<!-- andrewANDanastasia&#45;&gt;anastasia -->
<g id="edge17" class="edge"><title>andrewANDanastasia&#45;&gt;anastasia</title>
<path fill="none" stroke="black" stroke-dasharray="5,2" d="M1691.32,-348C1697.17,-348 1703.02,-348 1708.87,-348"/>
</g>
<!-- david3Son -->
<g id="node31" class="node"><title>david3Son</title>
<polygon fill="none" stroke="black" points="1698,-293.5 1698,-293.5 1698,-292.5 1698,-292.5 1698,-293.5"/>
</g>
<!-- andrewANDanastasia&#45;&gt;david3Son -->
<g id="edge34" class="edge"><title>andrewANDanastasia&#45;&gt;david3Son</title>
<path fill="none" stroke="black" d="M1691.02,-347.842C1691.41,-344.818 1697.2,-299.263 1697.93,-293.58"/>
</g>
<!-- bela1ANDunknowndaughtermieszko2 -->
<g id="node23" class="node"><title>bela1ANDunknowndaughtermieszko2</title>
<ellipse fill="black" stroke="black" cx="1174" cy="-348" rx="0.0108" ry="0.0108"/>
</g>
<!-- bela1ANDunknowndaughtermieszko2&#45;&gt;bela1 -->
<g id="edge19" class="edge"><title>bela1ANDunknowndaughtermieszko2&#45;&gt;bela1</title>
<path fill="none" stroke="black" stroke-dasharray="5,2" d="M1174.06,-348.079C1175.31,-349.702 1195.59,-375.787 1219,-384 1283.8,-406.729 1770.21,-399.964 1837,-384 1851.92,-380.434 1867.25,-373.192 1879.83,-366.132"/>
</g>
<!-- bela1ANDunknowndaughtermieszko2&#45;&gt;unknowndaughtermieszko2 -->
<g id="edge21" class="edge"><title>bela1ANDunknowndaughtermieszko2&#45;&gt;unknowndaughtermieszko2</title>
<path fill="none" stroke="black" stroke-dasharray="5,2" d="M1174.33,-348C1189.11,-348 1203.89,-348 1218.67,-348"/>
</g>
<!-- lanka -->
<g id="node42" class="node"><title>lanka</title>
<a xlink:href="http://genealogy.obdurodon.org/findPerson.php?person=lanka" xlink:title="Lanka daughter of Bela I of Hungary" target="_parent">
<polygon fill="white" stroke="deeppink" points="1266,-256 1048,-256 1048,-220 1266,-220 1266,-256"/>
<text text-anchor="middle" x="1157" y="-234.9" font-family="Times Roman,serif" font-size="14.00">Lanka daughter of Bela I of Hungary</text>
</a>
</g>
<!-- bela1ANDunknowndaughtermieszko2&#45;&gt;lanka -->
<g id="edge51" class="edge"><title>bela1ANDunknowndaughtermieszko2&#45;&gt;lanka</title>
<path fill="none" stroke="black" d="M1173.99,-347.92C1173.61,-345.461 1164.53,-286.72 1159.8,-256.141"/>
</g>
<!-- salomonSon -->
<g id="node30" class="node"><title>salomonSon</title>
<polygon fill="none" stroke="black" points="1349,-293.5 1349,-293.5 1349,-292.5 1349,-292.5 1349,-293.5"/>
</g>
<!-- salomonSon&#45;&gt;david3Son -->
<g id="edge30" class="edge"><title>salomonSon&#45;&gt;david3Son</title>
<path fill="none" stroke="black" d="M1349.68,-293C1465.56,-293 1581.44,-293 1697.32,-293"/>
</g>
<!-- salomon -->
<g id="node37" class="node"><title>salomon</title>
<a xlink:href="http://genealogy.obdurodon.org/findPerson.php?person=salomon" xlink:title="Salomon of Hungary" target="_parent">
<polygon fill="white" stroke="blue" points="1414,-256 1284,-256 1284,-220 1414,-220 1414,-256"/>
<text text-anchor="middle" x="1349" y="-234.9" font-family="Times Roman,serif" font-size="14.00">Salomon of Hungary</text>
</a>
</g>
<!-- salomonSon&#45;&gt;salomon -->
<g id="edge45" class="edge"><title>salomonSon&#45;&gt;salomon</title>
<path fill="none" stroke="black" d="M1349,-292.382C1349,-288.818 1349,-270.538 1349,-256.142"/>
</g>
<!-- david3 -->
<g id="node38" class="node"><title>david3</title>
<a xlink:href="http://genealogy.obdurodon.org/findPerson.php?person=david3" xlink:title="David of Hungary" target="_parent">
<polygon fill="white" stroke="green" points="1864,-256 1748,-256 1748,-220 1864,-220 1864,-256"/>
<text text-anchor="middle" x="1806" y="-234.9" font-family="Times Roman,serif" font-size="14.00">David of Hungary</text>
</a>
</g>
<!-- david3Son&#45;&gt;david3 -->
<g id="edge47" class="edge"><title>david3Son&#45;&gt;david3</title>
<path fill="none" stroke="black" d="M1698.69,-292.649C1704.19,-289.849 1741.44,-270.876 1770.53,-256.061"/>
</g>
<!-- adelheidSon -->
<g id="node32" class="node"><title>adelheidSon</title>
<polygon fill="none" stroke="black" points="2168,-293.5 2168,-293.5 2168,-292.5 2168,-292.5 2168,-293.5"/>
</g>
<!-- adelheidSon&#45;&gt;david3Son -->
<g id="edge32" class="edge"><title>adelheidSon&#45;&gt;david3Son</title>
<path fill="none" stroke="black" d="M2167.08,-293C2011.03,-293 1854.97,-293 1698.92,-293"/>
</g>
<!-- adelheid -->
<g id="node39" class="node"><title>adelheid</title>
<a xlink:href="http://genealogy.obdurodon.org/findPerson.php?person=adelheid" xlink:title="Adelheid daughter of Andrew of Hungary" target="_parent">
<polygon fill="white" stroke="deeppink" points="2290,-256 2046,-256 2046,-220 2290,-220 2290,-256"/>
<text text-anchor="middle" x="2168" y="-234.9" font-family="Times Roman,serif" font-size="14.00">Adelheid daughter of Andrew of Hungary</text>
</a>
</g>
<!-- adelheidSon&#45;&gt;adelheid -->
<g id="edge49" class="edge"><title>adelheidSon&#45;&gt;adelheid</title>
<path fill="none" stroke="black" d="M2168,-292.382C2168,-288.818 2168,-270.538 2168,-256.142"/>
</g>
<!-- judith -->
<g id="node40" class="node"><title>judith</title>
<a xlink:href="http://genealogy.obdurodon.org/findPerson.php?person=judith" xlink:title="Judith daughter of Henry III of the German Empire" target="_parent">
<polygon fill="white" stroke="deeppink" points="1730,-256 1432,-256 1432,-220 1730,-220 1730,-256"/>
<text text-anchor="middle" x="1581" y="-234.9" font-family="Times Roman,serif" font-size="14.00">Judith daughter of Henry III of the German Empire</text>
</a>
</g>
<!-- salomon&#45;&gt;judith -->
<g id="edge37" class="edge"><title>salomon&#45;&gt;judith</title>
<path fill="none" stroke="black" stroke-dasharray="5,2" d="M1414.25,-238C1420.11,-238 1425.97,-238 1431.84,-238"/>
</g>
<!-- vratislav -->
<g id="node41" class="node"><title>vratislav</title>
<a xlink:href="http://genealogy.obdurodon.org/findPerson.php?person=vratislav" xlink:title="Vratislav II of Bohemia" target="_parent">
<polygon fill="white" stroke="blue" points="2028,-256 1882,-256 1882,-220 2028,-220 2028,-256"/>
<text text-anchor="middle" x="1955" y="-234.9" font-family="Times Roman,serif" font-size="14.00">Vratislav II of Bohemia</text>
</a>
</g>
<!-- vratislav&#45;&gt;adelheid -->
<g id="edge39" class="edge"><title>vratislav&#45;&gt;adelheid</title>
<path fill="none" stroke="black" stroke-dasharray="5,2" d="M2028.22,-238C2034.13,-238 2040.05,-238 2045.96,-238"/>
</g>
<!-- rostislav -->
<g id="node43" class="node"><title>rostislav</title>
<a xlink:href="http://genealogy.obdurodon.org/findPerson.php?person=rostislav" xlink:title="Rostislav Vladimirich" target="_parent">
<polygon fill="white" stroke="blue" points="1030,-256 894,-256 894,-220 1030,-220 1030,-256"/>
<text text-anchor="middle" x="962" y="-234.9" font-family="Times Roman,serif" font-size="14.00">Rostislav Vladimirich</text>
</a>
</g>
<!-- rostislavANDlanka -->
<g id="node46" class="node"><title>rostislavANDlanka</title>
<ellipse fill="black" stroke="black" cx="876" cy="-238" rx="0.0108" ry="0.0108"/>
</g>
<!-- rostislavANDlanka&#45;&gt;lanka -->
<g id="edge43" class="edge"><title>rostislavANDlanka&#45;&gt;lanka</title>
<path fill="none" stroke="black" stroke-dasharray="5,2" d="M876.008,-238.077C876.186,-239.645 879.259,-264.889 894,-274 945.417,-305.778 970.131,-282.321 1030,-274 1055.42,-270.466 1082.91,-263.134 1105.79,-256.003"/>
</g>
<!-- rostislavANDlanka&#45;&gt;rostislav -->
<g id="edge41" class="edge"><title>rostislavANDlanka&#45;&gt;rostislav</title>
<path fill="none" stroke="black" stroke-dasharray="5,2" d="M876.336,-238C882.136,-238 887.936,-238 893.736,-238"/>
</g>
<!-- volodarSon -->
<g id="node55" class="node"><title>volodarSon</title>
<polygon fill="none" stroke="black" points="876,-183.5 876,-183.5 876,-182.5 876,-182.5 876,-183.5"/>
</g>
<!-- rostislavANDlanka&#45;&gt;volodarSon -->
<g id="edge58" class="edge"><title>rostislavANDlanka&#45;&gt;volodarSon</title>
<path fill="none" stroke="black" d="M876,-237.842C876,-234.818 876,-189.263 876,-183.58"/>
</g>
<!-- riurikSon -->
<g id="node54" class="node"><title>riurikSon</title>
<polygon fill="none" stroke="black" points="730,-183.5 730,-183.5 730,-182.5 730,-182.5 730,-183.5"/>
</g>
<!-- riurikSon&#45;&gt;volodarSon -->
<g id="edge54" class="edge"><title>riurikSon&#45;&gt;volodarSon</title>
<path fill="none" stroke="black" d="M730.57,-183C778.858,-183 827.145,-183 875.432,-183"/>
</g>
<!-- riurik -->
<g id="node61" class="node"><title>riurik</title>
<a xlink:href="http://genealogy.obdurodon.org/findPerson.php?person=riurik" xlink:title="Riurik Rostislavich" target="_parent">
<polygon fill="white" stroke="green" points="791,-146 669,-146 669,-110 791,-110 791,-146"/>
<text text-anchor="middle" x="730" y="-124.9" font-family="Times Roman,serif" font-size="14.00">Riurik Rostislavich</text>
</a>
</g>
<!-- riurikSon&#45;&gt;riurik -->
<g id="edge69" class="edge"><title>riurikSon&#45;&gt;riurik</title>
<path fill="none" stroke="black" d="M730,-182.382C730,-178.818 730,-160.538 730,-146.142"/>
</g>
<!-- volodar -->
<g id="node62" class="node"><title>volodar</title>
<a xlink:href="http://genealogy.obdurodon.org/findPerson.php?person=volodar" xlink:title="Volodar′ Rostislavich" target="_parent">
<polygon fill="white" stroke="blue" points="943,-146 809,-146 809,-110 943,-110 943,-146"/>
<text text-anchor="middle" x="876" y="-124.9" font-family="Times Roman,serif" font-size="14.00">Volodar′ Rostislavich</text>
</a>
</g>
<!-- volodarSon&#45;&gt;volodar -->
<g id="edge71" class="edge"><title>volodarSon&#45;&gt;volodar</title>
<path fill="none" stroke="black" d="M876,-182.382C876,-178.818 876,-160.538 876,-146.142"/>
</g>
<!-- vasilkoSon -->
<g id="node56" class="node"><title>vasilkoSon</title>
<polygon fill="none" stroke="black" points="1711,-183.5 1711,-183.5 1711,-182.5 1711,-182.5 1711,-183.5"/>
</g>
<!-- vasilkoSon&#45;&gt;volodarSon -->
<g id="edge56" class="edge"><title>vasilkoSon&#45;&gt;volodarSon</title>
<path fill="none" stroke="black" d="M1710.19,-183C1432.4,-183 1154.61,-183 876.815,-183"/>
</g>
<!-- vasilko -->
<g id="node63" class="node"><title>vasilko</title>
<a xlink:href="http://genealogy.obdurodon.org/findPerson.php?person=vasilko" xlink:title="Vasil′ko Rostislavich" target="_parent">
<polygon fill="white" stroke="blue" points="1777,-146 1645,-146 1645,-110 1777,-110 1777,-146"/>
<text text-anchor="middle" x="1711" y="-124.9" font-family="Times Roman,serif" font-size="14.00">Vasil′ko Rostislavich</text>
</a>
</g>
<!-- vasilkoSon&#45;&gt;vasilko -->
<g id="edge73" class="edge"><title>vasilkoSon&#45;&gt;vasilko</title>
<path fill="none" stroke="black" d="M1711,-182.382C1711,-178.818 1711,-160.538 1711,-146.142"/>
</g>
<!-- unknownwifevolodar -->
<g id="node64" class="node"><title>unknownwifevolodar</title>
<a xlink:href="http://genealogy.obdurodon.org/findPerson.php?person=unknown-wife-volodar" xlink:title="unknown" target="_parent">
<polygon fill="white" stroke="deeppink" points="651,-146 585,-146 585,-110 651,-110 651,-146"/>
<text text-anchor="middle" x="618" y="-124.9" font-family="Times Roman,serif" font-size="14.00">unknown</text>
</a>
</g>
<!-- unknownwifevasilko -->
<g id="node65" class="node"><title>unknownwifevasilko</title>
<a xlink:href="http://genealogy.obdurodon.org/findPerson.php?person=unknown-wife-vasilko" xlink:title="unknown" target="_parent">
<polygon fill="white" stroke="deeppink" points="1627,-146 1561,-146 1561,-110 1627,-110 1627,-146"/>
<text text-anchor="middle" x="1594" y="-124.9" font-family="Times Roman,serif" font-size="14.00">unknown</text>
</a>
</g>
<!-- volodarANDunknownwifevolodar -->
<g id="node66" class="node"><title>volodarANDunknownwifevolodar</title>
<ellipse fill="black" stroke="black" cx="567" cy="-128" rx="0.0108" ry="0.0108"/>
</g>
<!-- volodarANDunknownwifevolodar&#45;&gt;volodar -->
<g id="edge61" class="edge"><title>volodarANDunknownwifevolodar&#45;&gt;volodar</title>
<path fill="none" stroke="black" stroke-dasharray="5,2" d="M567.008,-128.077C567.186,-129.645 570.259,-154.889 585,-164 623.941,-188.067 746.138,-173.109 791,-164 808.433,-160.46 826.729,-153.222 841.861,-146.158"/>
</g>
<!-- volodarANDunknownwifevolodar&#45;&gt;unknownwifevolodar -->
<g id="edge63" class="edge"><title>volodarANDunknownwifevolodar&#45;&gt;unknownwifevolodar</title>
<path fill="none" stroke="black" stroke-dasharray="5,2" d="M567.398,-128C573.197,-128 578.995,-128 584.793,-128"/>
</g>
<!-- volodarANDunknownwifevolodarSon -->
<g id="node83" class="node"><title>volodarANDunknownwifevolodarSon</title>
<ellipse fill="black" stroke="black" cx="567" cy="-73" rx="0.0108" ry="0.0108"/>
</g>
<!-- volodarANDunknownwifevolodar&#45;&gt;volodarANDunknownwifevolodarSon -->
<g id="edge88" class="edge"><title>volodarANDunknownwifevolodar&#45;&gt;volodarANDunknownwifevolodarSon</title>
<path fill="none" stroke="black" d="M567,-127.842C567,-124.717 567,-76.1788 567,-73.1482"/>
</g>
<!-- vasilkoANDunknownwifevasilko -->
<g id="node69" class="node"><title>vasilkoANDunknownwifevasilko</title>
<ellipse fill="black" stroke="black" cx="1543" cy="-128" rx="0.0108" ry="0.0108"/>
</g>
<!-- vasilkoANDunknownwifevasilko&#45;&gt;vasilko -->
<g id="edge65" class="edge"><title>vasilkoANDunknownwifevasilko&#45;&gt;vasilko</title>
<path fill="none" stroke="black" stroke-dasharray="5,2" d="M1543.01,-128.077C1543.19,-129.645 1546.26,-154.889 1561,-164 1585.95,-179.421 1598.27,-169.898 1627,-164 1644.25,-160.459 1662.34,-153.221 1677.29,-146.157"/>
</g>
<!-- vasilkoANDunknownwifevasilko&#45;&gt;unknownwifevasilko -->
<g id="edge67" class="edge"><title>vasilkoANDunknownwifevasilko&#45;&gt;unknownwifevasilko</title>
<path fill="none" stroke="black" stroke-dasharray="5,2" d="M1543.4,-128C1549.2,-128 1554.99,-128 1560.79,-128"/>
</g>
<!-- vasilkoANDunknownwifevasilkoSon -->
<g id="node87" class="node"><title>vasilkoANDunknownwifevasilkoSon</title>
<ellipse fill="black" stroke="black" cx="1543" cy="-73" rx="0.0108" ry="0.0108"/>
</g>
<!-- vasilkoANDunknownwifevasilko&#45;&gt;vasilkoANDunknownwifevasilkoSon -->
<g id="edge90" class="edge"><title>vasilkoANDunknownwifevasilko&#45;&gt;vasilkoANDunknownwifevasilkoSon</title>
<path fill="none" stroke="black" d="M1543,-127.842C1543,-124.717 1543,-76.1788 1543,-73.1482"/>
</g>
<!-- rostislav5Son -->
<g id="node76" class="node"><title>rostislav5Son</title>
<polygon fill="none" stroke="black" points="65,-73.5 65,-73.5 65,-72.5 65,-72.5 65,-73.5"/>
</g>
<!-- vladimirkoSon -->
<g id="node77" class="node"><title>vladimirkoSon</title>
<polygon fill="none" stroke="black" points="220,-73.5 220,-73.5 220,-72.5 220,-72.5 220,-73.5"/>
</g>
<!-- rostislav5Son&#45;&gt;vladimirkoSon -->
<g id="edge76" class="edge"><title>rostislav5Son&#45;&gt;vladimirkoSon</title>
<path fill="none" stroke="black" d="M65.6055,-73C116.869,-73 168.133,-73 219.397,-73"/>
</g>
<!-- rostislav5 -->
<g id="node93" class="node"><title>rostislav5</title>
<a xlink:href="http://genealogy.obdurodon.org/findPerson.php?person=rostislav5" xlink:title="Rostislav Volodarich" target="_parent">
<polygon fill="white" stroke="green" points="130,-36 5.68434e-14,-36 0,-1.77636e-14 130,-3.55271e-15 130,-36"/>
<text text-anchor="middle" x="65" y="-14.9" font-family="Times Roman,serif" font-size="14.00">Rostislav Volodarich</text>
</a>
</g>
<!-- rostislav5Son&#45;&gt;rostislav5 -->
<g id="edge101" class="edge"><title>rostislav5Son&#45;&gt;rostislav5</title>
<path fill="none" stroke="black" d="M65,-72.3823C65,-68.8182 65,-50.5382 65,-36.1424"/>
</g>
<!-- vladimirkoSon&#45;&gt;volodarANDunknownwifevolodarSon -->
<g id="edge78" class="edge"><title>vladimirkoSon&#45;&gt;volodarANDunknownwifevolodarSon</title>
<path fill="none" stroke="black" d="M220.678,-73C336.006,-73 451.334,-73 566.662,-73"/>
</g>
<!-- vladimirko -->
<g id="node94" class="node"><title>vladimirko</title>
<a xlink:href="http://genealogy.obdurodon.org/findPerson.php?person=vladimirko" xlink:title="Vladimirko Volodarich" target="_parent">
<polygon fill="white" stroke="blue" points="292,-36 148,-36 148,-1.77636e-14 292,-3.55271e-15 292,-36"/>
<text text-anchor="middle" x="220" y="-14.9" font-family="Times Roman,serif" font-size="14.00">Vladimirko Volodarich</text>
</a>
</g>
<!-- vladimirkoSon&#45;&gt;vladimirko -->
<g id="edge103" class="edge"><title>vladimirkoSon&#45;&gt;vladimirko</title>
<path fill="none" stroke="black" d="M220,-72.3823C220,-68.8182 220,-50.5382 220,-36.1424"/>
</g>
<!-- unknowndaughtervolodarSon -->
<g id="node78" class="node"><title>unknowndaughtervolodarSon</title>
<polygon fill="none" stroke="black" points="913,-73.5 913,-73.5 913,-72.5 913,-72.5 913,-73.5"/>
</g>
<!-- daughterofvolodarSon -->
<g id="node79" class="node"><title>daughterofvolodarSon</title>
<polygon fill="none" stroke="black" points="1193,-73.5 1193,-73.5 1193,-72.5 1193,-72.5 1193,-73.5"/>
</g>
<!-- unknowndaughtervolodarSon&#45;&gt;daughterofvolodarSon -->
<g id="edge82" class="edge"><title>unknowndaughtervolodarSon&#45;&gt;daughterofvolodarSon</title>
<path fill="none" stroke="black" d="M913.547,-73C1006.52,-73 1099.49,-73 1192.45,-73"/>
</g>
<!-- unknowndaughtervolodarSon&#45;&gt;volodarANDunknownwifevolodarSon -->
<g id="edge80" class="edge"><title>unknowndaughtervolodarSon&#45;&gt;volodarANDunknownwifevolodarSon</title>
<path fill="none" stroke="black" d="M912.325,-73C797.329,-73 682.334,-73 567.338,-73"/>
</g>
<!-- unknowndaughtervolodar -->
<g id="node95" class="node"><title>unknowndaughtervolodar</title>
<a xlink:href="http://genealogy.obdurodon.org/findPerson.php?person=unknown-daughter-volodar" xlink:title="N.N. Volodarovna" target="_parent">
<polygon fill="white" stroke="deeppink" points="972,-36 854,-36 854,-1.77636e-14 972,-3.55271e-15 972,-36"/>
<text text-anchor="middle" x="913" y="-14.9" font-family="Times Roman,serif" font-size="14.00">N.N. Volodarovna</text>
</a>
</g>
<!-- unknowndaughtervolodarSon&#45;&gt;unknowndaughtervolodar -->
<g id="edge105" class="edge"><title>unknowndaughtervolodarSon&#45;&gt;unknowndaughtervolodar</title>
<path fill="none" stroke="black" d="M913,-72.3823C913,-68.8182 913,-50.5382 913,-36.1424"/>
</g>
<!-- daughterofvolodar -->
<g id="node96" class="node"><title>daughterofvolodar</title>
<a xlink:href="http://genealogy.obdurodon.org/findPerson.php?person=daughter-of-volodar" xlink:title="N.N. Volodarovna" target="_parent">
<polygon fill="white" stroke="deeppink" points="1252,-36 1134,-36 1134,-1.77636e-14 1252,-3.55271e-15 1252,-36"/>
<text text-anchor="middle" x="1193" y="-14.9" font-family="Times Roman,serif" font-size="14.00">N.N. Volodarovna</text>
</a>
</g>
<!-- daughterofvolodarSon&#45;&gt;daughterofvolodar -->
<g id="edge107" class="edge"><title>daughterofvolodarSon&#45;&gt;daughterofvolodar</title>
<path fill="none" stroke="black" d="M1193,-72.3823C1193,-68.8182 1193,-50.5382 1193,-36.1424"/>
</g>
<!-- unknowndaughtervasilkoSon -->
<g id="node80" class="node"><title>unknowndaughtervasilkoSon</title>
<polygon fill="none" stroke="black" points="1478,-73.5 1478,-73.5 1478,-72.5 1478,-72.5 1478,-73.5"/>
</g>
<!-- unknowndaughtervasilkoSon&#45;&gt;vasilkoANDunknownwifevasilkoSon -->
<g id="edge84" class="edge"><title>unknowndaughtervasilkoSon&#45;&gt;vasilkoANDunknownwifevasilkoSon</title>
<path fill="none" stroke="black" d="M1478.51,-73C1499.92,-73 1521.33,-73 1542.75,-73"/>
</g>
<!-- unknowndaughtervasilko -->
<g id="node100" class="node"><title>unknowndaughtervasilko</title>
<a xlink:href="http://genealogy.obdurodon.org/findPerson.php?person=unknown-daughter-vasilko" xlink:title="N. N. Vasilkovna" target="_parent">
<polygon fill="white" stroke="deeppink" points="1534,-36 1422,-36 1422,-1.77636e-14 1534,-3.55271e-15 1534,-36"/>
<text text-anchor="middle" x="1478" y="-14.9" font-family="Times Roman,serif" font-size="14.00">N. N. Vasilkovna</text>
</a>
</g>
<!-- unknowndaughtervasilkoSon&#45;&gt;unknowndaughtervasilko -->
<g id="edge109" class="edge"><title>unknowndaughtervasilkoSon&#45;&gt;unknowndaughtervasilko</title>
<path fill="none" stroke="black" d="M1478,-72.3823C1478,-68.8182 1478,-50.5382 1478,-36.1424"/>
</g>
<!-- ivanSon -->
<g id="node81" class="node"><title>ivanSon</title>
<polygon fill="none" stroke="black" points="1607,-73.5 1607,-73.5 1607,-72.5 1607,-72.5 1607,-73.5"/>
</g>
<!-- ivanSon&#45;&gt;vasilkoANDunknownwifevasilkoSon -->
<g id="edge86" class="edge"><title>ivanSon&#45;&gt;vasilkoANDunknownwifevasilkoSon</title>
<path fill="none" stroke="black" d="M1606.01,-73C1585.17,-73 1564.34,-73 1543.5,-73"/>
</g>
<!-- ivan -->
<g id="node101" class="node"><title>ivan</title>
<a xlink:href="http://genealogy.obdurodon.org/findPerson.php?person=ivan" xlink:title="Ivan Vasilkovich" target="_parent">
<polygon fill="white" stroke="green" points="1662,-36 1552,-36 1552,-1.77636e-14 1662,-3.55271e-15 1662,-36"/>
<text text-anchor="middle" x="1607" y="-14.9" font-family="Times Roman,serif" font-size="14.00">Ivan Vasilkovich</text>
</a>
</g>
<!-- ivanSon&#45;&gt;ivan -->
<g id="edge111" class="edge"><title>ivanSon&#45;&gt;ivan</title>
<path fill="none" stroke="black" d="M1607,-72.3823C1607,-68.8182 1607,-50.5382 1607,-36.1424"/>
</g>
<!-- unknowndaughterofkoloman -->
<g id="node97" class="node"><title>unknowndaughterofkoloman</title>
<a xlink:href="http://genealogy.obdurodon.org/findPerson.php?person=unknown-daughter-of-koloman" xlink:title="unknown daughter of Koloman of Hungary" target="_parent">
<polygon fill="white" stroke="deeppink" points="564,-36 310,-36 310,-1.77636e-14 564,-3.55271e-15 564,-36"/>
<text text-anchor="middle" x="437" y="-14.9" font-family="Times Roman,serif" font-size="14.00">unknown daughter of Koloman of Hungary</text>
</a>
</g>
<!-- vladimirko&#45;&gt;unknowndaughterofkoloman -->
<g id="edge93" class="edge"><title>vladimirko&#45;&gt;unknowndaughterofkoloman</title>
<path fill="none" stroke="black" stroke-dasharray="5,2" d="M292.051,-18C297.996,-18 303.941,-18 309.886,-18"/>
</g>
<!-- unknowntsarevich -->
<g id="node98" class="node"><title>unknowntsarevich</title>
<a xlink:href="http://genealogy.obdurodon.org/findPerson.php?person=unknown-tsarevich" xlink:title="N.N. “Tsarevich” Comnenus of Byzantium" target="_parent">
<polygon fill="white" stroke="blue" points="836,-36 582,-36 582,-1.77636e-14 836,-3.55271e-15 836,-36"/>
<text text-anchor="middle" x="709" y="-14.9" font-family="Times Roman,serif" font-size="14.00">N.N. “Tsarevich” Comnenus of Byzantium</text>
</a>
</g>
<!-- unknowntsarevich&#45;&gt;unknowndaughtervolodar -->
<g id="edge95" class="edge"><title>unknowntsarevich&#45;&gt;unknowndaughtervolodar</title>
<path fill="none" stroke="black" stroke-dasharray="5,2" d="M836.102,-18C842.009,-18 847.917,-18 853.824,-18"/>
</g>
<!-- roman2 -->
<g id="node99" class="node"><title>roman2</title>
<a xlink:href="http://genealogy.obdurodon.org/findPerson.php?person=roman2" xlink:title="Roman Vladimirich" target="_parent">
<polygon fill="white" stroke="blue" points="1116,-36 990,-36 990,-1.77636e-14 1116,-3.55271e-15 1116,-36"/>
<text text-anchor="middle" x="1053" y="-14.9" font-family="Times Roman,serif" font-size="14.00">Roman Vladimirich</text>
</a>
</g>
<!-- roman2&#45;&gt;daughterofvolodar -->
<g id="edge97" class="edge"><title>roman2&#45;&gt;daughterofvolodar</title>
<path fill="none" stroke="black" stroke-dasharray="5,2" d="M1116.16,-18C1122.07,-18 1127.97,-18 1133.87,-18"/>
</g>
<!-- vratislav2 -->
<g id="node102" class="node"><title>vratislav2</title>
<a xlink:href="http://genealogy.obdurodon.org/findPerson.php?person=vratislav2" xlink:title="Vratislav of Bohemia" target="_parent">
<polygon fill="white" stroke="blue" points="1404,-36 1270,-36 1270,-1.77636e-14 1404,-3.55271e-15 1404,-36"/>
<text text-anchor="middle" x="1337" y="-14.9" font-family="Times Roman,serif" font-size="14.00">Vratislav of Bohemia</text>
</a>
</g>
<!-- vratislav2&#45;&gt;unknowndaughtervasilko -->
<g id="edge99" class="edge"><title>vratislav2&#45;&gt;unknowndaughtervasilko</title>
<path fill="none" stroke="black" stroke-dasharray="5,2" d="M1404.2,-18C1410.06,-18 1415.92,-18 1421.78,-18"/>
</g>
</g>
</svg>
