
        digraph familyTree
        {
            bgcolor="transparent";
            center = true;
            
                subgraph Generation4
                {
                    rank = same;
                    harald1 [shape = box, URL = "http://genealogy.obdurodon.org/findPerson.php?person=harald1", label = "Harald “Hardrada” Sigurtharson of Norway", color = "yellow", fillcolor = white, style = filled, target = _parent];
                    elisabeth [shape = box, URL = "http://genealogy.obdurodon.org/findPerson.php?person=elisabeth", label = "Elisabeth Iaroslavna", color = "red", fillcolor = white, style = filled, target = _parent];
                    harald1ANDelisabeth [shape = point, width = 0, height = 0];
                                            harald1 -> harald1ANDelisabeth [dir = none, style = dashed]
                                            harald1ANDelisabeth -> elisabeth [dir = none, style = dashed]
                                        
                }
                
                    subgraph Generation4Sons
                    {
                        rank = same;
                        maria4Son [shape = rect, width = 0, height = 0, fixedsize = true, label = ""];
                            ingigerd2Son [shape = rect, width = 0, height = 0, fixedsize = true, label = ""];
                            harald1ANDelisabethSon [shape = point, width = 0, height = 0];
                                                maria4Son -> harald1ANDelisabethSon [dir = none];
                                                ingigerd2Son -> harald1ANDelisabethSon [dir = none];
                                            
                    }
                    harald1ANDelisabeth ->
                                harald1ANDelisabethSon [dir = none];
                                
                subgraph Generation3
                {
                    rank = same;
                    maria4 [shape = box, URL = "http://genealogy.obdurodon.org/findPerson.php?person=maria4", label = "Maria of Norway", color = "yellow", fillcolor = white, style = filled, target = _parent];
                    ingigerd2 [shape = box, URL = "http://genealogy.obdurodon.org/findPerson.php?person=ingigerd2", label = "Ingigerd of Norway", color = "yellow", fillcolor = white, style = filled, target = _parent];
                    olav1 [shape = box, URL = "http://genealogy.obdurodon.org/findPerson.php?person=olav1", label = "Olav Sveinsson of Denmark", color = "yellow", fillcolor = white, style = filled, target = _parent];
                    olav1 -> ingigerd2 [dir = none, style = dashed]
                                        
                }
                maria4Son -> maria4 [dir = none];
                        ingigerd2Son -> ingigerd2 [dir = none];
                        
        }
    