
        digraph familyTree
        {
            bgcolor="transparent";
            center = true;
            
                subgraph Generation4
                {
                    rank = same;
                    vsevolod2 [shape = box, URL = "http://genealogy.obdurodon.org/findPerson.php?person=vsevolod2", label = "Vsevolod Iaroslavich Andrei", color = "blue", fillcolor = white, style = filled, target = _parent];
                    monomakhina [shape = box, URL = "http://genealogy.obdurodon.org/findPerson.php?person=monomakhina", label = "Monomakhina of Byzantium", color = "deeppink", fillcolor = white, style = filled, target = _parent];
                    unknownwifevsevolod2 [shape = box, URL = "http://genealogy.obdurodon.org/findPerson.php?person=unknown-wife-vsevolod2", label = "unknown Anna of Polovtsy", color = "deeppink", fillcolor = white, style = filled, target = _parent];
                    vsevolod2ANDmonomakhina [shape = point, width = 0, height = 0];
                                    vsevolod2ANDmonomakhina -> vsevolod2 [dir = none, style=dashed];
                                            vsevolod2ANDmonomakhina -> monomakhina [dir = none, style=dashed];
                                        vsevolod2ANDunknownwifevsevolod2 [shape = point, width = 0, height = 0];
                                    unknownwifevsevolod2 -> vsevolod2ANDunknownwifevsevolod2 [dir = none, style=dashed];
                                            vsevolod2ANDunknownwifevsevolod2 ->  vsevolod2 [dir = none, style=dashed];
                                        
                }
                
                    subgraph Generation4Sons
                    {
                        rank = same;
                        vladimir3Son [shape = rect, width = 0, height = 0, fixedsize = true, label = ""];
                            iankaSon [shape = rect, width = 0, height = 0, fixedsize = true, label = ""];
                            rostislav2Son [shape = rect, width = 0, height = 0, fixedsize = true, label = ""];
                            evpraksiaSon [shape = rect, width = 0, height = 0, fixedsize = true, label = ""];
                            katerinaSon [shape = rect, width = 0, height = 0, fixedsize = true, label = ""];
                            vsevolod2ANDmonomakhinaSon [shape = point, width = 0, height = 0];
                                                vladimir3Son -> vsevolod2ANDmonomakhinaSon [dir = none];
                                                iankaSon -> vsevolod2ANDmonomakhinaSon [dir = none];
                                            rostislav2Son -> evpraksiaSon [dir = none];
                                        katerinaSon -> evpraksiaSon [dir = none];
                                        
                    }
                    vsevolod2ANDmonomakhina ->
                            vsevolod2ANDmonomakhinaSon [dir = none];
                                vsevolod2ANDunknownwifevsevolod2 ->
                            evpraksiaSon [dir = none];
                                
                subgraph Generation3
                {
                    rank = same;
                    vladimir3 [shape = box, URL = "http://genealogy.obdurodon.org/findPerson.php?person=vladimir3", label = "Vladimir “Monomakh” Vsevolodich", color = "blue", fillcolor = white, style = filled, target = _parent];
                    ianka [shape = box, URL = "http://genealogy.obdurodon.org/findPerson.php?person=ianka", label = "Ianka Vsevolodovna", color = "green", fillcolor = white, style = filled, target = _parent];
                    rostislav2 [shape = box, URL = "http://genealogy.obdurodon.org/findPerson.php?person=rostislav2", label = "Rostislav Vsevolodovich", color = "green", fillcolor = white, style = filled, target = _parent];
                    evpraksia [shape = box, URL = "http://genealogy.obdurodon.org/findPerson.php?person=evpraksia", label = "Evpraksia Vsevolodovna Adelheid", color = "deeppink", fillcolor = white, style = filled, target = _parent];
                    katerina [shape = box, URL = "http://genealogy.obdurodon.org/findPerson.php?person=katerina", label = "Katerina Vsevolodovna", color = "green", fillcolor = white, style = filled, target = _parent];
                    gyda [shape = box, URL = "http://genealogy.obdurodon.org/findPerson.php?person=gyda", label = "Gyða Haroldsdottir", color = "deeppink", fillcolor = white, style = filled, target = _parent];
                    unknownwifevladimir3 [shape = box, URL = "http://genealogy.obdurodon.org/findPerson.php?person=unknown-wife-vladimir3", label = "unknown", color = "deeppink", fillcolor = white, style = filled, target = _parent];
                    henry [shape = box, URL = "http://genealogy.obdurodon.org/findPerson.php?person=henry", label = "Henry III “the Long” of Stade of the German Empire", color = "blue", fillcolor = white, style = filled, target = _parent];
                    henry4 [shape = box, URL = "http://genealogy.obdurodon.org/findPerson.php?person=henry4", label = "Henry IV of the German Empire", color = "blue", fillcolor = white, style = filled, target = _parent];
                    vladimir3ANDgyda [shape = point, width = 0, height = 0];
                                    vladimir3ANDgyda -> vladimir3 [dir = none, style=dashed];
                                            vladimir3ANDgyda -> gyda [dir = none, style=dashed];
                                        vladimir3ANDunknownwifevladimir3 [shape = point, width = 0, height = 0];
                                    unknownwifevladimir3 -> vladimir3ANDunknownwifevladimir3 [dir = none, style=dashed];
                                            vladimir3ANDunknownwifevladimir3 ->  vladimir3 [dir = none, style=dashed];
                                        henry -> evpraksia [dir = none, style=dashed];
                                        henry4 -> evpraksia [dir = none, style=dashed];
                                        
                }
                vladimir3Son -> vladimir3 [dir = none];
                        iankaSon -> ianka [dir = none];
                        rostislav2Son -> rostislav2 [dir = none];
                        evpraksiaSon -> evpraksia [dir = none];
                        katerinaSon -> katerina [dir = none];
                        
                    subgraph Generation3Sons
                    {
                        rank = same;
                        mstislav5Son [shape = rect, width = 0, height = 0, fixedsize = true, label = ""];
                            iziaslav5Son [shape = rect, width = 0, height = 0, fixedsize = true, label = ""];
                            sviatoslav4Son [shape = rect, width = 0, height = 0, fixedsize = true, label = ""];
                            iaropolk3Son [shape = rect, width = 0, height = 0, fixedsize = true, label = ""];
                            evfimiiaSon [shape = rect, width = 0, height = 0, fixedsize = true, label = ""];
                            viacheslav3Son [shape = rect, width = 0, height = 0, fixedsize = true, label = ""];
                            agafia2Son [shape = rect, width = 0, height = 0, fixedsize = true, label = ""];
                            maria2Son [shape = rect, width = 0, height = 0, fixedsize = true, label = ""];
                            roman2Son [shape = rect, width = 0, height = 0, fixedsize = true, label = ""];
                            iuriiSon [shape = rect, width = 0, height = 0, fixedsize = true, label = ""];
                            andreiSon [shape = rect, width = 0, height = 0, fixedsize = true, label = ""];
                            mstislav5Son -> evfimiiaSon [dir = none];
                                        iziaslav5Son -> evfimiiaSon [dir = none];
                                        sviatoslav4Son -> evfimiiaSon [dir = none];
                                        iaropolk3Son -> evfimiiaSon [dir = none];
                                        viacheslav3Son -> evfimiiaSon [dir = none];
                                        agafia2Son -> evfimiiaSon [dir = none];
                                        maria2Son -> evfimiiaSon [dir = none];
                                        roman2Son -> evfimiiaSon [dir = none];
                                        vladimir3ANDunknownwifevladimir3Son [shape = point, width = 0, height = 0];
                                                iuriiSon -> vladimir3ANDunknownwifevladimir3Son [dir = none];
                                                andreiSon -> vladimir3ANDunknownwifevladimir3Son [dir = none];
                                            
                    }
                    vladimir3ANDgyda ->
                            evfimiiaSon [dir = none];
                                vladimir3ANDunknownwifevladimir3 ->
                            vladimir3ANDunknownwifevladimir3Son [dir = none];
                                
                subgraph Generation2
                {
                    rank = same;
                    mstislav5 [shape = box, URL = "http://genealogy.obdurodon.org/findPerson.php?person=mstislav5", label = "Mstislav “Harald” Vladimirich", color = "blue", fillcolor = white, style = filled, target = _parent];
                    iziaslav5 [shape = box, URL = "http://genealogy.obdurodon.org/findPerson.php?person=iziaslav5", label = "Iziaslav Vladimirich", color = "green", fillcolor = white, style = filled, target = _parent];
                    sviatoslav4 [shape = box, URL = "http://genealogy.obdurodon.org/findPerson.php?person=sviatoslav4", label = "Sviatoslav Vladimirich", color = "green", fillcolor = white, style = filled, target = _parent];
                    iaropolk3 [shape = box, URL = "http://genealogy.obdurodon.org/findPerson.php?person=iaropolk3", label = "Iaropolk Vladimirich", color = "blue", fillcolor = white, style = filled, target = _parent];
                    evfimiia [shape = box, URL = "http://genealogy.obdurodon.org/findPerson.php?person=evfimiia", label = "Evfimiia Vladimirovna", color = "deeppink", fillcolor = white, style = filled, target = _parent];
                    viacheslav3 [shape = box, URL = "http://genealogy.obdurodon.org/findPerson.php?person=viacheslav3", label = "Viacheslav Vladimirich", color = "blue", fillcolor = white, style = filled, target = _parent];
                    agafia2 [shape = box, URL = "http://genealogy.obdurodon.org/findPerson.php?person=agafia2", label = "Agafia Vladimirovna", color = "deeppink", fillcolor = white, style = filled, target = _parent];
                    maria2 [shape = box, URL = "http://genealogy.obdurodon.org/findPerson.php?person=maria2", label = "Maria Vladimirovna", color = "deeppink", fillcolor = white, style = filled, target = _parent];
                    roman2 [shape = box, URL = "http://genealogy.obdurodon.org/findPerson.php?person=roman2", label = "Roman Vladimirich", color = "blue", fillcolor = white, style = filled, target = _parent];
                    iurii [shape = box, URL = "http://genealogy.obdurodon.org/findPerson.php?person=iurii", label = "Iurii “Dolgorukii” Vladimirich", color = "blue", fillcolor = white, style = filled, target = _parent];
                    andrei [shape = box, URL = "http://genealogy.obdurodon.org/findPerson.php?person=andrei", label = "Andrei Vladimirich", color = "blue", fillcolor = white, style = filled, target = _parent];
                    kristin [shape = box, URL = "http://genealogy.obdurodon.org/findPerson.php?person=kristin", label = "Kristin Ingesdottir of Sweden", color = "deeppink", fillcolor = white, style = filled, target = _parent];
                    daughterdmitriizavidich [shape = box, URL = "http://genealogy.obdurodon.org/findPerson.php?person=daughter-dmitrii-zavidich", label = "unknown daughter of Dmitrii Zavidich", color = "deeppink", fillcolor = white, style = filled, target = _parent];
                    elena [shape = box, URL = "http://genealogy.obdurodon.org/findPerson.php?person=elena", label = "Elena daughter of the ruler of the Ossetians of Ossetia", color = "deeppink", fillcolor = white, style = filled, target = _parent];
                    koloman [shape = box, URL = "http://genealogy.obdurodon.org/findPerson.php?person=koloman", label = "Koloman of Hungary", color = "blue", fillcolor = white, style = filled, target = _parent];
                    unknownpartnerviacheslav3 [shape = box, URL = "http://genealogy.obdurodon.org/findPerson.php?person=unknown-partner-viacheslav3", label = "N.N.", color = "deeppink", fillcolor = white, style = filled, target = _parent];
                    vsevolodko [shape = box, URL = "http://genealogy.obdurodon.org/findPerson.php?person=vsevolodko", label = "Vsevolodko Davidich", color = "blue", fillcolor = white, style = filled, target = _parent];
                    leo [shape = box, URL = "http://genealogy.obdurodon.org/findPerson.php?person=leo", label = "Leo Diogenes of Byzantium", color = "blue", fillcolor = white, style = filled, target = _parent];
                    daughterofvolodar [shape = box, URL = "http://genealogy.obdurodon.org/findPerson.php?person=daughter-of-volodar", label = "N.N. Volodarovna", color = "deeppink", fillcolor = white, style = filled, target = _parent];
                    daughter2ofkhanaepa [shape = box, URL = "http://genealogy.obdurodon.org/findPerson.php?person=daughter2-of-khan-aepa", label = "N.N. Daughter of Khan Aepa of Polovtsy", color = "deeppink", fillcolor = white, style = filled, target = _parent];
                    unknownwifeiurii [shape = box, URL = "http://genealogy.obdurodon.org/findPerson.php?person=unknown-wife-iurii", label = "N.N.", color = "deeppink", fillcolor = white, style = filled, target = _parent];
                    unknownwifeandrei [shape = box, URL = "http://genealogy.obdurodon.org/findPerson.php?person=unknown-wife-andrei", label = "N. N. granddaughter of Tugorkhan of Polovtsy", color = "deeppink", fillcolor = white, style = filled, target = _parent];
                    mstislav5ANDkristin [shape = point, width = 0, height = 0];
                                    mstislav5ANDkristin -> mstislav5 [dir = none, style=dashed];
                                            mstislav5ANDkristin -> kristin [dir = none, style=dashed];
                                        mstislav5ANDdaughterdmitriizavidich [shape = point, width = 0, height = 0];
                                    daughterdmitriizavidich -> mstislav5ANDdaughterdmitriizavidich [dir = none, style=dashed];
                                            mstislav5ANDdaughterdmitriizavidich ->  mstislav5 [dir = none, style=dashed];
                                        iaropolk3 -> elena [dir = none, style=dashed];
                                        viacheslav3ANDunknownpartnerviacheslav3 [shape = point, width = 0, height = 0];
                                    viacheslav3ANDunknownpartnerviacheslav3 -> viacheslav3 [dir = none, style=dashed];
                                            viacheslav3ANDunknownpartnerviacheslav3 -> unknownpartnerviacheslav3 [dir = none, style=dashed];
                                        roman2 -> daughterofvolodar [dir = none, style=dashed];
                                        iuriiANDdaughter2ofkhanaepa [shape = point, width = 0, height = 0];
                                    iuriiANDdaughter2ofkhanaepa -> iurii [dir = none, style=dashed];
                                            iuriiANDdaughter2ofkhanaepa -> daughter2ofkhanaepa [dir = none, style=dashed];
                                        iuriiANDunknownwifeiurii [shape = point, width = 0, height = 0];
                                    unknownwifeiurii -> iuriiANDunknownwifeiurii [dir = none, style=dashed];
                                            iuriiANDunknownwifeiurii ->  iurii [dir = none, style=dashed];
                                        andreiANDunknownwifeandrei [shape = point, width = 0, height = 0];
                                    andreiANDunknownwifeandrei -> andrei [dir = none, style=dashed];
                                            andreiANDunknownwifeandrei -> unknownwifeandrei [dir = none, style=dashed];
                                        kolomanANDevfimiia [shape = point, width = 0, height = 0];
                                    kolomanANDevfimiia -> koloman [dir = none, style=dashed];
                                            kolomanANDevfimiia -> evfimiia [dir = none, style=dashed];
                                        vsevolodkoANDagafia2 [shape = point, width = 0, height = 0];
                                    vsevolodkoANDagafia2 -> vsevolodko [dir = none, style=dashed];
                                            vsevolodkoANDagafia2 -> agafia2 [dir = none, style=dashed];
                                        leoANDmaria2 [shape = point, width = 0, height = 0];
                                    leoANDmaria2 -> leo [dir = none, style=dashed];
                                            leoANDmaria2 -> maria2 [dir = none, style=dashed];
                                        
                }
                mstislav5Son -> mstislav5 [dir = none];
                        iziaslav5Son -> iziaslav5 [dir = none];
                        sviatoslav4Son -> sviatoslav4 [dir = none];
                        iaropolk3Son -> iaropolk3 [dir = none];
                        evfimiiaSon -> evfimiia [dir = none];
                        viacheslav3Son -> viacheslav3 [dir = none];
                        agafia2Son -> agafia2 [dir = none];
                        maria2Son -> maria2 [dir = none];
                        roman2Son -> roman2 [dir = none];
                        iuriiSon -> iurii [dir = none];
                        andreiSon -> andrei [dir = none];
                        
                    subgraph Generation2Sons
                    {
                        rank = same;
                        vsevolod4Son [shape = rect, width = 0, height = 0, fixedsize = true, label = ""];
                            unknowndaughtermstislav5Son [shape = rect, width = 0, height = 0, fixedsize = true, label = ""];
                            daughterofmstislav5Son [shape = rect, width = 0, height = 0, fixedsize = true, label = ""];
                            malfridSon [shape = rect, width = 0, height = 0, fixedsize = true, label = ""];
                            ingeborgSon [shape = rect, width = 0, height = 0, fixedsize = true, label = ""];
                            daughter2mstislav5Son [shape = rect, width = 0, height = 0, fixedsize = true, label = ""];
                            iziaslav3Son [shape = rect, width = 0, height = 0, fixedsize = true, label = ""];
                            sviatopolk3Son [shape = rect, width = 0, height = 0, fixedsize = true, label = ""];
                            mariaSon [shape = rect, width = 0, height = 0, fixedsize = true, label = ""];
                            rostislav6Son [shape = rect, width = 0, height = 0, fixedsize = true, label = ""];
                            rogneda2Son [shape = rect, width = 0, height = 0, fixedsize = true, label = ""];
                            vladimir7Son [shape = rect, width = 0, height = 0, fixedsize = true, label = ""];
                            evfrosiniiaSon [shape = rect, width = 0, height = 0, fixedsize = true, label = ""];
                            boris5Son [shape = rect, width = 0, height = 0, fixedsize = true, label = ""];
                            gleb6Son [shape = rect, width = 0, height = 0, fixedsize = true, label = ""];
                            unknowndaughter2vsevolodkoSon [shape = rect, width = 0, height = 0, fixedsize = true, label = ""];
                            unknowndaughtervsevolodkoSon [shape = rect, width = 0, height = 0, fixedsize = true, label = ""];
                            mstislav6Son [shape = rect, width = 0, height = 0, fixedsize = true, label = ""];
                            rostislav4Son [shape = rect, width = 0, height = 0, fixedsize = true, label = ""];
                            ivankoSon [shape = rect, width = 0, height = 0, fixedsize = true, label = ""];
                            andrei2Son [shape = rect, width = 0, height = 0, fixedsize = true, label = ""];
                            unknowndaughteriuriiSon [shape = rect, width = 0, height = 0, fixedsize = true, label = ""];
                            sviatoslav11Son [shape = rect, width = 0, height = 0, fixedsize = true, label = ""];
                            iaroslav5Son [shape = rect, width = 0, height = 0, fixedsize = true, label = ""];
                            gleb7Son [shape = rect, width = 0, height = 0, fixedsize = true, label = ""];
                            boris6Son [shape = rect, width = 0, height = 0, fixedsize = true, label = ""];
                            olga2Son [shape = rect, width = 0, height = 0, fixedsize = true, label = ""];
                            mstislav8Son [shape = rect, width = 0, height = 0, fixedsize = true, label = ""];
                            vasilko4Son [shape = rect, width = 0, height = 0, fixedsize = true, label = ""];
                            mikhailko2Son [shape = rect, width = 0, height = 0, fixedsize = true, label = ""];
                            roman5Son [shape = rect, width = 0, height = 0, fixedsize = true, label = ""];
                            vsevolod9Son [shape = rect, width = 0, height = 0, fixedsize = true, label = ""];
                            vsevolod4Son -> daughter2mstislav5Son [dir = none];
                                        unknowndaughtermstislav5Son -> daughter2mstislav5Son [dir = none];
                                        daughterofmstislav5Son -> daughter2mstislav5Son [dir = none];
                                        malfridSon -> daughter2mstislav5Son [dir = none];
                                        ingeborgSon -> daughter2mstislav5Son [dir = none];
                                        iziaslav3Son -> daughter2mstislav5Son [dir = none];
                                        sviatopolk3Son -> daughter2mstislav5Son [dir = none];
                                        mariaSon -> daughter2mstislav5Son [dir = none];
                                        rostislav6Son -> daughter2mstislav5Son [dir = none];
                                        rogneda2Son -> daughter2mstislav5Son [dir = none];
                                        mstislav5ANDdaughterdmitriizavidichSon [shape = point, width = 0, height = 0];
                                                vladimir7Son -> mstislav5ANDdaughterdmitriizavidichSon [dir = none];
                                                evfrosiniiaSon -> mstislav5ANDdaughterdmitriizavidichSon [dir = none];
                                            boris5Son -> unknowndaughter2vsevolodkoSon [dir = none];
                                        gleb6Son -> unknowndaughter2vsevolodkoSon [dir = none];
                                        unknowndaughtervsevolodkoSon -> unknowndaughter2vsevolodkoSon [dir = none];
                                        mstislav6Son -> unknowndaughter2vsevolodkoSon [dir = none];
                                        rostislav4Son -> sviatoslav11Son [dir = none];
                                        ivankoSon -> sviatoslav11Son [dir = none];
                                        andrei2Son -> sviatoslav11Son [dir = none];
                                        unknowndaughteriuriiSon -> sviatoslav11Son [dir = none];
                                        iaroslav5Son -> sviatoslav11Son [dir = none];
                                        gleb7Son -> sviatoslav11Son [dir = none];
                                        boris6Son -> sviatoslav11Son [dir = none];
                                        olga2Son -> sviatoslav11Son [dir = none];
                                        mstislav8Son -> mikhailko2Son [dir = none];
                                        vasilko4Son -> mikhailko2Son [dir = none];
                                        roman5Son -> mikhailko2Son [dir = none];
                                        vsevolod9Son -> mikhailko2Son [dir = none];
                                        
                    }
                    mstislav5ANDkristin ->
                            daughter2mstislav5Son [dir = none];
                                mstislav5ANDdaughterdmitriizavidich ->
                            mstislav5ANDdaughterdmitriizavidichSon [dir = none];
                                vsevolodkoANDagafia2 ->
                            unknowndaughter2vsevolodkoSon [dir = none];
                                iuriiANDdaughter2ofkhanaepa ->
                            sviatoslav11Son [dir = none];
                                iuriiANDunknownwifeiurii ->
                            mikhailko2Son [dir = none];
                                
                subgraph Generation1
                {
                    rank = same;
                    vsevolod4 [shape = box, URL = "http://genealogy.obdurodon.org/findPerson.php?person=vsevolod4", label = "Vsevolod Mstislavich", color = "blue", fillcolor = white, style = filled, target = _parent];
                    unknowndaughtermstislav5 [shape = box, URL = "http://genealogy.obdurodon.org/findPerson.php?person=unknown-daughter-mstislav5", label = "N. N. daughter of Mstislav Vladimirich", color = "deeppink", fillcolor = white, style = filled, target = _parent];
                    daughterofmstislav5 [shape = box, URL = "http://genealogy.obdurodon.org/findPerson.php?person=daughter-of-mstislav5", label = "N.N. Mstislavna", color = "deeppink", fillcolor = white, style = filled, target = _parent];
                    malfrid [shape = box, URL = "http://genealogy.obdurodon.org/findPerson.php?person=malfrid", label = "Malfrid Mstislavna", color = "deeppink", fillcolor = white, style = filled, target = _parent];
                    ingeborg [shape = box, URL = "http://genealogy.obdurodon.org/findPerson.php?person=ingeborg", label = "Ingeborg Mstislavna", color = "deeppink", fillcolor = white, style = filled, target = _parent];
                    daughter2mstislav5 [shape = box, URL = "http://genealogy.obdurodon.org/findPerson.php?person=daughter2-mstislav5", label = "N. N. Mstislavna", color = "deeppink", fillcolor = white, style = filled, target = _parent];
                    iziaslav3 [shape = box, URL = "http://genealogy.obdurodon.org/findPerson.php?person=iziaslav3", label = "Iziaslav Mstislavich", color = "blue", fillcolor = white, style = filled, target = _parent];
                    sviatopolk3 [shape = box, URL = "http://genealogy.obdurodon.org/findPerson.php?person=sviatopolk3", label = "Sviatopolk Mstislavich", color = "blue", fillcolor = white, style = filled, target = _parent];
                    maria [shape = box, URL = "http://genealogy.obdurodon.org/findPerson.php?person=maria", label = "Maria Mstislavna", color = "deeppink", fillcolor = white, style = filled, target = _parent];
                    rostislav6 [shape = box, URL = "http://genealogy.obdurodon.org/findPerson.php?person=rostislav6", label = "Rostislav Mstislavich", color = "blue", fillcolor = white, style = filled, target = _parent];
                    rogneda2 [shape = box, URL = "http://genealogy.obdurodon.org/findPerson.php?person=rogneda2", label = "Rogned′ Mstislavna", color = "green", fillcolor = white, style = filled, target = _parent];
                    vladimir7 [shape = box, URL = "http://genealogy.obdurodon.org/findPerson.php?person=vladimir7", label = "Vladimir Mstislavich", color = "blue", fillcolor = white, style = filled, target = _parent];
                    evfrosiniia [shape = box, URL = "http://genealogy.obdurodon.org/findPerson.php?person=evfrosiniia", label = "Evfrosiniia Mstislavna", color = "deeppink", fillcolor = white, style = filled, target = _parent];
                    unknownwifevsevolod4 [shape = box, URL = "http://genealogy.obdurodon.org/findPerson.php?person=unknown-wife-vsevolod4", label = "unknown", color = "deeppink", fillcolor = white, style = filled, target = _parent];
                    briacheslav3 [shape = box, URL = "http://genealogy.obdurodon.org/findPerson.php?person=briacheslav3", label = "Briacheslav Davidich", color = "blue", fillcolor = white, style = filled, target = _parent];
                    iaroslav4 [shape = box, URL = "http://genealogy.obdurodon.org/findPerson.php?person=iaroslav4", label = "Iaroslav Sviatopolchich", color = "blue", fillcolor = white, style = filled, target = _parent];
                    sigurd [shape = box, URL = "http://genealogy.obdurodon.org/findPerson.php?person=sigurd", label = "Sigurd “the Crusader” Magnusson of Norway", color = "blue", fillcolor = white, style = filled, target = _parent];
                    eric [shape = box, URL = "http://genealogy.obdurodon.org/findPerson.php?person=eric", label = "Eric “Emune” Ericsson of Denmark", color = "blue", fillcolor = white, style = filled, target = _parent];
                    knud [shape = box, URL = "http://genealogy.obdurodon.org/findPerson.php?person=knud", label = "Knud “Lavard” Ericsson of Denmark", color = "blue", fillcolor = white, style = filled, target = _parent];
                    unknownbyzantineman [shape = box, URL = "http://genealogy.obdurodon.org/findPerson.php?person=unknown-byzantine-man", label = "N. N. of Byzantium", color = "blue", fillcolor = white, style = filled, target = _parent];
                    unknownwifeiziaslav3 [shape = box, URL = "http://genealogy.obdurodon.org/findPerson.php?person=unknown-wife-iziaslav3", label = "unknown", color = "deeppink", fillcolor = white, style = filled, target = _parent];
                    unknownabkhazian [shape = box, URL = "http://genealogy.obdurodon.org/findPerson.php?person=unknown-abkhazian", label = "N. N. daughter of the tsar of Abkhaz of Abkhaz", color = "deeppink", fillcolor = white, style = filled, target = _parent];
                    unknownofmoravia [shape = box, URL = "http://genealogy.obdurodon.org/findPerson.php?person=unknown-of-moravia", label = "N.N. of Moravia of Bohemia", color = "deeppink", fillcolor = white, style = filled, target = _parent];
                    vsevolod5 [shape = box, URL = "http://genealogy.obdurodon.org/findPerson.php?person=vsevolod5", label = "Vsevolod Olgovich", color = "blue", fillcolor = white, style = filled, target = _parent];
                    unknownwiferostislav6 [shape = box, URL = "http://genealogy.obdurodon.org/findPerson.php?person=unknown-wife-rostislav6", label = "N.N. wife of Rostislav Mstislavich", color = "deeppink", fillcolor = white, style = filled, target = _parent];
                    wifevladimir7 [shape = box, URL = "http://genealogy.obdurodon.org/findPerson.php?person=wife-vladimir7", label = "N. N. Daughter of the Ban of Croatia of Croatia", color = "deeppink", fillcolor = white, style = filled, target = _parent];
                    geza2 [shape = box, URL = "http://genealogy.obdurodon.org/findPerson.php?person=geza2", label = "Geza II of Hungary", color = "blue", fillcolor = white, style = filled, target = _parent];
                    boris4 [shape = box, URL = "http://genealogy.obdurodon.org/findPerson.php?person=boris4", label = "Boris Kolomanovich of Hungary", color = "blue", fillcolor = white, style = filled, target = _parent];
                    unknownkomnena [shape = box, URL = "http://genealogy.obdurodon.org/findPerson.php?person=unknown-komnena", label = "N. N. Komnena of Byzantium", color = "deeppink", fillcolor = white, style = filled, target = _parent];
                    mikhailko [shape = box, URL = "http://genealogy.obdurodon.org/findPerson.php?person=mikhailko", label = "Mikhailko Viacheslavich", color = "green", fillcolor = white, style = filled, target = _parent];
                    boris5 [shape = box, URL = "http://genealogy.obdurodon.org/findPerson.php?person=boris5", label = "Boris Vsevolodkovich", color = "green", fillcolor = white, style = filled, target = _parent];
                    gleb6 [shape = box, URL = "http://genealogy.obdurodon.org/findPerson.php?person=gleb6", label = "Gleb Vsevolodkovich", color = "green", fillcolor = white, style = filled, target = _parent];
                    unknowndaughter2vsevolodko [shape = box, URL = "http://genealogy.obdurodon.org/findPerson.php?person=unknown-daughter2-vsevolodko", label = "N. N. Vsevolodkovna", color = "deeppink", fillcolor = white, style = filled, target = _parent];
                    unknowndaughtervsevolodko [shape = box, URL = "http://genealogy.obdurodon.org/findPerson.php?person=unknown-daughter-vsevolodko", label = "N. N. Vsevolodkovna", color = "deeppink", fillcolor = white, style = filled, target = _parent];
                    mstislav6 [shape = box, URL = "http://genealogy.obdurodon.org/findPerson.php?person=mstislav6", label = "Mstislav Vsevolodkovich", color = "green", fillcolor = white, style = filled, target = _parent];
                    vladimir5 [shape = box, URL = "http://genealogy.obdurodon.org/findPerson.php?person=vladimir5", label = "Vladimir Davidich", color = "blue", fillcolor = white, style = filled, target = _parent];
                    bashkord [shape = box, URL = "http://genealogy.obdurodon.org/findPerson.php?person=bashkord", label = "Bashkord of Polovtsy", color = "blue", fillcolor = white, style = filled, target = _parent];
                    iurii3 [shape = box, URL = "http://genealogy.obdurodon.org/findPerson.php?person=iurii3", label = "Iurii Iaroslavich", color = "blue", fillcolor = white, style = filled, target = _parent];
                    vasilko2 [shape = box, URL = "http://genealogy.obdurodon.org/findPerson.php?person=vasilko2", label = "Vasilko Marichich", color = "green", fillcolor = white, style = filled, target = _parent];
                    rostislav4 [shape = box, URL = "http://genealogy.obdurodon.org/findPerson.php?person=rostislav4", label = "Rostislav Iurevich", color = "blue", fillcolor = white, style = filled, target = _parent];
                    ivanko [shape = box, URL = "http://genealogy.obdurodon.org/findPerson.php?person=ivanko", label = "Ivanko Iurevich", color = "green", fillcolor = white, style = filled, target = _parent];
                    andrei2 [shape = box, URL = "http://genealogy.obdurodon.org/findPerson.php?person=andrei2", label = "Andrei “Bogoliubskii” Iurevich", color = "blue", fillcolor = white, style = filled, target = _parent];
                    unknowndaughteriurii [shape = box, URL = "http://genealogy.obdurodon.org/findPerson.php?person=unknown-daughter-iurii", label = "N. N. Vladimirovna", color = "deeppink", fillcolor = white, style = filled, target = _parent];
                    sviatoslav11 [shape = box, URL = "http://genealogy.obdurodon.org/findPerson.php?person=sviatoslav11", label = "Sviatoslav Iurevich", color = "green", fillcolor = white, style = filled, target = _parent];
                    iaroslav5 [shape = box, URL = "http://genealogy.obdurodon.org/findPerson.php?person=iaroslav5", label = "Iaroslav Iurevich", color = "green", fillcolor = white, style = filled, target = _parent];
                    gleb7 [shape = box, URL = "http://genealogy.obdurodon.org/findPerson.php?person=gleb7", label = "Gleb Iurevich", color = "blue", fillcolor = white, style = filled, target = _parent];
                    boris6 [shape = box, URL = "http://genealogy.obdurodon.org/findPerson.php?person=boris6", label = "Boris Iurevich", color = "green", fillcolor = white, style = filled, target = _parent];
                    olga2 [shape = box, URL = "http://genealogy.obdurodon.org/findPerson.php?person=olga2", label = "N. N. “Ol′ga” Iurevna", color = "deeppink", fillcolor = white, style = filled, target = _parent];
                    mstislav8 [shape = box, URL = "http://genealogy.obdurodon.org/findPerson.php?person=mstislav8", label = "Mstislav Iurevich", color = "blue", fillcolor = white, style = filled, target = _parent];
                    vasilko4 [shape = box, URL = "http://genealogy.obdurodon.org/findPerson.php?person=vasilko4", label = "Vasilko Iurevich", color = "green", fillcolor = white, style = filled, target = _parent];
                    mikhailko2 [shape = box, URL = "http://genealogy.obdurodon.org/findPerson.php?person=mikhailko2", label = "Mikhailko Iurevich", color = "blue", fillcolor = white, style = filled, target = _parent];
                    roman5 [shape = box, URL = "http://genealogy.obdurodon.org/findPerson.php?person=roman5", label = "Roman Iurevich", color = "green", fillcolor = white, style = filled, target = _parent];
                    vsevolod9 [shape = box, URL = "http://genealogy.obdurodon.org/findPerson.php?person=vsevolod9", label = "Vsevolod “Big Nest” Iurevich", color = "blue", fillcolor = white, style = filled, target = _parent];
                    unknownwiferostislav4 [shape = box, URL = "http://genealogy.obdurodon.org/findPerson.php?person=unknown-wife-rostislav4", label = "N.N.", color = "deeppink", fillcolor = white, style = filled, target = _parent];
                    unknownwifeandrei2 [shape = box, URL = "http://genealogy.obdurodon.org/findPerson.php?person=unknown-wife-andrei2", label = "unknown", color = "deeppink", fillcolor = white, style = filled, target = _parent];
                    unknownwife2gleb7 [shape = box, URL = "http://genealogy.obdurodon.org/findPerson.php?person=unknown-wife2-gleb7", label = "unknown", color = "deeppink", fillcolor = white, style = filled, target = _parent];
                    unknowndaughteriziaslav7 [shape = box, URL = "http://genealogy.obdurodon.org/findPerson.php?person=unknown-daughter-iziaslav7", label = "N. N. Iziaslavna", color = "deeppink", fillcolor = white, style = filled, target = _parent];
                    unknownwifegleb7 [shape = box, URL = "http://genealogy.obdurodon.org/findPerson.php?person=unknown-wife-gleb7", label = "N. N.", color = "deeppink", fillcolor = white, style = filled, target = _parent];
                    iaroslav7 [shape = box, URL = "http://genealogy.obdurodon.org/findPerson.php?person=iaroslav7", label = "Iaroslav Vladimirkovich", color = "blue", fillcolor = white, style = filled, target = _parent];
                    petrovna [shape = box, URL = "http://genealogy.obdurodon.org/findPerson.php?person=petrovna", label = "Petrovna Mikhailovitsa", color = "deeppink", fillcolor = white, style = filled, target = _parent];
                    unknownwifemikhailko2 [shape = box, URL = "http://genealogy.obdurodon.org/findPerson.php?person=unknown-wife-mikhailko2", label = "N. N. Fevronia", color = "deeppink", fillcolor = white, style = filled, target = _parent];
                    maria6 [shape = box, URL = "http://genealogy.obdurodon.org/findPerson.php?person=maria6", label = "Maria of Ossetia", color = "deeppink", fillcolor = white, style = filled, target = _parent];
                    daughtervasilkobriacheslavich [shape = box, URL = "http://genealogy.obdurodon.org/findPerson.php?person=daughter-vasilko-briacheslavich", label = "N. N. Vasilkovna", color = "deeppink", fillcolor = white, style = filled, target = _parent];
                    vladimir6 [shape = box, URL = "http://genealogy.obdurodon.org/findPerson.php?person=vladimir6", label = "Vladimir Andreiich", color = "blue", fillcolor = white, style = filled, target = _parent];
                    unknownwifevladimir6 [shape = box, URL = "http://genealogy.obdurodon.org/findPerson.php?person=unknown-wife-vladimir6", label = "unknown", color = "deeppink", fillcolor = white, style = filled, target = _parent];
                    vsevolod4ANDunknownwifevsevolod4 [shape = point, width = 0, height = 0];
                                    vsevolod4ANDunknownwifevsevolod4 -> vsevolod4 [dir = none, style=dashed];
                                            vsevolod4ANDunknownwifevsevolod4 -> unknownwifevsevolod4 [dir = none, style=dashed];
                                        iziaslav3ANDunknownwifeiziaslav3 [shape = point, width = 0, height = 0];
                                    iziaslav3ANDunknownwifeiziaslav3 -> iziaslav3 [dir = none, style=dashed];
                                            iziaslav3ANDunknownwifeiziaslav3 -> unknownwifeiziaslav3 [dir = none, style=dashed];
                                        iziaslav3 -> unknownabkhazian [dir = none, style=dashed];
                                        sviatopolk3 -> unknownofmoravia [dir = none, style=dashed];
                                        rostislav6ANDunknownwiferostislav6 [shape = point, width = 0, height = 0];
                                    rostislav6ANDunknownwiferostislav6 -> rostislav6 [dir = none, style=dashed];
                                            rostislav6ANDunknownwiferostislav6 -> unknownwiferostislav6 [dir = none, style=dashed];
                                        vladimir7 -> wifevladimir7 [dir = none, style=dashed];
                                        briacheslav3ANDunknowndaughtermstislav5 [shape = point, width = 0, height = 0];
                                    briacheslav3ANDunknowndaughtermstislav5 -> briacheslav3 [dir = none, style=dashed];
                                            briacheslav3ANDunknowndaughtermstislav5 -> unknowndaughtermstislav5 [dir = none, style=dashed];
                                        iaroslav4ANDdaughterofmstislav5 [shape = point, width = 0, height = 0];
                                    iaroslav4ANDdaughterofmstislav5 -> iaroslav4 [dir = none, style=dashed];
                                            iaroslav4ANDdaughterofmstislav5 -> daughterofmstislav5 [dir = none, style=dashed];
                                        sigurdANDmalfrid [shape = point, width = 0, height = 0];
                                    sigurdANDmalfrid -> sigurd [dir = none, style=dashed];
                                            sigurdANDmalfrid -> malfrid [dir = none, style=dashed];
                                        eric -> malfrid [dir = none, style=dashed];
                                        knudANDingeborg [shape = point, width = 0, height = 0];
                                    knudANDingeborg -> knud [dir = none, style=dashed];
                                            knudANDingeborg -> ingeborg [dir = none, style=dashed];
                                        unknownbyzantineman -> daughter2mstislav5 [dir = none, style=dashed];
                                        vsevolod5ANDmaria [shape = point, width = 0, height = 0];
                                    vsevolod5ANDmaria -> vsevolod5 [dir = none, style=dashed];
                                            vsevolod5ANDmaria -> maria [dir = none, style=dashed];
                                        geza2 -> evfrosiniia [dir = none, style=dashed];
                                        boris4 -> unknownkomnena [dir = none, style=dashed];
                                        vladimir5ANDunknowndaughter2vsevolodko [shape = point, width = 0, height = 0];
                                    vladimir5ANDunknowndaughter2vsevolodko -> vladimir5 [dir = none, style=dashed];
                                            vladimir5ANDunknowndaughter2vsevolodko -> unknowndaughter2vsevolodko [dir = none, style=dashed];
                                        bashkord -> unknowndaughter2vsevolodko [dir = none, style=dashed];
                                        iurii3 -> unknowndaughtervsevolodko [dir = none, style=dashed];
                                        rostislav4ANDunknownwiferostislav4 [shape = point, width = 0, height = 0];
                                    rostislav4ANDunknownwiferostislav4 -> rostislav4 [dir = none, style=dashed];
                                            rostislav4ANDunknownwiferostislav4 -> unknownwiferostislav4 [dir = none, style=dashed];
                                        andrei2ANDunknownwifeandrei2 [shape = point, width = 0, height = 0];
                                    andrei2ANDunknownwifeandrei2 -> andrei2 [dir = none, style=dashed];
                                            andrei2ANDunknownwifeandrei2 -> unknownwifeandrei2 [dir = none, style=dashed];
                                        gleb7ANDunknownwife2gleb7 [shape = point, width = 0, height = 0];
                                    gleb7ANDunknownwife2gleb7 -> gleb7 [dir = none, style=dashed];
                                            gleb7ANDunknownwife2gleb7 -> unknownwife2gleb7 [dir = none, style=dashed];
                                        gleb7 -> unknowndaughteriziaslav7 [dir = none, style=dashed];
                                        gleb7 -> unknownwifegleb7 [dir = none, style=dashed];
                                        mstislav8 -> petrovna [dir = none, style=dashed];
                                        mikhailko2 -> unknownwifemikhailko2 [dir = none, style=dashed];
                                        maria6 -> vsevolod9 [dir = none, style=dashed];
                                        vsevolod9 -> daughtervasilkobriacheslavich [dir = none, style=dashed];
                                        iaroslav7ANDolga2 [shape = point, width = 0, height = 0];
                                    iaroslav7ANDolga2 -> iaroslav7 [dir = none, style=dashed];
                                            iaroslav7ANDolga2 -> olga2 [dir = none, style=dashed];
                                        iaroslav7 -> evfrosiniia2 [dir = none, style=dashed];
                                        vladimir6 -> unknownwifevladimir6 [dir = none, style=dashed];
                                        
                }
                vsevolod4Son -> vsevolod4 [dir = none];
                        unknowndaughtermstislav5Son -> unknowndaughtermstislav5 [dir = none];
                        daughterofmstislav5Son -> daughterofmstislav5 [dir = none];
                        malfridSon -> malfrid [dir = none];
                        ingeborgSon -> ingeborg [dir = none];
                        daughter2mstislav5Son -> daughter2mstislav5 [dir = none];
                        iziaslav3Son -> iziaslav3 [dir = none];
                        sviatopolk3Son -> sviatopolk3 [dir = none];
                        mariaSon -> maria [dir = none];
                        rostislav6Son -> rostislav6 [dir = none];
                        rogneda2Son -> rogneda2 [dir = none];
                        vladimir7Son -> vladimir7 [dir = none];
                        evfrosiniiaSon -> evfrosiniia [dir = none];
                        kolomanANDevfimiia -> boris4 [dir = none];
                        viacheslav3ANDunknownpartnerviacheslav3 -> mikhailko [dir = none];
                        boris5Son -> boris5 [dir = none];
                        gleb6Son -> gleb6 [dir = none];
                        unknowndaughter2vsevolodkoSon -> unknowndaughter2vsevolodko [dir = none];
                        unknowndaughtervsevolodkoSon -> unknowndaughtervsevolodko [dir = none];
                        mstislav6Son -> mstislav6 [dir = none];
                        leoANDmaria2 -> vasilko2 [dir = none];
                        rostislav4Son -> rostislav4 [dir = none];
                        ivankoSon -> ivanko [dir = none];
                        andrei2Son -> andrei2 [dir = none];
                        unknowndaughteriuriiSon -> unknowndaughteriurii [dir = none];
                        sviatoslav11Son -> sviatoslav11 [dir = none];
                        iaroslav5Son -> iaroslav5 [dir = none];
                        gleb7Son -> gleb7 [dir = none];
                        boris6Son -> boris6 [dir = none];
                        olga2Son -> olga2 [dir = none];
                        mstislav8Son -> mstislav8 [dir = none];
                        vasilko4Son -> vasilko4 [dir = none];
                        mikhailko2Son -> mikhailko2 [dir = none];
                        roman5Son -> roman5 [dir = none];
                        vsevolod9Son -> vsevolod9 [dir = none];
                        andreiANDunknownwifeandrei -> vladimir6 [dir = none];
                        
                    subgraph Generation1Sons
                    {
                        rank = same;
                        kristin2Son [shape = rect, width = 0, height = 0, fixedsize = true, label = ""];
                            margretSon [shape = rect, width = 0, height = 0, fixedsize = true, label = ""];
                            katrinaSon [shape = rect, width = 0, height = 0, fixedsize = true, label = ""];
                            valdemarSon [shape = rect, width = 0, height = 0, fixedsize = true, label = ""];
                            daughteriziaslav3Son [shape = rect, width = 0, height = 0, fixedsize = true, label = ""];
                            iaropolk4Son [shape = rect, width = 0, height = 0, fixedsize = true, label = ""];
                            sviatoslav9Son [shape = rect, width = 0, height = 0, fixedsize = true, label = ""];
                            iaroslav6Son [shape = rect, width = 0, height = 0, fixedsize = true, label = ""];
                            zvenislavaSon [shape = rect, width = 0, height = 0, fixedsize = true, label = ""];
                            agafia3Son [shape = rect, width = 0, height = 0, fixedsize = true, label = ""];
                            roman4Son [shape = rect, width = 0, height = 0, fixedsize = true, label = ""];
                            sviatoslav10Son [shape = rect, width = 0, height = 0, fixedsize = true, label = ""];
                            mstislav7Son [shape = rect, width = 0, height = 0, fixedsize = true, label = ""];
                            kristin2Son -> margretSon [dir = none];
                                                knudANDingeborgSon [shape = point, width = 0, height = 0];
                                                margretSon -> knudANDingeborgSon [dir = none];
                                                katrinaSon -> knudANDingeborgSon [dir = none];
                                            katrinaSon -> valdemarSon [dir = none];
                                                iziaslav3ANDunknownwifeiziaslav3Son [shape = point, width = 0, height = 0];
                                                daughteriziaslav3Son -> iziaslav3ANDunknownwifeiziaslav3Son [dir = none];
                                                iaropolk4Son -> iziaslav3ANDunknownwifeiziaslav3Son [dir = none];
                                            sviatoslav9Son -> iaroslav6Son [dir = none];
                                        zvenislavaSon -> iaroslav6Son [dir = none];
                                        rostislav6ANDunknownwiferostislav6Son [shape = point, width = 0, height = 0];
                                                agafia3Son -> rostislav6ANDunknownwiferostislav6Son [dir = none];
                                                roman4Son -> rostislav6ANDunknownwiferostislav6Son [dir = none];
                                            vladimir5ANDunknowndaughter2vsevolodkoSon [shape = point, width = 0, height = 0];
                                                sviatoslav10Son -> vladimir5ANDunknowndaughter2vsevolodkoSon [dir = none];
                                                mstislav7Son -> vladimir5ANDunknowndaughter2vsevolodkoSon [dir = none];
                                            
                    }
                    knudANDingeborg ->
                            knudANDingeborgSon [dir = none];
                                iziaslav3ANDunknownwifeiziaslav3 ->
                            iziaslav3ANDunknownwifeiziaslav3Son [dir = none];
                                vsevolod5ANDmaria ->
                            iaroslav6Son [dir = none];
                                rostislav6ANDunknownwiferostislav6 ->
                            rostislav6ANDunknownwiferostislav6Son [dir = none];
                                vladimir5ANDunknowndaughter2vsevolodko ->
                            vladimir5ANDunknowndaughter2vsevolodkoSon [dir = none];
                                
                subgraph Generation0
                {
                    rank = same;
                    ioann [shape = box, URL = "http://genealogy.obdurodon.org/findPerson.php?person=ioann", label = "Ioann Vsevolodich", color = "green", fillcolor = white, style = filled, target = _parent];
                    xenia [shape = box, URL = "http://genealogy.obdurodon.org/findPerson.php?person=xenia", label = "Xenia Briacheslavna", color = "green", fillcolor = white, style = filled, target = _parent];
                    pribyslava [shape = box, URL = "http://genealogy.obdurodon.org/findPerson.php?person=pribyslava", label = "Pribyslava Iaroslavna", color = "deeppink", fillcolor = white, style = filled, target = _parent];
                    ratibor [shape = box, URL = "http://genealogy.obdurodon.org/findPerson.php?person=ratibor", label = "Ratibor of Pomerania of Pomerania", color = "blue", fillcolor = white, style = filled, target = _parent];
                    kristin3 [shape = box, URL = "http://genealogy.obdurodon.org/findPerson.php?person=kristin3", label = "Kristin Sigurdsdottir of Norway", color = "deeppink", fillcolor = white, style = filled, target = _parent];
                    erling [shape = box, URL = "http://genealogy.obdurodon.org/findPerson.php?person=erling", label = "Erling “Skakki” of Norway", color = "blue", fillcolor = white, style = filled, target = _parent];
                    kristin2 [shape = box, URL = "http://genealogy.obdurodon.org/findPerson.php?person=kristin2", label = "Kristin Knudsdottir of Denmark", color = "deeppink", fillcolor = white, style = filled, target = _parent];
                    margret [shape = box, URL = "http://genealogy.obdurodon.org/findPerson.php?person=margret", label = "Margret Knudsdottir of Denmark", color = "deeppink", fillcolor = white, style = filled, target = _parent];
                    katrina [shape = box, URL = "http://genealogy.obdurodon.org/findPerson.php?person=katrina", label = "Katrina Knudsdottir of Denmark", color = "green", fillcolor = white, style = filled, target = _parent];
                    valdemar [shape = box, URL = "http://genealogy.obdurodon.org/findPerson.php?person=valdemar", label = "Valdemar Knudsson of Denmark", color = "green", fillcolor = white, style = filled, target = _parent];
                    magnus [shape = box, URL = "http://genealogy.obdurodon.org/findPerson.php?person=magnus", label = "Magnus “the Blind” Sigurdsson of Norway", color = "blue", fillcolor = white, style = filled, target = _parent];
                    stig [shape = box, URL = "http://genealogy.obdurodon.org/findPerson.php?person=stig", label = "Stig “Whiteskin” of Denmark", color = "blue", fillcolor = white, style = filled, target = _parent];
                    daughteriziaslav3 [shape = box, URL = "http://genealogy.obdurodon.org/findPerson.php?person=daughter-iziaslav3", label = "N. N. Iziaslavna", color = "deeppink", fillcolor = white, style = filled, target = _parent];
                    iaropolk4 [shape = box, URL = "http://genealogy.obdurodon.org/findPerson.php?person=iaropolk4", label = "Iaropolk Iziaslavich", color = "blue", fillcolor = white, style = filled, target = _parent];
                    rogvolod3 [shape = box, URL = "http://genealogy.obdurodon.org/findPerson.php?person=rogvolod3", label = "Rogvolod Borisich", color = "blue", fillcolor = white, style = filled, target = _parent];
                    maria5 [shape = box, URL = "http://genealogy.obdurodon.org/findPerson.php?person=maria5", label = "Maria Sviatoslavna", color = "deeppink", fillcolor = white, style = filled, target = _parent];
                    sviatoslav9 [shape = box, URL = "http://genealogy.obdurodon.org/findPerson.php?person=sviatoslav9", label = "Sviatoslav Vsevolodich ", color = "blue", fillcolor = white, style = filled, target = _parent];
                    iaroslav6 [shape = box, URL = "http://genealogy.obdurodon.org/findPerson.php?person=iaroslav6", label = "Iaroslav Vsevolodich", color = "green", fillcolor = white, style = filled, target = _parent];
                    zvenislava [shape = box, URL = "http://genealogy.obdurodon.org/findPerson.php?person=zvenislava", label = "Zvenislava Vsevolodovna", color = "deeppink", fillcolor = white, style = filled, target = _parent];
                    unknowndaughtervasilkosviatoslavich [shape = box, URL = "http://genealogy.obdurodon.org/findPerson.php?person=unknown-daughter-vasilko-sviatoslavich", label = "N. N. Vasilkovna", color = "deeppink", fillcolor = white, style = filled, target = _parent];
                    boleslaw5 [shape = box, URL = "http://genealogy.obdurodon.org/findPerson.php?person=boleslaw5", label = "Bolesław “the Tall” of Poland", color = "blue", fillcolor = white, style = filled, target = _parent];
                    agafia3 [shape = box, URL = "http://genealogy.obdurodon.org/findPerson.php?person=agafia3", label = "Agafia Rostislavna", color = "deeppink", fillcolor = white, style = filled, target = _parent];
                    roman4 [shape = box, URL = "http://genealogy.obdurodon.org/findPerson.php?person=roman4", label = "Roman Rostislavich", color = "blue", fillcolor = white, style = filled, target = _parent];
                    oleg3 [shape = box, URL = "http://genealogy.obdurodon.org/findPerson.php?person=oleg3", label = "Oleg Sviatoslavich", color = "blue", fillcolor = white, style = filled, target = _parent];
                    unknowndaughtersviatoslav5 [shape = box, URL = "http://genealogy.obdurodon.org/findPerson.php?person=unknown-daughter-sviatoslav5", label = "N. N. Sviatoslavna", color = "deeppink", fillcolor = white, style = filled, target = _parent];
                    sviatoslav10 [shape = box, URL = "http://genealogy.obdurodon.org/findPerson.php?person=sviatoslav10", label = "Sviatoslav Vladimirich", color = "blue", fillcolor = white, style = filled, target = _parent];
                    mstislav7 [shape = box, URL = "http://genealogy.obdurodon.org/findPerson.php?person=mstislav7", label = "Mstislav Vladimirich", color = "green", fillcolor = white, style = filled, target = _parent];
                    unknowndaughterandrei2 [shape = box, URL = "http://genealogy.obdurodon.org/findPerson.php?person=unknown-daughter-andrei2", label = "N. N. Andreevna", color = "deeppink", fillcolor = white, style = filled, target = _parent];
                    unknowndaughterrostislav4 [shape = box, URL = "http://genealogy.obdurodon.org/findPerson.php?person=unknown-daughter-rostislav4", label = "N. N. Rostislavna", color = "deeppink", fillcolor = white, style = filled, target = _parent];
                    gleb5 [shape = box, URL = "http://genealogy.obdurodon.org/findPerson.php?person=gleb5", label = "Gleb Rostislavich", color = "blue", fillcolor = white, style = filled, target = _parent];
                    unknowndaughtergleb7 [shape = box, URL = "http://genealogy.obdurodon.org/findPerson.php?person=unknown-daughter-gleb7", label = "N. N. Glebovna", color = "deeppink", fillcolor = white, style = filled, target = _parent];
                    vsevolod8 [shape = box, URL = "http://genealogy.obdurodon.org/findPerson.php?person=vsevolod8", label = "Vsevolod Sviatoslavich", color = "blue", fillcolor = white, style = filled, target = _parent];
                    evfrosiniia2 [shape = box, URL = "http://genealogy.obdurodon.org/findPerson.php?person=evfrosiniia2", label = "Evfrosiniia Iaroslavna", color = "deeppink", fillcolor = white, style = filled, target = _parent];
                    ratibor -> pribyslava [dir = none, style=dashed];
                                        erling -> kristin3 [dir = none, style=dashed];
                                        magnus -> kristin2 [dir = none, style=dashed];
                                        stig -> margret [dir = none, style=dashed];
                                        iaropolk4 -> maria5 [dir = none, style=dashed];
                                        rogvolod3 -> daughteriziaslav3 [dir = none, style=dashed];
                                        sviatoslav9 -> unknowndaughtervasilkosviatoslavich [dir = none, style=dashed];
                                        boleslaw5 -> zvenislava [dir = none, style=dashed];
                                        roman4 -> unknowndaughtersviatoslav5 [dir = none, style=dashed];
                                        agafia3 -> oleg3 [dir = none, style=dashed];
                                        oleg3 -> unknowndaughteriurii [dir = none, style=dashed];
                                        unknowndaughterandrei2 -> sviatoslav10 [dir = none, style=dashed];
                                        sviatoslav10 -> unknowndaughterandrei2 [dir = none, style=dashed];
                                        gleb5 -> unknowndaughterrostislav4 [dir = none, style=dashed];
                                        vsevolod8 -> unknowndaughtergleb7 [dir = none, style=dashed];
                                        
                }
                vsevolod4ANDunknownwifevsevolod4 -> ioann [dir = none];
                        briacheslav3ANDunknowndaughtermstislav5 -> xenia [dir = none];
                        iaroslav4ANDdaughterofmstislav5 -> pribyslava [dir = none];
                        sigurdANDmalfrid -> kristin3 [dir = none];
                        kristin2Son -> kristin2 [dir = none];
                        margretSon -> margret [dir = none];
                        katrinaSon -> katrina [dir = none];
                        valdemarSon -> valdemar [dir = none];
                        daughteriziaslav3Son -> daughteriziaslav3 [dir = none];
                        iaropolk4Son -> iaropolk4 [dir = none];
                        sviatoslav9Son -> sviatoslav9 [dir = none];
                        iaroslav6Son -> iaroslav6 [dir = none];
                        zvenislavaSon -> zvenislava [dir = none];
                        agafia3Son -> agafia3 [dir = none];
                        roman4Son -> roman4 [dir = none];
                        sviatoslav10Son -> sviatoslav10 [dir = none];
                        mstislav7Son -> mstislav7 [dir = none];
                        andrei2ANDunknownwifeandrei2 -> unknowndaughterandrei2 [dir = none];
                        rostislav4ANDunknownwiferostislav4 -> unknowndaughterrostislav4 [dir = none];
                        gleb7ANDunknownwife2gleb7 -> unknowndaughtergleb7 [dir = none];
                        iaroslav7ANDolga2 -> evfrosiniia2 [dir = none];
                        
        }
    