<?xml version="1.0" encoding="UTF-8" standalone="no"?>
<!DOCTYPE svg PUBLIC "-//W3C//DTD SVG 1.1//EN"
 "http://www.w3.org/Graphics/SVG/1.1/DTD/svg11.dtd">
<!-- Generated by graphviz version 2.26.0 (20091210.2329)
 -->
<!-- Title: familyTree Pages: 1 -->
<svg width="482pt" height="44pt"
 viewBox="0.00 0.00 482.00 44.00" xmlns="http://www.w3.org/2000/svg" xmlns:xlink="http://www.w3.org/1999/xlink">
<g id="graph1" class="graph" transform="scale(1 1) rotate(0) translate(4 40)">
<title>familyTree</title>
<!-- olaf2 -->
<g id="node2" class="node"><title>olaf2</title>
<a xlink:href="http://genealogy.obdurodon.org/findPerson.php?person=olaf2" xlink:title="Óláf “the Stout” Haraldsson St. Óláf of Norway" target="_parent">
<polygon fill="white" stroke="blue" points="278,-36 1.13687e-13,-36 0,-1.77636e-14 278,-3.55271e-15 278,-36"/>
<text text-anchor="middle" x="139" y="-14.9" font-family="Times Roman,serif" font-size="14.00">Óláf “the Stout” Haraldsson St. Óláf of Norway</text>
</a>
</g>
<!-- astrith -->
<g id="node3" class="node"><title>astrith</title>
<a xlink:href="http://genealogy.obdurodon.org/findPerson.php?person=astrith" xlink:title="Ástríth Olafsdottir of Sweden" target="_parent">
<polygon fill="white" stroke="deeppink" points="474,-36 296,-36 296,-1.77636e-14 474,-3.55271e-15 474,-36"/>
<text text-anchor="middle" x="385" y="-14.9" font-family="Times Roman,serif" font-size="14.00">Ástríth Olafsdottir of Sweden</text>
</a>
</g>
<!-- olaf2&#45;&gt;astrith -->
<g id="edge3" class="edge"><title>olaf2&#45;&gt;astrith</title>
<path fill="none" stroke="black" stroke-dasharray="5,2" d="M278.336,-18C284.169,-18 290.002,-18 295.836,-18"/>
</g>
</g>
</svg>
