digraph familyTree
{
    bgcolor="transparent";
    center = true;
            
            subgraph Generation4
            {
            rank = same;
            
            /*  Create nodes for this level */
            igor1 [shape = box, URL = "http://genealogy.obdurodon.org/findPerson.php?person=igor1", label = "Igor′", color = "red", fillcolor = white, style = filled, target = _parent];
            olga1 [shape = box, URL = "http://genealogy.obdurodon.org/findPerson.php?person=olga1", label = "Ol′ga", color = "red", fillcolor = white, style = filled, target = _parent];
            

            /* Mark marriages between members of this generation */
            
                // Marriages concerning "igor1"
                igor1ANDolga1 [shape = point, width = 0, height = 0];
                            igor1 -> igor1ANDolga1 [dir = none, style = dashed];
                            igor1ANDolga1 -> olga1 [dir = none, style = dashed];
                        

            /* EXPERIMENTATION */
                
            

            
            }       /* End of subgraph Generation4 */
            
                subgraph Generation4Sons
                {
                rank = same;
                
                }
                
            
            subgraph Generation3
            {
            rank = same;
            
            /*  Create nodes for this level */
            sviatoslav1 [shape = box, URL = "http://genealogy.obdurodon.org/findPerson.php?person=sviatoslav1", label = "Sviatoslav Igorich", color = "red", fillcolor = white, style = filled, target = _parent];
            unknownwifesviatoslav1 [shape = box, URL = "http://genealogy.obdurodon.org/findPerson.php?person=unknown-wife-sviatoslav1", label = "unknown", color = "yellow", fillcolor = white, style = filled, target = _parent];
            malusha [shape = box, URL = "http://genealogy.obdurodon.org/findPerson.php?person=malusha", label = "Malusha Malkovna", color = "red", fillcolor = white, style = filled, target = _parent];
            

            /* Mark marriages between members of this generation */
            
                // Marriages concerning "sviatoslav1"
                unknownwifesviatoslav1 -> sviatoslav1 [dir = none, style = dashed];
                sviatoslav1 -> malusha [dir = none, style = dashed];
                        

            /* EXPERIMENTATION */
                
            

            
            }       /* End of subgraph Generation3 */
            igor1ANDolga1 -> sviatoslav1 [dir = none, weight = 50];
                        igor1ANDolga1 -> unknownwifesviatoslav1 [dir = none, style = invis];
                        igor1ANDolga1 -> malusha [dir = none, style = invis];
                        
                subgraph Generation3Sons
                {
                rank = same;
                iaropolk1Son [shape = rect, width = 0, height = 0, fixedsize = true, label = ""];
                    oleg1Son [shape = rect, width = 0, height = 0, fixedsize = true, label = ""];
                    sviatoslav1ANDunknownwifesviatoslav1Son [shape = point, width = 0, height = 0];
                                        iaropolk1Son -> sviatoslav1ANDunknownwifesviatoslav1Son [dir = none];
                                        sviatoslav1ANDunknownwifesviatoslav1Son -> oleg1Son [dir = none];
                                    
                }
                unknownwifesviatoslav1 -> iaropolk1Son [dir = none, style = invis];
                                unknownwifesviatoslav1 -> sviatoslav1ANDunknownwifesviatoslav1Son [dir = none, weight = 50];
                                    unknownwifesviatoslav1 -> oleg1Son [dir = none, style = invis];
                                
            
            subgraph Generation2
            {
            rank = same;
            
            /*  Create nodes for this level */
            iaropolk1 [shape = box, URL = "http://genealogy.obdurodon.org/findPerson.php?person=iaropolk1", label = "Iaropolk Sviatoslavich", color = "red", fillcolor = white, style = filled, target = _parent];
            oleg1 [shape = box, URL = "http://genealogy.obdurodon.org/findPerson.php?person=oleg1", label = "Oleg Sviatoslavich", color = "red", fillcolor = white, style = filled, target = _parent];
            vladimir1 [shape = box, URL = "http://genealogy.obdurodon.org/findPerson.php?person=vladimir1", label = "Vladimir Sviatoslavich", color = "red", fillcolor = white, style = filled, target = _parent];
            greeknun [shape = box, URL = "http://genealogy.obdurodon.org/findPerson.php?person=greeknun", label = "Greek nun of Byzantium", color = "purple", fillcolor = white, style = filled, target = _parent];
            czech1 [shape = box, URL = "http://genealogy.obdurodon.org/findPerson.php?person=czech1", label = "First Czech woman of Bohemia", color = "darkslateblue", fillcolor = white, style = filled, target = _parent];
            rogneda [shape = box, URL = "http://genealogy.obdurodon.org/findPerson.php?person=rogneda", label = "Rogned′", color = "red", fillcolor = white, style = filled, target = _parent];
            czech2 [shape = box, URL = "http://genealogy.obdurodon.org/findPerson.php?person=czech2", label = "Second Czech woman of Bohemia", color = "darkslateblue", fillcolor = white, style = filled, target = _parent];
            bulgar [shape = box, URL = "http://genealogy.obdurodon.org/findPerson.php?person=bulgar", label = "Bulgar woman", color = "yellow", fillcolor = white, style = filled, target = _parent];
            anna1 [shape = box, URL = "http://genealogy.obdurodon.org/findPerson.php?person=anna1", label = "Anna “Porphyrogenita” of Byzantium", color = "purple", fillcolor = white, style = filled, target = _parent];
            unknownwifevladimir1 [shape = box, URL = "http://genealogy.obdurodon.org/findPerson.php?person=unknown-wife-vladimir1", label = "unknown", color = "yellow", fillcolor = white, style = filled, target = _parent];
            

            /* Mark marriages between members of this generation */
            
                // Marriages concerning "iaropolk1"
                iaropolk1ANDgreeknun [shape = point, width = 0, height = 0];
                            iaropolk1 -> iaropolk1ANDgreeknun [dir = none, style = dashed];
                            iaropolk1ANDgreeknun -> greeknun [dir = none, style = dashed];
                        
                // Marriages concerning "vladimir1"
                czech1 -> rogneda [dir = none, style = dashed]
                        rogneda -> czech2 [dir = none, style = dashed]
                        czech2 -> vladimir1 [dir = none, style = dashed];
                vladimir1 -> bulgar [dir = none, style = dashed];
                        bulgar -> anna1 [dir = none, style = dashed]
                        anna1 -> unknownwifevladimir1 [dir = none, style = dashed]
                        

            /* EXPERIMENTATION */
                greeknun -> oleg1 [style = invis];
                oleg1 -> czech1 [style = invis];
                
            

            
            }       /* End of subgraph Generation2 */
            iaropolk1Son -> iaropolk1 [dir = none, weight = 50];
                        iaropolk1Son -> greeknun [dir = none, style = invis];
                        oleg1Son -> oleg1 [dir = none, weight = 50];
                        malusha -> vladimir1 [dir = none, weight = 50];
                        malusha -> czech1 [dir = none, style = invis];
                        malusha -> rogneda [dir = none, style = invis];
                        malusha -> czech2 [dir = none, style = invis];
                        malusha -> bulgar [dir = none, style = invis];
                        malusha -> anna1 [dir = none, style = invis];
                        malusha -> unknownwifevladimir1 [dir = none, style = invis];
                        
                subgraph Generation2Sons
                {
                rank = same;
                unknowndaughtervladimir1Son [shape = rect, width = 0, height = 0, fixedsize = true, label = ""];
                    iaroslav1Son [shape = rect, width = 0, height = 0, fixedsize = true, label = ""];
                    iziaslav1Son [shape = rect, width = 0, height = 0, fixedsize = true, label = ""];
                    predslavaSon [shape = rect, width = 0, height = 0, fixedsize = true, label = ""];
                    vsevolod1Son [shape = rect, width = 0, height = 0, fixedsize = true, label = ""];
                    mstislav1Son [shape = rect, width = 0, height = 0, fixedsize = true, label = ""];
                    sviatoslav2Son [shape = rect, width = 0, height = 0, fixedsize = true, label = ""];
                    mstislavSon [shape = rect, width = 0, height = 0, fixedsize = true, label = ""];
                    boris1Son [shape = rect, width = 0, height = 0, fixedsize = true, label = ""];
                    glebSon [shape = rect, width = 0, height = 0, fixedsize = true, label = ""];
                    dobronegamariaSon [shape = rect, width = 0, height = 0, fixedsize = true, label = ""];
                    stanislav1Son [shape = rect, width = 0, height = 0, fixedsize = true, label = ""];
                    pozvizdSon [shape = rect, width = 0, height = 0, fixedsize = true, label = ""];
                    sudislavSon [shape = rect, width = 0, height = 0, fixedsize = true, label = ""];
                    premislavaSon [shape = rect, width = 0, height = 0, fixedsize = true, label = ""];
                    unknowndaughtervladimir1Son -> iaroslav1Son [dir = none];
                                        iaroslav1Son -> iziaslav1Son [dir = none];
                                        vladimir1ANDrognedaSon [shape = point, width = 0, height = 0];
                                        iziaslav1Son -> vladimir1ANDrognedaSon [dir = none];
                                        vladimir1ANDrognedaSon -> predslavaSon [dir = none];
                                    predslavaSon -> vsevolod1Son [dir = none];
                                        vsevolod1Son -> mstislav1Son [dir = none];
                                        vladimir1ANDczech2Son [shape = point, width = 0, height = 0];
                                        sviatoslav2Son -> vladimir1ANDczech2Son [dir = none];
                                        vladimir1ANDczech2Son -> mstislavSon [dir = none];
                                    vladimir1ANDbulgarSon [shape = point, width = 0, height = 0];
                                        boris1Son -> vladimir1ANDbulgarSon [dir = none];
                                        vladimir1ANDbulgarSon -> glebSon [dir = none];
                                    dobronegamariaSon -> stanislav1Son [dir = none];
                                stanislav1Son -> pozvizdSon [dir = none];
                                pozvizdSon -> sudislavSon [dir = none];
                                sudislavSon -> premislavaSon [dir = none];
                                
                }
                rogneda -> unknowndaughtervladimir1Son [dir = none, style = invis];
                                rogneda -> iaroslav1Son [dir = none, style = invis];
                                rogneda -> iziaslav1Son [dir = none, style = invis];
                                rogneda -> vladimir1ANDrognedaSon [dir = none, weight = 50];
                                    rogneda -> predslavaSon [dir = none, style = invis];
                                rogneda -> vsevolod1Son [dir = none, style = invis];
                                rogneda -> mstislav1Son [dir = none, style = invis];
                                czech2 -> sviatoslav2Son [dir = none, style = invis];
                                czech2 -> vladimir1ANDczech2Son [dir = none, weight = 50];
                                    czech2 -> mstislavSon [dir = none, style = invis];
                                bulgar -> boris1Son [dir = none, style = invis];
                                bulgar -> vladimir1ANDbulgarSon [dir = none, weight = 50];
                                    bulgar -> glebSon [dir = none, style = invis];
                                unknownwifevladimir1 -> dobronegamariaSon [dir = none, style = invis];
                                unknownwifevladimir1 -> stanislav1Son [dir = none, style = invis];
                                unknownwifevladimir1 -> pozvizdSon [dir = none, weight = 50];
                                unknownwifevladimir1 -> sudislavSon [dir = none, style = invis];
                                unknownwifevladimir1 -> premislavaSon [dir = none, style = invis];
                                
            
            subgraph Generation1
            {
            rank = same;
            
            /*  Create nodes for this level */
            sviatopolk1 [shape = box, URL = "http://genealogy.obdurodon.org/findPerson.php?person=sviatopolk1", label = "Sviatopolk Iaropolchich", color = "red", fillcolor = white, style = filled, target = _parent];
            unknownboleslavna [shape = box, URL = "http://genealogy.obdurodon.org/findPerson.php?person=unknown-boleslavna", label = "N.N. Boleslavna of Poland", color = "lavender", fillcolor = white, style = filled, target = _parent];
            vysheslav1 [shape = box, URL = "http://genealogy.obdurodon.org/findPerson.php?person=vysheslav1", label = "Vysheslav Vladimirich", color = "red", fillcolor = white, style = filled, target = _parent];
            unknowndaughtervladimir1 [shape = box, URL = "http://genealogy.obdurodon.org/findPerson.php?person=unknown-daughter-vladimir1", label = "N.N. Vladimirovna", color = "red", fillcolor = white, style = filled, target = _parent];
            iaroslav1 [shape = box, URL = "http://genealogy.obdurodon.org/findPerson.php?person=iaroslav1", label = "Iaroslav “Mudryi” Vladimirich Georgii", color = "red", fillcolor = white, style = filled, target = _parent];
            iziaslav1 [shape = box, URL = "http://genealogy.obdurodon.org/findPerson.php?person=iziaslav1", label = "Iziaslav Vladimirich", color = "red", fillcolor = white, style = filled, target = _parent];
            predslava [shape = box, URL = "http://genealogy.obdurodon.org/findPerson.php?person=predslava", label = "Predslava Vladimirovna", color = "red", fillcolor = white, style = filled, target = _parent];
            vsevolod1 [shape = box, URL = "http://genealogy.obdurodon.org/findPerson.php?person=vsevolod1", label = "Vsevolod Vladimirich", color = "red", fillcolor = white, style = filled, target = _parent];
            mstislav1 [shape = box, URL = "http://genealogy.obdurodon.org/findPerson.php?person=mstislav1", label = "Mstislav “Khrabryi” Vladimirich", color = "red", fillcolor = white, style = filled, target = _parent];
            sviatoslav2 [shape = box, URL = "http://genealogy.obdurodon.org/findPerson.php?person=sviatoslav2", label = "Sviatoslav Vladimirich", color = "red", fillcolor = white, style = filled, target = _parent];
            mstislav [shape = box, URL = "http://genealogy.obdurodon.org/findPerson.php?person=mstislav", label = "Mstislav Vladimirich", color = "red", fillcolor = white, style = filled, target = _parent];
            boris1 [shape = box, URL = "http://genealogy.obdurodon.org/findPerson.php?person=boris1", label = "Boris Vladimirich Roman", color = "red", fillcolor = white, style = filled, target = _parent];
            gleb [shape = box, URL = "http://genealogy.obdurodon.org/findPerson.php?person=gleb", label = "Gleb Vladimirich Davyd", color = "red", fillcolor = white, style = filled, target = _parent];
            dobronegamaria [shape = box, URL = "http://genealogy.obdurodon.org/findPerson.php?person=dobronega-maria", label = "Dobronega-Maria Vladimirovna", color = "red", fillcolor = white, style = filled, target = _parent];
            stanislav1 [shape = box, URL = "http://genealogy.obdurodon.org/findPerson.php?person=stanislav1", label = "Stanislav Vladimirich", color = "red", fillcolor = white, style = filled, target = _parent];
            pozvizd [shape = box, URL = "http://genealogy.obdurodon.org/findPerson.php?person=pozvizd", label = "Pozvizd Vladimirich", color = "red", fillcolor = white, style = filled, target = _parent];
            sudislav [shape = box, URL = "http://genealogy.obdurodon.org/findPerson.php?person=sudislav", label = "Sudislav Vladimirich", color = "red", fillcolor = white, style = filled, target = _parent];
            premislava [shape = box, URL = "http://genealogy.obdurodon.org/findPerson.php?person=premislava", label = "N.N. “Premislava” Vladimirovna", color = "red", fillcolor = white, style = filled, target = _parent];
            bernhard [shape = box, URL = "http://genealogy.obdurodon.org/findPerson.php?person=bernhard", label = "Bernhard of the German Empire", color = "green", fillcolor = white, style = filled, target = _parent];
            unknownwifeiaroslav1 [shape = box, URL = "http://genealogy.obdurodon.org/findPerson.php?person=unknown-wife-iaroslav1", label = "unknown", color = "yellow", fillcolor = white, style = filled, target = _parent];
            ingigerd [shape = box, URL = "http://genealogy.obdurodon.org/findPerson.php?person=ingigerd", label = "Ingigerd of Sweden", color = "slategray", fillcolor = white, style = filled, target = _parent];
            unknownwifeiziaslav1 [shape = box, URL = "http://genealogy.obdurodon.org/findPerson.php?person=unknown-wife-iziaslav1", label = "unknown", color = "yellow", fillcolor = white, style = filled, target = _parent];
            unknownwifemstislav1 [shape = box, URL = "http://genealogy.obdurodon.org/findPerson.php?person=unknown-wife-mstislav1", label = "unknown", color = "yellow", fillcolor = white, style = filled, target = _parent];
            casimir1 [shape = box, URL = "http://genealogy.obdurodon.org/findPerson.php?person=casimir1", label = "Casimir “the Restorer” of Poland", color = "lavender", fillcolor = white, style = filled, target = _parent];
            ladislaus [shape = box, URL = "http://genealogy.obdurodon.org/findPerson.php?person=ladislaus", label = "Ladislaus of Hungary", color = "orangered", fillcolor = white, style = filled, target = _parent];
            

            /* Mark marriages between members of this generation */
            
                // Marriages concerning "sviatopolk1"
                sviatopolk1 -> unknownboleslavna [dir = none, style = dashed]
                        
                // Marriages concerning "iaroslav1"
                unknownwifeiaroslav1 -> iaroslav1 [dir = none, style = dashed];
                iaroslav1 -> ingigerd [dir = none, style = dashed];
                        
                // Marriages concerning "iziaslav1"
                iziaslav1ANDunknownwifeiziaslav1 [shape = point, width = 0, height = 0];
                            iziaslav1 -> iziaslav1ANDunknownwifeiziaslav1 [dir = none, style = dashed];
                            iziaslav1ANDunknownwifeiziaslav1 -> unknownwifeiziaslav1 [dir = none, style = dashed];
                        
                // Marriages concerning "mstislav1"
                mstislav1ANDunknownwifemstislav1 [shape = point, width = 0, height = 0];
                            mstislav1 -> mstislav1ANDunknownwifemstislav1 [dir = none, style = dashed];
                            mstislav1ANDunknownwifemstislav1 -> unknownwifemstislav1 [dir = none, style = dashed];
                        
                // Marriages concerning "bernhard"
                bernhard -> unknowndaughtervladimir1 [dir = none, style = dashed]
                        
                // Marriages concerning "casimir1"
                casimir1ANDdobronegamaria [shape = point, width = 0, height = 0];
                            casimir1 -> casimir1ANDdobronegamaria [dir = none, style = dashed];
                            casimir1ANDdobronegamaria -> dobronegamaria [dir = none, style = dashed];
                        
                // Marriages concerning "ladislaus"
                ladislausANDpremislava [shape = point, width = 0, height = 0];
                            ladislaus -> ladislausANDpremislava [dir = none, style = dashed];
                            ladislausANDpremislava -> premislava [dir = none, style = dashed];
                        

            /* EXPERIMENTATION */
                unknownboleslavna -> vysheslav1 [style = invis];
                vysheslav1 -> bernhard [style = invis];
                unknowndaughtervladimir1 -> unknownwifeiaroslav1 [style = invis];
                ingigerd -> iziaslav1 [style = invis];
                unknownwifeiziaslav1 -> predslava [style = invis];
                predslava -> vsevolod1 [style = invis];
                vsevolod1 -> mstislav1 [style = invis];
                unknownwifemstislav1 -> sviatoslav2 [style = invis];
                sviatoslav2 -> mstislav [style = invis];
                mstislav -> boris1 [style = invis];
                boris1 -> gleb [style = invis];
                gleb -> casimir1 [style = invis];
                dobronegamaria -> stanislav1 [style = invis];
                stanislav1 -> pozvizd [style = invis];
                pozvizd -> sudislav [style = invis];
                sudislav -> ladislaus [style = invis];
                
            

            
            }       /* End of subgraph Generation1 */
            iaropolk1ANDgreeknun -> sviatopolk1 [dir = none, weight = 50];
                        iaropolk1ANDgreeknun -> unknownboleslavna [dir = none, style = invis];
                        czech1 -> vysheslav1 [dir = none, weight = 50];
                        unknowndaughtervladimir1Son -> unknowndaughtervladimir1 [dir = none, weight = 50];
                        unknowndaughtervladimir1Son -> bernhard [dir = none, style = invis];
                        iaroslav1Son -> iaroslav1 [dir = none, weight = 50];
                        iaroslav1Son -> unknownwifeiaroslav1 [dir = none, style = invis];
                        iaroslav1Son -> ingigerd [dir = none, style = invis];
                        iziaslav1Son -> iziaslav1 [dir = none, weight = 50];
                        iziaslav1Son -> unknownwifeiziaslav1 [dir = none, style = invis];
                        predslavaSon -> predslava [dir = none, weight = 50];
                        vsevolod1Son -> vsevolod1 [dir = none, weight = 50];
                        mstislav1Son -> mstislav1 [dir = none, weight = 50];
                        mstislav1Son -> unknownwifemstislav1 [dir = none, style = invis];
                        sviatoslav2Son -> sviatoslav2 [dir = none, weight = 50];
                        mstislavSon -> mstislav [dir = none, weight = 50];
                        boris1Son -> boris1 [dir = none, weight = 50];
                        glebSon -> gleb [dir = none, weight = 50];
                        dobronegamariaSon -> dobronegamaria [dir = none, weight = 50];
                        dobronegamariaSon -> casimir1 [dir = none, style = invis];
                        stanislav1Son -> stanislav1 [dir = none, weight = 50];
                        pozvizdSon -> pozvizd [dir = none, weight = 50];
                        sudislavSon -> sudislav [dir = none, weight = 50];
                        premislavaSon -> premislava [dir = none, weight = 50];
                        premislavaSon -> ladislaus [dir = none, style = invis];
                        
                subgraph Generation1Sons
                {
                rank = same;
                vladimir2Son [shape = rect, width = 0, height = 0, fixedsize = true, label = ""];
                    iziaslav2Son [shape = rect, width = 0, height = 0, fixedsize = true, label = ""];
                    agafiaSon [shape = rect, width = 0, height = 0, fixedsize = true, label = ""];
                    anastasiaSon [shape = rect, width = 0, height = 0, fixedsize = true, label = ""];
                    sviatoslav3Son [shape = rect, width = 0, height = 0, fixedsize = true, label = ""];
                    elisabethSon [shape = rect, width = 0, height = 0, fixedsize = true, label = ""];
                    anna2Son [shape = rect, width = 0, height = 0, fixedsize = true, label = ""];
                    vsevolod2Son [shape = rect, width = 0, height = 0, fixedsize = true, label = ""];
                    igor2Son [shape = rect, width = 0, height = 0, fixedsize = true, label = ""];
                    viacheslav1Son [shape = rect, width = 0, height = 0, fixedsize = true, label = ""];
                    andrewSon [shape = rect, width = 0, height = 0, fixedsize = true, label = ""];
                    briacheslav1Son [shape = rect, width = 0, height = 0, fixedsize = true, label = ""];
                    vseslav1Son [shape = rect, width = 0, height = 0, fixedsize = true, label = ""];
                    boleslaw2Son [shape = rect, width = 0, height = 0, fixedsize = true, label = ""];
                    wladyslawSon [shape = rect, width = 0, height = 0, fixedsize = true, label = ""];
                    mieszkoSon [shape = rect, width = 0, height = 0, fixedsize = true, label = ""];
                    otto1Son [shape = rect, width = 0, height = 0, fixedsize = true, label = ""];
                    sviatoslavaSon [shape = rect, width = 0, height = 0, fixedsize = true, label = ""];
                    bela1Son [shape = rect, width = 0, height = 0, fixedsize = true, label = ""];
                    LeventeSon [shape = rect, width = 0, height = 0, fixedsize = true, label = ""];
                    vladimir2Son -> iziaslav2Son [dir = none];
                                        iziaslav2Son -> agafiaSon [dir = none];
                                        agafiaSon -> anastasiaSon [dir = none];
                                        anastasiaSon -> sviatoslav3Son [dir = none];
                                        iaroslav1ANDingigerdSon [shape = point, width = 0, height = 0];
                                        sviatoslav3Son -> iaroslav1ANDingigerdSon [dir = none];
                                        iaroslav1ANDingigerdSon -> elisabethSon [dir = none];
                                    elisabethSon -> anna2Son [dir = none];
                                        anna2Son -> vsevolod2Son [dir = none];
                                        vsevolod2Son -> igor2Son [dir = none];
                                        igor2Son -> viacheslav1Son [dir = none];
                                        andrewSon -> bela1Son [dir = none];
                                bela1Son -> LeventeSon [dir = none];
                                iziaslav1ANDunknownwifeiziaslav1Son [shape = point, width = 0, height = 0];
                                        briacheslav1Son -> iziaslav1ANDunknownwifeiziaslav1Son [dir = none];
                                        iziaslav1ANDunknownwifeiziaslav1Son -> vseslav1Son [dir = none];
                                    boleslaw2Son -> wladyslawSon [dir = none];
                                wladyslawSon -> mieszkoSon [dir = none];
                                mieszkoSon -> otto1Son [dir = none];
                                otto1Son -> sviatoslavaSon [dir = none];
                                
                }
                ingigerd -> vladimir2Son [dir = none, style = invis];
                                ingigerd -> iziaslav2Son [dir = none, style = invis];
                                ingigerd -> agafiaSon [dir = none, style = invis];
                                ingigerd -> anastasiaSon [dir = none, style = invis];
                                ingigerd -> sviatoslav3Son [dir = none, style = invis];
                                ingigerd -> iaroslav1ANDingigerdSon [dir = none, weight = 50];
                                    ingigerd -> elisabethSon [dir = none, style = invis];
                                ingigerd -> anna2Son [dir = none, style = invis];
                                ingigerd -> vsevolod2Son [dir = none, style = invis];
                                ingigerd -> igor2Son [dir = none, style = invis];
                                ingigerd -> viacheslav1Son [dir = none, style = invis];
                                ladislausANDpremislava -> andrewSon [dir = none, style = invis];
                                ladislausANDpremislava -> bela1Son [dir = none, weight = 50];
                                ladislausANDpremislava -> LeventeSon [dir = none, style = invis];
                                iziaslav1ANDunknownwifeiziaslav1 -> briacheslav1Son [dir = none, style = invis];
                                iziaslav1ANDunknownwifeiziaslav1 -> iziaslav1ANDunknownwifeiziaslav1Son [dir = none, weight = 50];
                                    iziaslav1ANDunknownwifeiziaslav1 -> vseslav1Son [dir = none, style = invis];
                                casimir1ANDdobronegamaria -> boleslaw2Son [dir = none, style = invis];
                                casimir1ANDdobronegamaria -> wladyslawSon [dir = none, style = invis];
                                casimir1ANDdobronegamaria -> mieszkoSon [dir = none, weight = 50];
                                casimir1ANDdobronegamaria -> otto1Son [dir = none, style = invis];
                                casimir1ANDdobronegamaria -> sviatoslavaSon [dir = none, style = invis];
                                
            
            subgraph Generation0
            {
            rank = same;
            
            /*  Create nodes for this level */
            ilia1 [shape = box, URL = "http://genealogy.obdurodon.org/findPerson.php?person=ilia1", label = "Ilia Iaroslavich", color = "red", fillcolor = white, style = filled, target = _parent];
            vladimir2 [shape = box, URL = "http://genealogy.obdurodon.org/findPerson.php?person=vladimir2", label = "Vladimir Iaroslavich", color = "red", fillcolor = white, style = filled, target = _parent];
            iziaslav2 [shape = box, URL = "http://genealogy.obdurodon.org/findPerson.php?person=iziaslav2", label = "Iziaslav Iaroslavich", color = "red", fillcolor = white, style = filled, target = _parent];
            agafia [shape = box, URL = "http://genealogy.obdurodon.org/findPerson.php?person=agafia", label = "Agafia Iaroslavna", color = "red", fillcolor = white, style = filled, target = _parent];
            anastasia [shape = box, URL = "http://genealogy.obdurodon.org/findPerson.php?person=anastasia", label = "Anastasia Iaroslavna", color = "red", fillcolor = white, style = filled, target = _parent];
            sviatoslav3 [shape = box, URL = "http://genealogy.obdurodon.org/findPerson.php?person=sviatoslav3", label = "Sviatoslav Iaroslavich", color = "red", fillcolor = white, style = filled, target = _parent];
            elisabeth [shape = box, URL = "http://genealogy.obdurodon.org/findPerson.php?person=elisabeth", label = "Elisabeth Iaroslavna", color = "red", fillcolor = white, style = filled, target = _parent];
            anna2 [shape = box, URL = "http://genealogy.obdurodon.org/findPerson.php?person=anna2", label = "Anna Iaroslavna", color = "red", fillcolor = white, style = filled, target = _parent];
            vsevolod2 [shape = box, URL = "http://genealogy.obdurodon.org/findPerson.php?person=vsevolod2", label = "Vsevolod Iaroslavich Andrei", color = "red", fillcolor = white, style = filled, target = _parent];
            igor2 [shape = box, URL = "http://genealogy.obdurodon.org/findPerson.php?person=igor2", label = "Igor′ Iaroslavich", color = "red", fillcolor = white, style = filled, target = _parent];
            viacheslav1 [shape = box, URL = "http://genealogy.obdurodon.org/findPerson.php?person=viacheslav1", label = "Viacheslav Iaroslavich", color = "red", fillcolor = white, style = filled, target = _parent];
            unknownwifevladimir2 [shape = box, URL = "http://genealogy.obdurodon.org/findPerson.php?person=unknown-wife-vladimir2", label = "unknown", color = "yellow", fillcolor = white, style = filled, target = _parent];
            gertrude [shape = box, URL = "http://genealogy.obdurodon.org/findPerson.php?person=gertrude", label = "Gertrude of Poland", color = "lavender", fillcolor = white, style = filled, target = _parent];
            edward [shape = box, URL = "http://genealogy.obdurodon.org/findPerson.php?person=edward", label = "Edward “the Exile” of England", color = "darkred", fillcolor = white, style = filled, target = _parent];
            andrew [shape = box, URL = "http://genealogy.obdurodon.org/findPerson.php?person=andrew", label = "Andrew of Hungary", color = "orangered", fillcolor = white, style = filled, target = _parent];
            kilikia [shape = box, URL = "http://genealogy.obdurodon.org/findPerson.php?person=kilikia", label = "Kilikia", color = "yellow", fillcolor = white, style = filled, target = _parent];
            oda [shape = box, URL = "http://genealogy.obdurodon.org/findPerson.php?person=oda", label = "Oda of Stade of the German Empire", color = "green", fillcolor = white, style = filled, target = _parent];
            harald1 [shape = box, URL = "http://genealogy.obdurodon.org/findPerson.php?person=harald1", label = "Harald “Hardrada” Sigurtharson of Norway", color = "seagreen", fillcolor = white, style = filled, target = _parent];
            henry1 [shape = box, URL = "http://genealogy.obdurodon.org/findPerson.php?person=henry1", label = "Henry I Capet of France", color = "navy", fillcolor = white, style = filled, target = _parent];
            raoul [shape = box, URL = "http://genealogy.obdurodon.org/findPerson.php?person=raoul", label = "Raoul de Crépy of France", color = "navy", fillcolor = white, style = filled, target = _parent];
            monomakhina [shape = box, URL = "http://genealogy.obdurodon.org/findPerson.php?person=monomakhina", label = "Monomakhina of Byzantium", color = "purple", fillcolor = white, style = filled, target = _parent];
            unknownwifevsevolod2 [shape = box, URL = "http://genealogy.obdurodon.org/findPerson.php?person=unknown-wife-vsevolod2", label = "unknown Anna of Polovtsy", color = "olive", fillcolor = white, style = filled, target = _parent];
            unknownwifeigor2 [shape = box, URL = "http://genealogy.obdurodon.org/findPerson.php?person=unknown-wife-igor2", label = "unknown", color = "yellow", fillcolor = white, style = filled, target = _parent];
            unknownwifeviacheslav1 [shape = box, URL = "http://genealogy.obdurodon.org/findPerson.php?person=unknown-wife-viacheslav1", label = "unknown", color = "yellow", fillcolor = white, style = filled, target = _parent];
            briacheslav1 [shape = box, URL = "http://genealogy.obdurodon.org/findPerson.php?person=briacheslav1", label = "Briacheslav Iziaslavich", color = "red", fillcolor = white, style = filled, target = _parent];
            vseslav1 [shape = box, URL = "http://genealogy.obdurodon.org/findPerson.php?person=vseslav1", label = "Vseslav Iziaslavich", color = "red", fillcolor = white, style = filled, target = _parent];
            unknownwifebriacheslav1 [shape = box, URL = "http://genealogy.obdurodon.org/findPerson.php?person=unknown-wife-briacheslav1", label = "unknown", color = "red", fillcolor = white, style = filled, target = _parent];
            eustafii [shape = box, URL = "http://genealogy.obdurodon.org/findPerson.php?person=eustafii", label = "Eustafii Mstislavich", color = "red", fillcolor = white, style = filled, target = _parent];
            boleslaw2 [shape = box, URL = "http://genealogy.obdurodon.org/findPerson.php?person=boleslaw2", label = "Bolesław II “the Bold” of Poland", color = "lavender", fillcolor = white, style = filled, target = _parent];
            wladyslaw [shape = box, URL = "http://genealogy.obdurodon.org/findPerson.php?person=wladyslaw", label = "Władysław Herman of Poland", color = "lavender", fillcolor = white, style = filled, target = _parent];
            mieszko [shape = box, URL = "http://genealogy.obdurodon.org/findPerson.php?person=mieszko", label = "Mieszko of Poland", color = "lavender", fillcolor = white, style = filled, target = _parent];
            otto1 [shape = box, URL = "http://genealogy.obdurodon.org/findPerson.php?person=otto1", label = "Otto of Poland", color = "lavender", fillcolor = white, style = filled, target = _parent];
            sviatoslava [shape = box, URL = "http://genealogy.obdurodon.org/findPerson.php?person=sviatoslava", label = "Sviatoslava of Poland", color = "lavender", fillcolor = white, style = filled, target = _parent];
            vysheslava [shape = box, URL = "http://genealogy.obdurodon.org/findPerson.php?person=vysheslava", label = "Vysheslava Sviatoslavna", color = "red", fillcolor = white, style = filled, target = _parent];
            judith2 [shape = box, URL = "http://genealogy.obdurodon.org/findPerson.php?person=judith2", label = "Judith daughter of Vratislav II of Bohemia", color = "darkslateblue", fillcolor = white, style = filled, target = _parent];
            judith [shape = box, URL = "http://genealogy.obdurodon.org/findPerson.php?person=judith", label = "Judith daughter of Henry III of the German Empire", color = "green", fillcolor = white, style = filled, target = _parent];
            vratislav [shape = box, URL = "http://genealogy.obdurodon.org/findPerson.php?person=vratislav", label = "Vratislav II of Bohemia", color = "darkslateblue", fillcolor = white, style = filled, target = _parent];
            bela1 [shape = box, URL = "http://genealogy.obdurodon.org/findPerson.php?person=bela1", label = "Bela of Hungary", color = "orangered", fillcolor = white, style = filled, target = _parent];
            Levente [shape = box, URL = "http://genealogy.obdurodon.org/findPerson.php?person=Levente", label = "Levente of Hungary", color = "orangered", fillcolor = white, style = filled, target = _parent];
            unknowndaughtermieszko2 [shape = box, URL = "http://genealogy.obdurodon.org/findPerson.php?person=unknown-daughter-mieszko2", label = "unknown daughter of Mieszko II of Poland", color = "lavender", fillcolor = white, style = filled, target = _parent];
            

            /* Mark marriages between members of this generation */
            
                // Marriages concerning "vladimir2"
                vladimir2 -> unknownwifevladimir2 [dir = none, style = dashed]
                        
                // Marriages concerning "iziaslav2"
                iziaslav2 -> gertrude [dir = none, style = dashed]
                        
                // Marriages concerning "sviatoslav3"
                kilikia -> sviatoslav3 [dir = none, style = dashed];
                sviatoslav3 -> oda [dir = none, style = dashed];
                        
                // Marriages concerning "anna2"
                henry1 -> anna2 [dir = none, style = dashed];
                anna2 -> raoul [dir = none, style = dashed];
                        
                // Marriages concerning "vsevolod2"
                monomakhina -> vsevolod2 [dir = none, style = dashed];
                vsevolod2 -> unknownwifevsevolod2 [dir = none, style = dashed];
                        
                // Marriages concerning "igor2"
                igor2 -> unknownwifeigor2 [dir = none, style = dashed]
                        
                // Marriages concerning "viacheslav1"
                viacheslav1 -> unknownwifeviacheslav1 [dir = none, style = dashed]
                        
                // Marriages concerning "edward"
                edward -> agafia [dir = none, style = dashed]
                        
                // Marriages concerning "andrew"
                andrew -> anastasia [dir = none, style = dashed]
                        
                // Marriages concerning "harald1"
                harald1 -> elisabeth [dir = none, style = dashed]
                        
                // Marriages concerning "henry1"
                henry1 -> anna2 [dir = none, style = dashed]
                        
                // Marriages concerning "raoul"
                raoul -> anna2 [dir = none, style = dashed]
                        
                // Marriages concerning "briacheslav1"
                briacheslav1 -> unknownwifebriacheslav1 [dir = none, style = dashed]
                        
                // Marriages concerning "boleslaw2"
                boleslaw2 -> vysheslava [dir = none, style = dashed]
                        
                // Marriages concerning "wladyslaw"
                judith2 -> wladyslaw [dir = none, style = dashed];
                wladyslaw -> judith [dir = none, style = dashed];
                        
                // Marriages concerning "vratislav"
                vratislav -> sviatoslava [dir = none, style = dashed]
                        
                // Marriages concerning "bela1"
                bela1 -> unknowndaughtermieszko2 [dir = none, style = dashed]
                        

            /* EXPERIMENTATION */
                ilia1 -> vladimir2 [style = invis];
                unknownwifevladimir2 -> iziaslav2 [style = invis];
                gertrude -> edward [style = invis];
                agafia -> anastasia [style = invis];
                anastasia -> kilikia [style = invis];
                oda -> harald1 [style = invis];
                elisabeth -> henry1 [style = invis];
                raoul -> monomakhina [style = invis];
                unknownwifevsevolod2 -> igor2 [style = invis];
                unknownwifeigor2 -> viacheslav1 [style = invis];
                unknownwifeviacheslav1 -> andrew [style = invis];
                andrew -> briacheslav1 [style = invis];
                unknownwifebriacheslav1 -> vseslav1 [style = invis];
                vseslav1 -> eustafii [style = invis];
                eustafii -> boleslaw2 [style = invis];
                vysheslava -> judith2 [style = invis];
                judith -> mieszko [style = invis];
                mieszko -> otto1 [style = invis];
                otto1 -> vratislav [style = invis];
                sviatoslava -> bela1 [style = invis];
                unknowndaughtermieszko2 -> Levente [style = invis];
                
            

            
            }       /* End of subgraph Generation0 */
            unknownwifeiaroslav1 -> ilia1 [dir = none, weight = 50];
                        vladimir2Son -> vladimir2 [dir = none, weight = 50];
                        vladimir2Son -> unknownwifevladimir2 [dir = none, style = invis];
                        iziaslav2Son -> iziaslav2 [dir = none, weight = 50];
                        iziaslav2Son -> gertrude [dir = none, style = invis];
                        agafiaSon -> agafia [dir = none, weight = 50];
                        agafiaSon -> edward [dir = none, style = invis];
                        anastasiaSon -> anastasia [dir = none, weight = 50];
                        anastasiaSon -> andrew [dir = none, style = invis];
                        sviatoslav3Son -> sviatoslav3 [dir = none, weight = 50];
                        sviatoslav3Son -> kilikia [dir = none, style = invis];
                        sviatoslav3Son -> oda [dir = none, style = invis];
                        elisabethSon -> elisabeth [dir = none, weight = 50];
                        elisabethSon -> harald1 [dir = none, style = invis];
                        anna2Son -> anna2 [dir = none, weight = 50];
                        anna2Son -> henry1 [dir = none, style = invis];
                        anna2Son -> raoul [dir = none, style = invis];
                        vsevolod2Son -> vsevolod2 [dir = none, weight = 50];
                        vsevolod2Son -> monomakhina [dir = none, style = invis];
                        vsevolod2Son -> unknownwifevsevolod2 [dir = none, style = invis];
                        igor2Son -> igor2 [dir = none, weight = 50];
                        igor2Son -> unknownwifeigor2 [dir = none, style = invis];
                        viacheslav1Son -> viacheslav1 [dir = none, weight = 50];
                        viacheslav1Son -> unknownwifeviacheslav1 [dir = none, style = invis];
                        andrewSon -> andrew [dir = none, weight = 50];
                        andrewSon -> anastasia [dir = none, style = invis];
                        briacheslav1Son -> briacheslav1 [dir = none, weight = 50];
                        briacheslav1Son -> unknownwifebriacheslav1 [dir = none, style = invis];
                        vseslav1Son -> vseslav1 [dir = none, weight = 50];
                        mstislav1ANDunknownwifemstislav1 -> eustafii [dir = none, weight = 50];
                        boleslaw2Son -> boleslaw2 [dir = none, weight = 50];
                        boleslaw2Son -> vysheslava [dir = none, style = invis];
                        wladyslawSon -> wladyslaw [dir = none, weight = 50];
                        wladyslawSon -> judith2 [dir = none, style = invis];
                        wladyslawSon -> judith [dir = none, style = invis];
                        mieszkoSon -> mieszko [dir = none, weight = 50];
                        otto1Son -> otto1 [dir = none, weight = 50];
                        sviatoslavaSon -> sviatoslava [dir = none, weight = 50];
                        sviatoslavaSon -> vratislav [dir = none, style = invis];
                        bela1Son -> bela1 [dir = none, weight = 50];
                        bela1Son -> unknowndaughtermieszko2 [dir = none, style = invis];
                        LeventeSon -> Levente [dir = none, weight = 50];
                        
        }
    