<?xml version="1.0" encoding="UTF-8" standalone="no"?>
<!DOCTYPE svg PUBLIC "-//W3C//DTD SVG 1.1//EN"
 "http://www.w3.org/Graphics/SVG/1.1/DTD/svg11.dtd">
<!-- Generated by graphviz version 2.26.0 (20091210.2329)
 -->
<!-- Title: familyTree Pages: 1 -->
<svg width="1566pt" height="226pt"
 viewBox="0.00 0.00 1566.00 226.00" xmlns="http://www.w3.org/2000/svg" xmlns:xlink="http://www.w3.org/1999/xlink">
<g id="graph1" class="graph" transform="scale(1 1) rotate(0) translate(4 222)">
<title>familyTree</title>
<!-- igor1 -->
<g id="node2" class="node"><title>igor1</title>
<a xlink:href="http://genealogy.obdurodon.org/findPerson.php?person=igor1" xlink:title="Igor′" target="_parent">
<polygon fill="white" stroke="red" points="604,-218 550,-218 550,-182 604,-182 604,-218"/>
<text text-anchor="middle" x="577" y="-196.9" font-family="Times Roman,serif" font-size="14.00">Igor′</text>
</a>
</g>
<!-- igor1ANDolga1 -->
<g id="node4" class="node"><title>igor1ANDolga1</title>
<ellipse fill="black" stroke="black" cx="622" cy="-200" rx="0.0108" ry="0.0108"/>
</g>
<!-- igor1&#45;&gt;igor1ANDolga1 -->
<g id="edge3" class="edge"><title>igor1&#45;&gt;igor1ANDolga1</title>
<path fill="none" stroke="black" stroke-dasharray="5,2" d="M604.07,-200C609.953,-200 615.837,-200 621.72,-200"/>
</g>
<!-- olga1 -->
<g id="node3" class="node"><title>olga1</title>
<a xlink:href="http://genealogy.obdurodon.org/findPerson.php?person=olga1" xlink:title="Ol′ga" target="_parent">
<polygon fill="white" stroke="red" points="694,-218 640,-218 640,-182 694,-182 694,-218"/>
<text text-anchor="middle" x="667" y="-196.9" font-family="Times Roman,serif" font-size="14.00">Ol′ga</text>
</a>
</g>
<!-- igor1ANDolga1&#45;&gt;olga1 -->
<g id="edge5" class="edge"><title>igor1ANDolga1&#45;&gt;olga1</title>
<path fill="none" stroke="black" stroke-dasharray="5,2" d="M622.352,-200C628.165,-200 633.979,-200 639.792,-200"/>
</g>
<!-- sviatoslav1 -->
<g id="node9" class="node"><title>sviatoslav1</title>
<a xlink:href="http://genealogy.obdurodon.org/findPerson.php?person=sviatoslav1" xlink:title="Sviatoslav Igorich" target="_parent">
<polygon fill="white" stroke="red" points="680,-146 564,-146 564,-110 680,-110 680,-146"/>
<text text-anchor="middle" x="622" y="-124.9" font-family="Times Roman,serif" font-size="14.00">Sviatoslav Igorich</text>
</a>
</g>
<!-- igor1ANDolga1&#45;&gt;sviatoslav1 -->
<g id="edge13" class="edge"><title>igor1ANDolga1&#45;&gt;sviatoslav1</title>
<path fill="none" stroke="black" d="M622,-199.948C622,-198.491 622,-166.879 622,-146.047"/>
</g>
<!-- malusha -->
<g id="node11" class="node"><title>malusha</title>
<a xlink:href="http://genealogy.obdurodon.org/findPerson.php?person=malusha" xlink:title="Malusha Malkovna" target="_parent">
<polygon fill="white" stroke="red" points="1106,-146 984,-146 984,-110 1106,-110 1106,-146"/>
<text text-anchor="middle" x="1045" y="-124.9" font-family="Times Roman,serif" font-size="14.00">Malusha Malkovna</text>
</a>
</g>
<!-- sviatoslav1&#45;&gt;malusha -->
<g id="edge11" class="edge"><title>sviatoslav1&#45;&gt;malusha</title>
<path fill="none" stroke="black" stroke-dasharray="5,2" d="M680.245,-128C781.408,-128 882.57,-128 983.733,-128"/>
</g>
<!-- unknownwifesviatoslav1 -->
<g id="node10" class="node"><title>unknownwifesviatoslav1</title>
<a xlink:href="http://genealogy.obdurodon.org/findPerson.php?person=unknown-wife-sviatoslav1" xlink:title="unknown" target="_parent">
<polygon fill="white" stroke="yellow" points="260,-146 194,-146 194,-110 260,-110 260,-146"/>
<text text-anchor="middle" x="227" y="-124.9" font-family="Times Roman,serif" font-size="14.00">unknown</text>
</a>
</g>
<!-- unknownwifesviatoslav1&#45;&gt;sviatoslav1 -->
<g id="edge9" class="edge"><title>unknownwifesviatoslav1&#45;&gt;sviatoslav1</title>
<path fill="none" stroke="black" stroke-dasharray="5,2" d="M260.174,-128C361.349,-128 462.523,-128 563.698,-128"/>
</g>
<!-- iaropolk1Son -->
<g id="node16" class="node"><title>iaropolk1Son</title>
<polygon fill="none" stroke="black" points="69,-73.5 69,-73.5 69,-72.5 69,-72.5 69,-73.5"/>
</g>
<!-- unknownwifesviatoslav1&#45;&gt;iaropolk1Son -->
<!-- oleg1Son -->
<g id="node17" class="node"><title>oleg1Son</title>
<polygon fill="none" stroke="black" points="385,-73.5 385,-73.5 385,-72.5 385,-72.5 385,-73.5"/>
</g>
<!-- unknownwifesviatoslav1&#45;&gt;oleg1Son -->
<!-- sviatoslav1ANDunknownwifesviatoslav1Son -->
<g id="node18" class="node"><title>sviatoslav1ANDunknownwifesviatoslav1Son</title>
<ellipse fill="black" stroke="black" cx="227" cy="-73" rx="0.0108" ry="0.0108"/>
</g>
<!-- unknownwifesviatoslav1&#45;&gt;sviatoslav1ANDunknownwifesviatoslav1Son -->
<g id="edge22" class="edge"><title>unknownwifesviatoslav1&#45;&gt;sviatoslav1ANDunknownwifesviatoslav1Son</title>
<path fill="none" stroke="black" d="M227,-109.991C227,-94.4519 227,-74.3046 227,-73.0606"/>
</g>
<!-- vladimir1 -->
<g id="node27" class="node"><title>vladimir1</title>
<a xlink:href="http://genealogy.obdurodon.org/findPerson.php?person=vladimir1" xlink:title="Vladimir Sviatoslavich" target="_parent">
<polygon fill="white" stroke="red" points="1116,-36 974,-36 974,-1.77636e-14 1116,-3.55271e-15 1116,-36"/>
<text text-anchor="middle" x="1045" y="-14.9" font-family="Times Roman,serif" font-size="14.00">Vladimir Sviatoslavich</text>
</a>
</g>
<!-- malusha&#45;&gt;vladimir1 -->
<g id="edge47" class="edge"><title>malusha&#45;&gt;vladimir1</title>
<path fill="none" stroke="black" d="M1045,-109.836C1045,-89.4545 1045,-56.5835 1045,-36.1912"/>
</g>
<!-- iaropolk1Son&#45;&gt;sviatoslav1ANDunknownwifesviatoslav1Son -->
<g id="edge16" class="edge"><title>iaropolk1Son&#45;&gt;sviatoslav1ANDunknownwifesviatoslav1Son</title>
<path fill="none" stroke="black" d="M69.6172,-73C121.976,-73 174.334,-73 226.693,-73"/>
</g>
<!-- iaropolk1 -->
<g id="node25" class="node"><title>iaropolk1</title>
<a xlink:href="http://genealogy.obdurodon.org/findPerson.php?person=iaropolk1" xlink:title="Iaropolk Sviatoslavich" target="_parent">
<polygon fill="white" stroke="red" points="138,-36 5.68434e-14,-36 0,-1.77636e-14 138,-3.55271e-15 138,-36"/>
<text text-anchor="middle" x="69" y="-14.9" font-family="Times Roman,serif" font-size="14.00">Iaropolk Sviatoslavich</text>
</a>
</g>
<!-- iaropolk1Son&#45;&gt;iaropolk1 -->
<g id="edge43" class="edge"><title>iaropolk1Son&#45;&gt;iaropolk1</title>
<path fill="none" stroke="black" d="M69,-72.3823C69,-68.8182 69,-50.5382 69,-36.1424"/>
</g>
<!-- oleg1 -->
<g id="node26" class="node"><title>oleg1</title>
<a xlink:href="http://genealogy.obdurodon.org/findPerson.php?person=oleg1" xlink:title="Oleg Sviatoslavich" target="_parent">
<polygon fill="white" stroke="red" points="444,-36 326,-36 326,-1.77636e-14 444,-3.55271e-15 444,-36"/>
<text text-anchor="middle" x="385" y="-14.9" font-family="Times Roman,serif" font-size="14.00">Oleg Sviatoslavich</text>
</a>
</g>
<!-- oleg1Son&#45;&gt;oleg1 -->
<g id="edge45" class="edge"><title>oleg1Son&#45;&gt;oleg1</title>
<path fill="none" stroke="black" d="M385,-72.3823C385,-68.8182 385,-50.5382 385,-36.1424"/>
</g>
<!-- sviatoslav1ANDunknownwifesviatoslav1Son&#45;&gt;oleg1Son -->
<g id="edge18" class="edge"><title>sviatoslav1ANDunknownwifesviatoslav1Son&#45;&gt;oleg1Son</title>
<path fill="none" stroke="black" d="M227.309,-73C279.667,-73 332.026,-73 384.384,-73"/>
</g>
<!-- greeknun -->
<g id="node28" class="node"><title>greeknun</title>
<a xlink:href="http://genealogy.obdurodon.org/findPerson.php?person=greeknun" xlink:title="Greek nun of Byzantium" target="_parent">
<polygon fill="white" stroke="purple" points="308,-36 156,-36 156,-1.77636e-14 308,-3.55271e-15 308,-36"/>
<text text-anchor="middle" x="232" y="-14.9" font-family="Times Roman,serif" font-size="14.00">Greek nun of Byzantium</text>
</a>
</g>
<!-- iaropolk1&#45;&gt;greeknun -->
<g id="edge27" class="edge"><title>iaropolk1&#45;&gt;greeknun</title>
<path fill="none" stroke="black" stroke-dasharray="5,2" d="M138.084,-18C143.954,-18 149.823,-18 155.693,-18"/>
</g>
<!-- czech1 -->
<g id="node29" class="node"><title>czech1</title>
<a xlink:href="http://genealogy.obdurodon.org/findPerson.php?person=czech1" xlink:title="First Czech woman of Bohemia" target="_parent">
<polygon fill="white" stroke="darkslateblue" points="652,-36 462,-36 462,-1.77636e-14 652,-3.55271e-15 652,-36"/>
<text text-anchor="middle" x="557" y="-14.9" font-family="Times Roman,serif" font-size="14.00">First Czech woman of Bohemia</text>
</a>
</g>
<!-- oleg1&#45;&gt;czech1 -->
<!-- bulgar -->
<g id="node32" class="node"><title>bulgar</title>
<a xlink:href="http://genealogy.obdurodon.org/findPerson.php?person=bulgar" xlink:title="Bulgar woman" target="_parent">
<polygon fill="white" stroke="yellow" points="1232,-36 1134,-36 1134,-1.77636e-14 1232,-3.55271e-15 1232,-36"/>
<text text-anchor="middle" x="1183" y="-14.9" font-family="Times Roman,serif" font-size="14.00">Bulgar woman</text>
</a>
</g>
<!-- vladimir1&#45;&gt;bulgar -->
<g id="edge35" class="edge"><title>vladimir1&#45;&gt;bulgar</title>
<path fill="none" stroke="black" stroke-dasharray="5,2" d="M1116.16,-18C1122.07,-18 1127.99,-18 1133.91,-18"/>
</g>
<!-- rogneda -->
<g id="node30" class="node"><title>rogneda</title>
<a xlink:href="http://genealogy.obdurodon.org/findPerson.php?person=rogneda" xlink:title="Rogned′" target="_parent">
<polygon fill="white" stroke="red" points="732,-36 670,-36 670,-1.77636e-14 732,-3.55271e-15 732,-36"/>
<text text-anchor="middle" x="701" y="-14.9" font-family="Times Roman,serif" font-size="14.00">Rogned′</text>
</a>
</g>
<!-- czech1&#45;&gt;rogneda -->
<g id="edge29" class="edge"><title>czech1&#45;&gt;rogneda</title>
<path fill="none" stroke="black" stroke-dasharray="5,2" d="M652.062,-18C657.925,-18 663.787,-18 669.649,-18"/>
</g>
<!-- czech2 -->
<g id="node31" class="node"><title>czech2</title>
<a xlink:href="http://genealogy.obdurodon.org/findPerson.php?person=czech2" xlink:title="Second Czech woman of Bohemia" target="_parent">
<polygon fill="white" stroke="darkslateblue" points="956,-36 750,-36 750,-1.77636e-14 956,-3.55271e-15 956,-36"/>
<text text-anchor="middle" x="853" y="-14.9" font-family="Times Roman,serif" font-size="14.00">Second Czech woman of Bohemia</text>
</a>
</g>
<!-- rogneda&#45;&gt;czech2 -->
<g id="edge31" class="edge"><title>rogneda&#45;&gt;czech2</title>
<path fill="none" stroke="black" stroke-dasharray="5,2" d="M732.172,-18C737.993,-18 743.814,-18 749.635,-18"/>
</g>
<!-- czech2&#45;&gt;vladimir1 -->
<g id="edge33" class="edge"><title>czech2&#45;&gt;vladimir1</title>
<path fill="none" stroke="black" stroke-dasharray="5,2" d="M956.125,-18C962.027,-18 967.929,-18 973.831,-18"/>
</g>
<!-- anna1 -->
<g id="node33" class="node"><title>anna1</title>
<a xlink:href="http://genealogy.obdurodon.org/findPerson.php?person=anna1" xlink:title="Anna “Porphyrogenita” of Byzantium" target="_parent">
<polygon fill="white" stroke="purple" points="1474,-36 1250,-36 1250,-1.77636e-14 1474,-3.55271e-15 1474,-36"/>
<text text-anchor="middle" x="1362" y="-14.9" font-family="Times Roman,serif" font-size="14.00">Anna “Porphyrogenita” of Byzantium</text>
</a>
</g>
<!-- bulgar&#45;&gt;anna1 -->
<g id="edge37" class="edge"><title>bulgar&#45;&gt;anna1</title>
<path fill="none" stroke="black" stroke-dasharray="5,2" d="M1232.29,-18C1238.12,-18 1243.95,-18 1249.77,-18"/>
</g>
<!-- unknownwifevladimir1 -->
<g id="node34" class="node"><title>unknownwifevladimir1</title>
<a xlink:href="http://genealogy.obdurodon.org/findPerson.php?person=unknown-wife-vladimir1" xlink:title="unknown" target="_parent">
<polygon fill="white" stroke="yellow" points="1558,-36 1492,-36 1492,-1.77636e-14 1558,-3.55271e-15 1558,-36"/>
<text text-anchor="middle" x="1525" y="-14.9" font-family="Times Roman,serif" font-size="14.00">unknown</text>
</a>
</g>
<!-- anna1&#45;&gt;unknownwifevladimir1 -->
<g id="edge39" class="edge"><title>anna1&#45;&gt;unknownwifevladimir1</title>
<path fill="none" stroke="black" stroke-dasharray="5,2" d="M1474.06,-18C1480.03,-18 1486,-18 1491.97,-18"/>
</g>
</g>
</svg>
