digraph familyTree
{
    bgcolor="transparent";
    center = true;
            
            subgraph Generation2
            {
            rank = same;
            
            /*  Create nodes for this level */
            unknownwifeigor2 [shape = box, URL = "http://genealogy.obdurodon.org/findPerson.php?person=unknown-wife-igor2", label = "unknown", color = "yellow", fillcolor = white, style = filled, target = _parent];
            igor2 [shape = box, URL = "http://genealogy.obdurodon.org/findPerson.php?person=igor2", label = "Igor′ Iaroslavich", color = "red", fillcolor = white, style = filled, target = _parent];
            

            /* Mark marriages between members of this generation */
            
                // Marriages concerning "igor2"
                igor2ANDunknownwifeigor2 [shape = point, width = 0, height = 0];
                            igor2 -> igor2ANDunknownwifeigor2 [dir = none, style = dashed];
                            igor2ANDunknownwifeigor2 -> unknownwifeigor2 [dir = none, style = dashed];
                        

            /* EXPERIMENTATION */
                
            

            
            }       /* End of subgraph Generation2 */
            
                subgraph Generation2Sons
                {
                rank = same;
                davidSon [shape = rect, width = 0, height = 0, fixedsize = true, label = ""];
                    vsevolod3Son [shape = rect, width = 0, height = 0, fixedsize = true, label = ""];
                    igor2ANDunknownwifeigor2Son [shape = point, width = 0, height = 0];
                                        davidSon -> igor2ANDunknownwifeigor2Son [dir = none];
                                        igor2ANDunknownwifeigor2Son -> vsevolod3Son [dir = none];
                                    
                }
                igor2ANDunknownwifeigor2 -> davidSon [dir = none, style = invis];
                                igor2ANDunknownwifeigor2 -> igor2ANDunknownwifeigor2Son [dir = none, weight = 50];
                                    igor2ANDunknownwifeigor2 -> vsevolod3Son [dir = none, style = invis];
                                
            
            subgraph Generation1
            {
            rank = same;
            
            /*  Create nodes for this level */
            david [shape = box, URL = "http://genealogy.obdurodon.org/findPerson.php?person=david", label = "David Igorich", color = "red", fillcolor = white, style = filled, target = _parent];
            vsevolod3 [shape = box, URL = "http://genealogy.obdurodon.org/findPerson.php?person=vsevolod3", label = "Vsevolod Igorich", color = "red", fillcolor = white, style = filled, target = _parent];
            unknownwifedavid [shape = box, URL = "http://genealogy.obdurodon.org/findPerson.php?person=unknown-wife-david", label = "unknown", color = "yellow", fillcolor = white, style = filled, target = _parent];
            unknownwifevsevolod3 [shape = box, URL = "http://genealogy.obdurodon.org/findPerson.php?person=unknown-wife-vsevolod3", label = "unknown", color = "yellow", fillcolor = white, style = filled, target = _parent];
            

            /* Mark marriages between members of this generation */
            
                // Marriages concerning "david"
                davidANDunknownwifedavid [shape = point, width = 0, height = 0];
                            david -> davidANDunknownwifedavid [dir = none, style = dashed];
                            davidANDunknownwifedavid -> unknownwifedavid [dir = none, style = dashed];
                        
                // Marriages concerning "vsevolod3"
                vsevolod3ANDunknownwifevsevolod3 [shape = point, width = 0, height = 0];
                            vsevolod3 -> vsevolod3ANDunknownwifevsevolod3 [dir = none, style = dashed];
                            vsevolod3ANDunknownwifevsevolod3 -> unknownwifevsevolod3 [dir = none, style = dashed];
                        

            /* EXPERIMENTATION */
                unknownwifedavid -> vsevolod3 [style = invis];
                
            

            
            }       /* End of subgraph Generation1 */
            davidSon -> david [dir = none, weight = 50];
                        davidSon -> unknownwifedavid [dir = none, style = invis];
                        vsevolod3Son -> vsevolod3 [dir = none, weight = 50];
                        vsevolod3Son -> unknownwifevsevolod3 [dir = none, style = invis];
                        
                subgraph Generation1Sons
                {
                rank = same;
                
                }
                
            
            subgraph Generation0
            {
            rank = same;
            
            /*  Create nodes for this level */
            vsevolodko [shape = box, URL = "http://genealogy.obdurodon.org/findPerson.php?person=vsevolodko", label = "Vsevolodko Davidich", color = "red", fillcolor = white, style = filled, target = _parent];
            agafia2 [shape = box, URL = "http://genealogy.obdurodon.org/findPerson.php?person=agafia2", label = "Agafia Vladimirovna", color = "red", fillcolor = white, style = filled, target = _parent];
            mstislav3 [shape = box, URL = "http://genealogy.obdurodon.org/findPerson.php?person=mstislav3", label = "Mstislav Vsevolodich", color = "red", fillcolor = white, style = filled, target = _parent];
            

            /* Mark marriages between members of this generation */
            
                // Marriages concerning "vsevolodko"
                vsevolodko -> agafia2 [dir = none, style = dashed]
                        

            /* EXPERIMENTATION */
                agafia2 -> mstislav3 [style = invis];
                
            

            
            }       /* End of subgraph Generation0 */
            davidANDunknownwifedavid -> vsevolodko [dir = none, weight = 50];
                        davidANDunknownwifedavid -> agafia2 [dir = none, style = invis];
                        vsevolod3ANDunknownwifevsevolod3 -> mstislav3 [dir = none, weight = 50];
                        
        }
    