
        digraph familyTree
        {
            bgcolor="transparent";
            center = true;
            
                subgraph Generation4
                {
                    rank = same;
                    iurii [shape = box, URL = "http://genealogy.obdurodon.org/findPerson.php?person=iurii", label = "Iurii “Dolgorukii” Vladimirich", color = "blue", fillcolor = white, style = filled, target = _parent];
                    daughter2ofkhanaepa [shape = box, URL = "http://genealogy.obdurodon.org/findPerson.php?person=daughter2-of-khan-aepa", label = "N.N. Daughter of Khan Aepa of Polovtsy", color = "deeppink", fillcolor = white, style = filled, target = _parent];
                    unknownwifeiurii [shape = box, URL = "http://genealogy.obdurodon.org/findPerson.php?person=unknown-wife-iurii", label = "N.N.", color = "deeppink", fillcolor = white, style = filled, target = _parent];
                    iuriiANDdaughter2ofkhanaepa [shape = point, width = 0, height = 0];
                                    iuriiANDdaughter2ofkhanaepa -> iurii [dir = none, style=dashed];
                                            iuriiANDdaughter2ofkhanaepa -> daughter2ofkhanaepa [dir = none, style=dashed];
                                        iuriiANDunknownwifeiurii [shape = point, width = 0, height = 0];
                                    unknownwifeiurii -> iuriiANDunknownwifeiurii [dir = none, style=dashed];
                                            iuriiANDunknownwifeiurii ->  iurii [dir = none, style=dashed];
                                        
                }
                
                    subgraph Generation4Sons
                    {
                        rank = same;
                        rostislav4Son [shape = rect, width = 0, height = 0, fixedsize = true, label = ""];
                            ivankoSon [shape = rect, width = 0, height = 0, fixedsize = true, label = ""];
                            andrei2Son [shape = rect, width = 0, height = 0, fixedsize = true, label = ""];
                            unknowndaughteriuriiSon [shape = rect, width = 0, height = 0, fixedsize = true, label = ""];
                            sviatoslav11Son [shape = rect, width = 0, height = 0, fixedsize = true, label = ""];
                            iaroslav5Son [shape = rect, width = 0, height = 0, fixedsize = true, label = ""];
                            gleb7Son [shape = rect, width = 0, height = 0, fixedsize = true, label = ""];
                            boris6Son [shape = rect, width = 0, height = 0, fixedsize = true, label = ""];
                            olga2Son [shape = rect, width = 0, height = 0, fixedsize = true, label = ""];
                            mstislav8Son [shape = rect, width = 0, height = 0, fixedsize = true, label = ""];
                            vasilko4Son [shape = rect, width = 0, height = 0, fixedsize = true, label = ""];
                            mikhailko2Son [shape = rect, width = 0, height = 0, fixedsize = true, label = ""];
                            roman5Son [shape = rect, width = 0, height = 0, fixedsize = true, label = ""];
                            vsevolod9Son [shape = rect, width = 0, height = 0, fixedsize = true, label = ""];
                            rostislav4Son -> sviatoslav11Son [dir = none];
                                        ivankoSon -> sviatoslav11Son [dir = none];
                                        andrei2Son -> sviatoslav11Son [dir = none];
                                        unknowndaughteriuriiSon -> sviatoslav11Son [dir = none];
                                        iaroslav5Son -> sviatoslav11Son [dir = none];
                                        gleb7Son -> sviatoslav11Son [dir = none];
                                        boris6Son -> sviatoslav11Son [dir = none];
                                        olga2Son -> sviatoslav11Son [dir = none];
                                        mstislav8Son -> mikhailko2Son [dir = none];
                                        vasilko4Son -> mikhailko2Son [dir = none];
                                        roman5Son -> mikhailko2Son [dir = none];
                                        vsevolod9Son -> mikhailko2Son [dir = none];
                                        
                    }
                    iuriiANDdaughter2ofkhanaepa ->
                            sviatoslav11Son [dir = none];
                                iuriiANDunknownwifeiurii ->
                            mikhailko2Son [dir = none];
                                
                subgraph Generation3
                {
                    rank = same;
                    rostislav4 [shape = box, URL = "http://genealogy.obdurodon.org/findPerson.php?person=rostislav4", label = "Rostislav Iurevich", color = "blue", fillcolor = white, style = filled, target = _parent];
                    ivanko [shape = box, URL = "http://genealogy.obdurodon.org/findPerson.php?person=ivanko", label = "Ivanko Iurevich", color = "green", fillcolor = white, style = filled, target = _parent];
                    andrei2 [shape = box, URL = "http://genealogy.obdurodon.org/findPerson.php?person=andrei2", label = "Andrei “Bogoliubskii” Iurevich", color = "blue", fillcolor = white, style = filled, target = _parent];
                    unknowndaughteriurii [shape = box, URL = "http://genealogy.obdurodon.org/findPerson.php?person=unknown-daughter-iurii", label = "N. N. Vladimirovna", color = "deeppink", fillcolor = white, style = filled, target = _parent];
                    sviatoslav11 [shape = box, URL = "http://genealogy.obdurodon.org/findPerson.php?person=sviatoslav11", label = "Sviatoslav Iurevich", color = "green", fillcolor = white, style = filled, target = _parent];
                    iaroslav5 [shape = box, URL = "http://genealogy.obdurodon.org/findPerson.php?person=iaroslav5", label = "Iaroslav Iurevich", color = "green", fillcolor = white, style = filled, target = _parent];
                    gleb7 [shape = box, URL = "http://genealogy.obdurodon.org/findPerson.php?person=gleb7", label = "Gleb Iurevich", color = "blue", fillcolor = white, style = filled, target = _parent];
                    boris6 [shape = box, URL = "http://genealogy.obdurodon.org/findPerson.php?person=boris6", label = "Boris Iurevich", color = "green", fillcolor = white, style = filled, target = _parent];
                    olga2 [shape = box, URL = "http://genealogy.obdurodon.org/findPerson.php?person=olga2", label = "N. N. “Ol′ga” Iurevna", color = "deeppink", fillcolor = white, style = filled, target = _parent];
                    mstislav8 [shape = box, URL = "http://genealogy.obdurodon.org/findPerson.php?person=mstislav8", label = "Mstislav Iurevich", color = "blue", fillcolor = white, style = filled, target = _parent];
                    vasilko4 [shape = box, URL = "http://genealogy.obdurodon.org/findPerson.php?person=vasilko4", label = "Vasilko Iurevich", color = "green", fillcolor = white, style = filled, target = _parent];
                    mikhailko2 [shape = box, URL = "http://genealogy.obdurodon.org/findPerson.php?person=mikhailko2", label = "Mikhailko Iurevich", color = "blue", fillcolor = white, style = filled, target = _parent];
                    roman5 [shape = box, URL = "http://genealogy.obdurodon.org/findPerson.php?person=roman5", label = "Roman Iurevich", color = "green", fillcolor = white, style = filled, target = _parent];
                    vsevolod9 [shape = box, URL = "http://genealogy.obdurodon.org/findPerson.php?person=vsevolod9", label = "Vsevolod “Big Nest” Iurevich", color = "blue", fillcolor = white, style = filled, target = _parent];
                    unknownwiferostislav4 [shape = box, URL = "http://genealogy.obdurodon.org/findPerson.php?person=unknown-wife-rostislav4", label = "N.N.", color = "deeppink", fillcolor = white, style = filled, target = _parent];
                    unknownwifeandrei2 [shape = box, URL = "http://genealogy.obdurodon.org/findPerson.php?person=unknown-wife-andrei2", label = "unknown", color = "deeppink", fillcolor = white, style = filled, target = _parent];
                    oleg3 [shape = box, URL = "http://genealogy.obdurodon.org/findPerson.php?person=oleg3", label = "Oleg Sviatoslavich", color = "blue", fillcolor = white, style = filled, target = _parent];
                    unknownwife2gleb7 [shape = box, URL = "http://genealogy.obdurodon.org/findPerson.php?person=unknown-wife2-gleb7", label = "unknown", color = "deeppink", fillcolor = white, style = filled, target = _parent];
                    unknowndaughteriziaslav7 [shape = box, URL = "http://genealogy.obdurodon.org/findPerson.php?person=unknown-daughter-iziaslav7", label = "N. N. Iziaslavna", color = "deeppink", fillcolor = white, style = filled, target = _parent];
                    unknownwifegleb7 [shape = box, URL = "http://genealogy.obdurodon.org/findPerson.php?person=unknown-wife-gleb7", label = "N. N.", color = "deeppink", fillcolor = white, style = filled, target = _parent];
                    iaroslav7 [shape = box, URL = "http://genealogy.obdurodon.org/findPerson.php?person=iaroslav7", label = "Iaroslav Vladimirkovich", color = "blue", fillcolor = white, style = filled, target = _parent];
                    petrovna [shape = box, URL = "http://genealogy.obdurodon.org/findPerson.php?person=petrovna", label = "Petrovna Mikhailovitsa", color = "deeppink", fillcolor = white, style = filled, target = _parent];
                    unknownwifemikhailko2 [shape = box, URL = "http://genealogy.obdurodon.org/findPerson.php?person=unknown-wife-mikhailko2", label = "N. N. Fevronia", color = "deeppink", fillcolor = white, style = filled, target = _parent];
                    maria6 [shape = box, URL = "http://genealogy.obdurodon.org/findPerson.php?person=maria6", label = "Maria of Ossetia", color = "deeppink", fillcolor = white, style = filled, target = _parent];
                    daughtervasilkobriacheslavich [shape = box, URL = "http://genealogy.obdurodon.org/findPerson.php?person=daughter-vasilko-briacheslavich", label = "N. N. Vasilkovna", color = "deeppink", fillcolor = white, style = filled, target = _parent];
                    rostislav4ANDunknownwiferostislav4 [shape = point, width = 0, height = 0];
                                    rostislav4ANDunknownwiferostislav4 -> rostislav4 [dir = none, style=dashed];
                                            rostislav4ANDunknownwiferostislav4 -> unknownwiferostislav4 [dir = none, style=dashed];
                                        andrei2ANDunknownwifeandrei2 [shape = point, width = 0, height = 0];
                                    andrei2ANDunknownwifeandrei2 -> andrei2 [dir = none, style=dashed];
                                            andrei2ANDunknownwifeandrei2 -> unknownwifeandrei2 [dir = none, style=dashed];
                                        gleb7ANDunknownwife2gleb7 [shape = point, width = 0, height = 0];
                                    gleb7ANDunknownwife2gleb7 -> gleb7 [dir = none, style=dashed];
                                            gleb7ANDunknownwife2gleb7 -> unknownwife2gleb7 [dir = none, style=dashed];
                                        gleb7 -> unknowndaughteriziaslav7 [dir = none, style=dashed];
                                        gleb7 -> unknownwifegleb7 [dir = none, style=dashed];
                                        mstislav8 -> petrovna [dir = none, style=dashed];
                                        mikhailko2 -> unknownwifemikhailko2 [dir = none, style=dashed];
                                        maria6 -> vsevolod9 [dir = none, style=dashed];
                                        vsevolod9 -> daughtervasilkobriacheslavich [dir = none, style=dashed];
                                        oleg3 -> unknowndaughteriurii [dir = none, style=dashed];
                                        iaroslav7ANDolga2 [shape = point, width = 0, height = 0];
                                    iaroslav7ANDolga2 -> iaroslav7 [dir = none, style=dashed];
                                            iaroslav7ANDolga2 -> olga2 [dir = none, style=dashed];
                                        iaroslav7 -> evfrosiniia2 [dir = none, style=dashed];
                                        
                }
                rostislav4Son -> rostislav4 [dir = none];
                        ivankoSon -> ivanko [dir = none];
                        andrei2Son -> andrei2 [dir = none];
                        unknowndaughteriuriiSon -> unknowndaughteriurii [dir = none];
                        sviatoslav11Son -> sviatoslav11 [dir = none];
                        iaroslav5Son -> iaroslav5 [dir = none];
                        gleb7Son -> gleb7 [dir = none];
                        boris6Son -> boris6 [dir = none];
                        olga2Son -> olga2 [dir = none];
                        mstislav8Son -> mstislav8 [dir = none];
                        vasilko4Son -> vasilko4 [dir = none];
                        mikhailko2Son -> mikhailko2 [dir = none];
                        roman5Son -> roman5 [dir = none];
                        vsevolod9Son -> vsevolod9 [dir = none];
                        
                    subgraph Generation3Sons
                    {
                        rank = same;
                        
                    }
                    
                subgraph Generation2
                {
                    rank = same;
                    unknowndaughterrostislav4 [shape = box, URL = "http://genealogy.obdurodon.org/findPerson.php?person=unknown-daughter-rostislav4", label = "N. N. Rostislavna", color = "deeppink", fillcolor = white, style = filled, target = _parent];
                    gleb5 [shape = box, URL = "http://genealogy.obdurodon.org/findPerson.php?person=gleb5", label = "Gleb Rostislavich", color = "blue", fillcolor = white, style = filled, target = _parent];
                    unknowndaughterandrei2 [shape = box, URL = "http://genealogy.obdurodon.org/findPerson.php?person=unknown-daughter-andrei2", label = "N. N. Andreevna", color = "deeppink", fillcolor = white, style = filled, target = _parent];
                    sviatoslav10 [shape = box, URL = "http://genealogy.obdurodon.org/findPerson.php?person=sviatoslav10", label = "Sviatoslav Vladimirich", color = "blue", fillcolor = white, style = filled, target = _parent];
                    unknowndaughtergleb7 [shape = box, URL = "http://genealogy.obdurodon.org/findPerson.php?person=unknown-daughter-gleb7", label = "N. N. Glebovna", color = "deeppink", fillcolor = white, style = filled, target = _parent];
                    vsevolod8 [shape = box, URL = "http://genealogy.obdurodon.org/findPerson.php?person=vsevolod8", label = "Vsevolod Sviatoslavich", color = "blue", fillcolor = white, style = filled, target = _parent];
                    evfrosiniia2 [shape = box, URL = "http://genealogy.obdurodon.org/findPerson.php?person=evfrosiniia2", label = "Evfrosiniia Iaroslavna", color = "deeppink", fillcolor = white, style = filled, target = _parent];
                    gleb5 -> unknowndaughterrostislav4 [dir = none, style=dashed];
                                        sviatoslav10 -> unknowndaughterandrei2 [dir = none, style=dashed];
                                        vsevolod8 -> unknowndaughtergleb7 [dir = none, style=dashed];
                                        
                }
                rostislav4ANDunknownwiferostislav4 -> unknowndaughterrostislav4 [dir = none];
                        andrei2ANDunknownwifeandrei2 -> unknowndaughterandrei2 [dir = none];
                        gleb7ANDunknownwife2gleb7 -> unknowndaughtergleb7 [dir = none];
                        iaroslav7ANDolga2 -> evfrosiniia2 [dir = none];
                        
        }
    