<?xml version="1.0" encoding="UTF-8" standalone="no"?>
<!DOCTYPE svg PUBLIC "-//W3C//DTD SVG 1.1//EN"
 "http://www.w3.org/Graphics/SVG/1.1/DTD/svg11.dtd">
<!-- Generated by graphviz version 2.26.0 (20091210.2329)
 -->
<!-- Title: familyTree Pages: 1 -->
<svg width="576pt" height="154pt"
 viewBox="0.00 0.00 576.00 154.00" xmlns="http://www.w3.org/2000/svg" xmlns:xlink="http://www.w3.org/1999/xlink">
<g id="graph1" class="graph" transform="scale(1 1) rotate(0) translate(4 150)">
<title>familyTree</title>
<!-- unknownwiferostislav7 -->
<g id="node2" class="node"><title>unknownwiferostislav7</title>
<a xlink:href="http://genealogy.obdurodon.org/findPerson.php?person=unknown-wife-rostislav7" xlink:title="unknown" target="_parent">
<polygon fill="white" stroke="yellow" points="417,-146 351,-146 351,-110 417,-110 417,-146"/>
<text text-anchor="middle" x="384" y="-124.9" font-family="Times Roman,serif" font-size="14.00">unknown</text>
</a>
</g>
<!-- rostislav7 -->
<g id="node3" class="node"><title>rostislav7</title>
<a xlink:href="http://genealogy.obdurodon.org/findPerson.php?person=rostislav7" xlink:title="Rostislav Vseslavich" target="_parent">
<polygon fill="white" stroke="red" points="315,-146 185,-146 185,-110 315,-110 315,-146"/>
<text text-anchor="middle" x="250" y="-124.9" font-family="Times Roman,serif" font-size="14.00">Rostislav Vseslavich</text>
</a>
</g>
<!-- rostislav7ANDunknownwiferostislav7 -->
<g id="node4" class="node"><title>rostislav7ANDunknownwiferostislav7</title>
<ellipse fill="black" stroke="black" cx="333" cy="-128" rx="0.0108" ry="0.0108"/>
</g>
<!-- rostislav7&#45;&gt;rostislav7ANDunknownwiferostislav7 -->
<g id="edge3" class="edge"><title>rostislav7&#45;&gt;rostislav7ANDunknownwiferostislav7</title>
<path fill="none" stroke="black" stroke-dasharray="5,2" d="M315.168,-128C321.019,-128 326.87,-128 332.721,-128"/>
</g>
<!-- rostislav7ANDunknownwiferostislav7&#45;&gt;unknownwiferostislav7 -->
<g id="edge5" class="edge"><title>rostislav7ANDunknownwiferostislav7&#45;&gt;unknownwiferostislav7</title>
<path fill="none" stroke="black" stroke-dasharray="5,2" d="M333.398,-128C339.197,-128 344.995,-128 350.793,-128"/>
</g>
<!-- predslava3Son -->
<g id="node8" class="node"><title>predslava3Son</title>
<polygon fill="none" stroke="black" points="109,-73.5 109,-73.5 109,-72.5 109,-72.5 109,-73.5"/>
</g>
<!-- rostislav7ANDunknownwiferostislav7&#45;&gt;predslava3Son -->
<!-- gordislavaSon -->
<g id="node9" class="node"><title>gordislavaSon</title>
<polygon fill="none" stroke="black" points="333,-73.5 333,-73.5 333,-72.5 333,-72.5 333,-73.5"/>
</g>
<!-- rostislav7ANDunknownwiferostislav7&#45;&gt;gordislavaSon -->
<g id="edge14" class="edge"><title>rostislav7ANDunknownwiferostislav7&#45;&gt;gordislavaSon</title>
<path fill="none" stroke="black" d="M333,-127.842C333,-124.818 333,-79.263 333,-73.5805"/>
</g>
<!-- david5Son -->
<g id="node10" class="node"><title>david5Son</title>
<polygon fill="none" stroke="black" points="508,-73.5 508,-73.5 508,-72.5 508,-72.5 508,-73.5"/>
</g>
<!-- rostislav7ANDunknownwiferostislav7&#45;&gt;david5Son -->
<!-- predslava3Son&#45;&gt;gordislavaSon -->
<g id="edge8" class="edge"><title>predslava3Son&#45;&gt;gordislavaSon</title>
<path fill="none" stroke="black" d="M109.875,-73C183.959,-73 258.044,-73 332.128,-73"/>
</g>
<!-- predslava3 -->
<g id="node17" class="node"><title>predslava3</title>
<a xlink:href="http://genealogy.obdurodon.org/findPerson.php?person=predslava3" xlink:title="Predslava Rostislavna St. Evfrosiniia" target="_parent">
<polygon fill="white" stroke="red" points="218,-36 9.9476e-14,-36 0,-1.77636e-14 218,-3.55271e-15 218,-36"/>
<text text-anchor="middle" x="109" y="-14.9" font-family="Times Roman,serif" font-size="14.00">Predslava Rostislavna St. Evfrosiniia</text>
</a>
</g>
<!-- predslava3Son&#45;&gt;predslava3 -->
<g id="edge23" class="edge"><title>predslava3Son&#45;&gt;predslava3</title>
<path fill="none" stroke="black" d="M109,-72.3823C109,-68.8182 109,-50.5382 109,-36.1424"/>
</g>
<!-- gordislavaSon&#45;&gt;david5Son -->
<g id="edge10" class="edge"><title>gordislavaSon&#45;&gt;david5Son</title>
<path fill="none" stroke="black" d="M333.684,-73C391.562,-73 449.441,-73 507.319,-73"/>
</g>
<!-- gordislava -->
<g id="node18" class="node"><title>gordislava</title>
<a xlink:href="http://genealogy.obdurodon.org/findPerson.php?person=gordislava" xlink:title="Gordislava Rostislavna Evdokiia" target="_parent">
<polygon fill="white" stroke="red" points="430,-36 236,-36 236,-1.77636e-14 430,-3.55271e-15 430,-36"/>
<text text-anchor="middle" x="333" y="-14.9" font-family="Times Roman,serif" font-size="14.00">Gordislava Rostislavna Evdokiia</text>
</a>
</g>
<!-- gordislavaSon&#45;&gt;gordislava -->
<g id="edge25" class="edge"><title>gordislavaSon&#45;&gt;gordislava</title>
<path fill="none" stroke="black" d="M333,-72.3823C333,-68.8182 333,-50.5382 333,-36.1424"/>
</g>
<!-- david5 -->
<g id="node19" class="node"><title>david5</title>
<a xlink:href="http://genealogy.obdurodon.org/findPerson.php?person=david5" xlink:title="David Rostislavich" target="_parent">
<polygon fill="white" stroke="red" points="568,-36 448,-36 448,-1.77636e-14 568,-3.55271e-15 568,-36"/>
<text text-anchor="middle" x="508" y="-14.9" font-family="Times Roman,serif" font-size="14.00">David Rostislavich</text>
</a>
</g>
<!-- david5Son&#45;&gt;david5 -->
<g id="edge27" class="edge"><title>david5Son&#45;&gt;david5</title>
<path fill="none" stroke="black" d="M508,-72.3823C508,-68.8182 508,-50.5382 508,-36.1424"/>
</g>
<!-- predslava3&#45;&gt;gordislava -->
<!-- gordislava&#45;&gt;david5 -->
</g>
</svg>
