
        digraph familyTree
        {
            bgcolor="transparent";
            center = true;
            
                subgraph Generation2
                {
                    rank = same;
                    igor1 [shape = box, URL = "http://genealogy.obdurodon.org/findPerson.php?person=igor1", label = "Igor′", color = "blue", fillcolor = transparent, style = filled, target = _parent];
                    olga1 [shape = box, URL = "http://genealogy.obdurodon.org/findPerson.php?person=olga1", label = "Ol′ga", color = "deeppink", fillcolor = transparent, style = filled, target = _parent];
                    igor1ANDolga1 [shape = point, width = 0, height = 0];
                                    igor1ANDolga1 -> igor1 [dir = none, style=dashed];
                                            igor1ANDolga1 -> olga1 [dir = none, style=dashed];
                                        
                }
                
                    subgraph Generation2Sons
                    {
                        rank = same;
                        
                    }
                    
                subgraph Generation1
                {
                    rank = same;
                    sviatoslav1 [shape = box, URL = "http://genealogy.obdurodon.org/findPerson.php?person=sviatoslav1", label = "Sviatoslav Igorich", color = "blue", fillcolor = transparent, style = filled, target = _parent];
                    unknownwifesviatoslav1 [shape = box, URL = "http://genealogy.obdurodon.org/findPerson.php?person=unknown-wife-sviatoslav1", label = "unknown", color = "deeppink", fillcolor = transparent, style = filled, target = _parent];
                    malusha [shape = box, URL = "http://genealogy.obdurodon.org/findPerson.php?person=malusha", label = "Malusha Malkovna", color = "deeppink", fillcolor = transparent, style = filled, target = _parent];
                    sviatoslav1ANDunknownwifesviatoslav1 [shape = point, width = 0, height = 0];
                                    sviatoslav1ANDunknownwifesviatoslav1 -> sviatoslav1 [dir = none, style=dashed];
                                            sviatoslav1ANDunknownwifesviatoslav1 -> unknownwifesviatoslav1 [dir = none, style=dashed];
                                        sviatoslav1ANDmalusha [shape = point, width = 0, height = 0];
                                    malusha -> sviatoslav1ANDmalusha [dir = none, style=dashed];
                                            sviatoslav1ANDmalusha ->  sviatoslav1 [dir = none, style=dashed];
                                        
                }
                igor1ANDolga1 -> sviatoslav1 [dir = none];
                        
                    subgraph Generation1Sons
                    {
                        rank = same;
                        iaropolk1Son [shape = rect, width = 0, height = 0, fixedsize = true, label = ""];
                            oleg1Son [shape = rect, width = 0, height = 0, fixedsize = true, label = ""];
                            sviatoslav1ANDunknownwifesviatoslav1Son [shape = point, width = 0, height = 0];
                                                iaropolk1Son -> sviatoslav1ANDunknownwifesviatoslav1Son [dir = none];
                                                oleg1Son -> sviatoslav1ANDunknownwifesviatoslav1Son [dir = none];
                                            
                    }
                    sviatoslav1ANDunknownwifesviatoslav1 ->
                            sviatoslav1ANDunknownwifesviatoslav1Son [dir = none];
                                
                subgraph Generation0
                {
                    rank = same;
                    iaropolk1 [shape = box, URL = "http://genealogy.obdurodon.org/findPerson.php?person=iaropolk1", label = "Iaropolk Sviatoslavich", color = "blue", fillcolor = transparent, style = filled, target = _parent];
                    oleg1 [shape = box, URL = "http://genealogy.obdurodon.org/findPerson.php?person=oleg1", label = "Oleg Sviatoslavich", color = "green", fillcolor = transparent, style = filled, target = _parent];
                    vladimir1 [shape = box, URL = "http://genealogy.obdurodon.org/findPerson.php?person=vladimir1", label = "Vladimir Sviatoslavich", color = "blue", fillcolor = transparent, style = filled, target = _parent];
                    greeknun [shape = box, URL = "http://genealogy.obdurodon.org/findPerson.php?person=greeknun", label = "Greek nun of Byzantium", color = "deeppink", fillcolor = transparent, style = filled, target = _parent];
                    czech1 [shape = box, URL = "http://genealogy.obdurodon.org/findPerson.php?person=czech1", label = "First Czech woman of Bohemia", color = "deeppink", fillcolor = transparent, style = filled, target = _parent];
                    rogneda [shape = box, URL = "http://genealogy.obdurodon.org/findPerson.php?person=rogneda", label = "Rogned′", color = "deeppink", fillcolor = transparent, style = filled, target = _parent];
                    czech2 [shape = box, URL = "http://genealogy.obdurodon.org/findPerson.php?person=czech2", label = "Second Czech woman of Bohemia", color = "deeppink", fillcolor = transparent, style = filled, target = _parent];
                    bulgar [shape = box, URL = "http://genealogy.obdurodon.org/findPerson.php?person=bulgar", label = "Bulgar woman", color = "deeppink", fillcolor = transparent, style = filled, target = _parent];
                    anna1 [shape = box, URL = "http://genealogy.obdurodon.org/findPerson.php?person=anna1", label = "Anna “Porphyrogenita” of Byzantium", color = "deeppink", fillcolor = transparent, style = filled, target = _parent];
                    unknownwifevladimir1 [shape = box, URL = "http://genealogy.obdurodon.org/findPerson.php?person=unknown-wife-vladimir1", label = "unknown", color = "deeppink", fillcolor = transparent, style = filled, target = _parent];
                    iaropolk1 -> greeknun [dir = none, style=dashed];
                                        czech1 -> vladimir1 [dir = none, style=dashed];
                                        rogneda -> vladimir1 [dir = none, style=dashed];
                                        czech2 -> vladimir1 [dir = none, style=dashed];
                                        vladimir1 -> bulgar [dir = none, style=dashed];
                                        vladimir1 -> anna1 [dir = none, style=dashed];
                                        vladimir1 -> unknownwifevladimir1 [dir = none, style=dashed];
                                        
                }
                iaropolk1Son -> iaropolk1 [dir = none];
                        oleg1Son -> oleg1 [dir = none];
                        sviatoslav1ANDmalusha -> vladimir1 [dir = none];
                        
        }
    